<svg xmlns="http://www.w3.org/2000/svg" width="445" height="339" viewBox="0 0 445 339">
    <defs>
        <radialGradient id="a" cx="49.349%" cy="31.287%" r="110.383%" fx="49.349%" fy="31.287%" gradientTransform="matrix(.57735 0 0 1 .209 0)">
            <stop offset="0%" stop-color="#FC2FFD"/>
            <stop offset="3.14%" stop-color="#E92BEC"/>
            <stop offset="11.21%" stop-color="#BD21C5"/>
            <stop offset="19.91%" stop-color="#9619A2"/>
            <stop offset="29.11%" stop-color="#761285"/>
            <stop offset="38.95%" stop-color="#5B0C6D"/>
            <stop offset="49.7%" stop-color="#47085B"/>
            <stop offset="61.78%" stop-color="#38044E"/>
            <stop offset="76.33%" stop-color="#300346"/>
            <stop offset="100%" stop-color="#2D0244"/>
        </radialGradient>
        <radialGradient id="b" cx="56.065%" cy="115.174%" r="139.274%" fx="56.065%" fy="115.174%" gradientTransform="matrix(1 0 0 .81964 0 .208)">
            <stop offset="0%" stop-color="#C819D3"/>
            <stop offset="14.35%" stop-color="#B121CE"/>
            <stop offset="73.33%" stop-color="#5641BC"/>
            <stop offset="100%" stop-color="#324DB5"/>
        </radialGradient>
        <radialGradient id="c" cx="30.196%" cy="79.757%" r="120.672%" fx="30.196%" fy="79.757%" gradientTransform="matrix(1 0 0 .59803 0 .32)">
            <stop offset="0%" stop-color="#C819D3"/>
            <stop offset="33.89%" stop-color="#912CC8"/>
            <stop offset="78.89%" stop-color="#4D44BA"/>
            <stop offset="100%" stop-color="#324DB5"/>
        </radialGradient>
        <radialGradient id="d" cx="51.282%" cy="105.025%" r="201.341%" fx="51.282%" fy="105.025%" gradientTransform="matrix(1 0 0 .61552 0 .404)">
            <stop offset="0%" stop-color="#EC35FB"/>
            <stop offset="40.89%" stop-color="#A155F2"/>
            <stop offset="81.24%" stop-color="#5C73E9"/>
            <stop offset="100%" stop-color="#417EE6"/>
        </radialGradient>
        <radialGradient id="e" cx="94.146%" cy="27.712%" r="100.566%" fx="94.146%" fy="27.712%" gradientTransform="matrix(.9349 0 0 1 .061 0)">
            <stop offset="0%" stop-color="#9CF5FE"/>
            <stop offset="25.11%" stop-color="#99F2FE"/>
            <stop offset="43.94%" stop-color="#8FE9FD"/>
            <stop offset="60.73%" stop-color="#7FD9FD"/>
            <stop offset="76.31%" stop-color="#69C3FC"/>
            <stop offset="90.95%" stop-color="#4BA6FA"/>
            <stop offset="94.11%" stop-color="#449FFA"/>
        </radialGradient>
        <linearGradient id="f" x1="103.037%" x2="50.247%" y1="5.56%" y2="49.793%">
            <stop offset="0%" stop-color="#3874DA"/>
            <stop offset="100%" stop-color="#2A023F"/>
        </linearGradient>
    </defs>
    <g fill="none" fill-rule="nonzero">
        <path fill="#53A5F8" d="M244.04 338.35L51.99 227.46l192.05-110.87 192.05 110.88z" opacity=".05"/>
        <path fill="#53A5F8" d="M244.04 318.56L51.99 207.68 244.04 96.8l192.05 110.88z" opacity=".1"/>
        <path fill="url(#a)" d="M244.04 299.12L51.99 188.24 244.04 77.36l192.05 110.88z" opacity=".2"/>
        <path fill="#53A5F8" d="M244.04 265.83l-131.39-75.86 131.39-75.85 131.39 75.85z" opacity=".1"/>
        <path fill="#53A5F8" d="M244.04 265.67c-.81 0-1.63-.21-2.36-.63l-128.1-73.96c-.4-.23-.65-.65-.65-1.12 0-.47.24-.88.64-1.12l128.09-73.95c1.46-.84 3.26-.84 4.72 0l128.1 73.96c.4.23.64.65.64 1.12 0 .47-.24.88-.64 1.12L246.4 265.04c-.73.42-1.54.63-2.36.63zm-1.85-1.49c1.15.66 2.57.66 3.72 0L374 190.23c.13-.08.14-.2.14-.25 0-.05-.01-.18-.14-.25l-128.1-73.96a3.742 3.742 0 0 0-3.72 0l-128.09 73.95c-.13.08-.15.2-.15.25 0 .05.01.18.15.25l128.1 73.96z"/>
        <path fill="#73CFFE" d="M123.7 289.96l-.5-.87.87-.5.5.87-.87.5zm4.23-2.44l-.5-.87.87-.5.5.87-.87.5zm4.23-2.45l-.5-.87.87-.5.5.87-.87.5zm4.24-2.44l-.5-.87.87-.5.5.87-.87.5zm4.23-2.44l-.5-.87.87-.5.5.87-.87.5zm4.23-2.45l-.5-.87.87-.5.5.87-.87.5zm4.24-2.44l-.5-.87.87-.5.5.87-.87.5zm4.23-2.44l-.5-.87.87-.5.5.87-.87.5zm4.23-2.45l-.5-.87.87-.5.5.87-.87.5zm4.23-2.44l-.5-.87.87-.5.5.87-.87.5zm4.24-2.45l-.5-.87.87-.5.5.87-.87.5zm4.05-3.13l-.95-.31c.06-.18.09-.36.09-.54 0-.07 0-.15-.01-.22l.99-.13c.01.12.02.23.02.35 0 .28-.05.57-.14.85zm-3.32-3.28l-.87-.5.5-.87.87.5-.5.87zm-4.23-2.44l-.87-.5.5-.87.87.5-.5.87zm-4.23-2.44l-.87-.5.5-.87.87.5-.5.87zm-4.24-2.45l-.87-.5.5-.87.87.5-.5.87zm-4.23-2.44l-.87-.5.5-.87.87.5-.5.87zm-4.23-2.44l-.87-.5.5-.87.87.5-.5.87zm-4.24-2.45l-.87-.5.5-.87.87.5-.5.87zm192.27-1.69c-.16 0-.33 0-.49-.01l.06-1c.16.01.32.02.48.01.16 0 .31 0 .47-.01l.05 1c-.19.01-.38.01-.57.01zm-196.5-.75l-.87-.5.5-.87.87.5-.5.87zm200.99-.35l-.47-.88.27-.15.58-.33.5.87-.58.33c-.1.05-.2.1-.3.16zm-8.9-.01c-.1-.05-.2-.11-.29-.16l-.59-.34.5-.87.59.34c.09.05.17.1.26.14l-.47.89zm-196.32-2.09l-.87-.5.5-.87.87.5-.5.87zm209.47-.35l-.5-.87.87-.5.5.87-.87.5zm-17.4-.01l-.87-.5.5-.87.87.5-.5.87zm-196.3-2.08l-.87-.5.5-.87.87.5-.5.87zm217.93-.35l-.5-.87.87-.5.5.87-.87.5zm-25.87-.01l-.87-.5.5-.87.87.5-.5.87zm-196.3-2.08l-.87-.5.5-.87.87.5-.5.87zm226.41-.36l-.5-.87.87-.5.5.87-.87.5zm-34.34 0l-.87-.5.5-.87.87.5-.5.87zm-196.3-2.09l-.87-.5.5-.87.87.5-.5.87zm234.87-.35l-.5-.87.87-.5.5.87-.87.5zm-42.8-.01l-.87-.5.5-.87.87.5-.5.87zm-196.3-2.08l-.87-.5.5-.87.87.5-.5.87zm243.33-.35l-.5-.87.87-.5.5.87-.87.5zm-51.26-.01l-.87-.5.5-.87.87.5-.5.87zm-196.31-2.09l-.87-.5.5-.87.87.5-.5.87zm251.8-.35l-.5-.87.87-.5.5.87-.87.5zm-57.87-1.26l-.99-.1c.04-.41.17-.81.38-1.15l.85.52c-.12.22-.21.47-.24.73zm-198.16-.83l-.87-.5.5-.87.87.5-.5.87zm260.27-.35l-.5-.87.87-.5.5.87-.87.5zm-58.84-1.53l-.5-.87.87-.5.5.87-.87.5zm-205.66-.56l-.87-.5.5-.87.87.5-.5.87zm268.73-.35l-.5-.87.87-.5.5.87-.87.5zm-58.84-1.53l-.5-.87.87-.5.5.87-.87.5zm-214.12-.57l-.87-.5.5-.87.87.5-.5.87zm277.19-.35l-.5-.87.87-.5.5.87-.87.5zm-58.84-1.53l-.5-.87.87-.5.5.87-.87.5zm-222.59-.56l-.87-.5.5-.87.87.5-.5.87zm285.67-.35l-.5-.87.87-.5.5.87-.87.5zm-58.84-1.53l-.5-.87.87-.5.5.87-.87.5zm63.07-.92l-.5-.87.87-.5.5.87-.87.5zm-293.97-.32c-.1-.29-.15-.58-.15-.89 0-.11.01-.21.02-.32l.99.11c-.01.07-.01.13-.01.2 0 .19.03.38.09.56l-.94.34zm235.13-1.21l-.5-.87.87-.5.5.87-.87.5zm63.07-.91l-.5-.87.87-.5.5.87-.87.5zm-294.91-1.17l-.5-.87.87-.5.5.87-.87.5zm236.07-.36l-.5-.87.87-.5.5.87-.87.5zm-145.93-.51l-.15-.99c.31-.05.62-.11.93-.19l.25.97c-.34.08-.68.15-1.03.21zm-4.06-.28c-.34-.1-.67-.22-.99-.35l.38-.92c.29.12.59.23.89.32l-.28.95zm213.06-.12l-.5-.87.87-.5.5.87-.87.5zm-294.91-1.17l-.5-.87.87-.5.5.87-.87.5zm90.57-.36l-.5-.87.87-.5.5.87-.87.5zm145.5 0l-.5-.87.87-.5.5.87-.87.5zm-158.67-.61l-.87-.5.5-.87.87.5-.5.87zm221.75-.31l-.5-.87.87-.5.5.87-.87.5zm-294.91-1.17l-.5-.87.87-.5.5.87-.87.5zm90.56-.35l-.5-.87.87-.5.5.87-.87.5zm145.51-.01l-.5-.87.87-.5.5.87-.87.5zm-167.15-.61l-.87-.5.5-.87.87.5-.5.87zm230.22-.3l-.5-.87.87-.5.5.87-.87.5zm-294.91-1.17l-.5-.87.87-.5.5.87-.87.5zm90.56-.35l-.5-.87.87-.5.5.87-.87.5zm145.51-.01l-.5-.87.87-.5.5.87-.87.5zm-175.61-.61l-.87-.5.5-.87.87.5-.5.87zm238.68-.31l-.5-.87.87-.5.5.87-.87.5zm-294.91-1.17l-.5-.87.87-.5.5.87-.87.5zm90.57-.35l-.5-.87.87-.5.5.87-.87.5zm145.5-.01l-.5-.87.87-.5.5.87-.87.5zm-184.07-.61l-.87-.5.5-.87.87.5-.5.87zm247.15-.3l-.5-.87.87-.5.5.87-.87.5zm-294.92-1.17l-.5-.87.87-.5.5.87-.87.5zm90.57-.35l-.5-.87.87-.5.5.87-.87.5zm145.51-.01l-.5-.87.87-.5.5.87-.87.5zm-192.54-.61l-.87-.5.5-.87.87.5-.5.87zm255.61-.3l-.5-.87.87-.5.5.87-.87.5zm-294.91-1.17l-.5-.87.87-.5.5.87-.87.5zm90.56-.35l-.5-.87.87-.5.5.87-.87.5zm145.51-.01l-.5-.87.87-.5.5.87-.87.5zm-201.01-.61l-.87-.5.5-.87.87.5-.5.87zm264.08-.31l-.5-.87.87-.5.5.87-.87.5zm-294.91-1.17l-.5-.87.87-.5.5.87-.87.5zm90.56-.35l-.5-.87.87-.5.5.87-.87.5zm145.51-.01l-.5-.87.15-.09c.19-.11.35-.25.49-.41l.78.63c-.21.26-.47.48-.76.65l-.16.09zm-209.47-.61l-.87-.5.5-.87.87.5-.5.87zm272.54-.3l-.5-.87.87-.5.5.87-.87.5zm-294.91-1.17l-.5-.87.87-.5.5.87-.87.5zm90.57-.35l-.5-.87.87-.5.5.87-.87.5zm-72.43-.62l-.87-.5.5-.87.87.5-.5.87zm281.01-.3l-.5-.87.87-.5.5.87-.87.5zm-67.7-.61l-.87-.5.5-.87.87.5-.5.87zm-227.21-.56l-.5-.87.87-.5.5.87-.87.5zm90.56-.35l-.5-.87.87-.5.5.87-.87.5zm-80.88-.61c-.28-.15-.56-.28-.86-.4l.37-.93c.32.13.64.28.96.45l-.47.88zm289.46-.32l-.5-.87.87-.5.5.87-.87.5zm-294.85-.57l-.16-.99c.35-.06.7-.1 1.05-.11l.05 1c-.32.01-.63.05-.94.1zm218.69-.04l-.87-.5.5-.87.87.5-.5.87zm-128.19-.91l-.5-.87.87-.5.5.87-.87.5zm208.58-.92l-.5-.87.87-.5.5.87-.87.5zm-84.62-.61l-.87-.5.5-.87.87.5-.5.87zm-119.72-.91l-.5-.87.87-.5.5.87-.87.5zm208.58-.93l-.5-.87.87-.5.5.87-.87.5zm-93.09-.6l-.87-.5.5-.87.87.5-.5.87zm-111.26-.92l-.5-.87.87-.5.5.87-.87.5zm208.58-.92l-.5-.87.87-.5.5.87-.87.5zm-101.56-.61l-.87-.5.5-.87.87.5-.5.87zm-102.79-.91l-.5-.87.87-.5.5.87-.87.5zm98.56-1.53l-.87-.5.5-.87.87.5-.5.87zm-94.33-.91l-.5-.87.87-.5.5.87-.87.5zm90.1-1.54l-.87-.5.5-.87.87.5-.5.87zm-85.86-.91l-.5-.87.87-.5.5.87-.87.5zm81.62-1.53l-.87-.5.5-.87.87.5-.5.87zm-77.39-.91l-.5-.87.87-.5.5.87-.87.5zm73.16-1.53l-.87-.5.5-.87.87.5-.5.87zm-68.93-.92l-.5-.87.87-.5.5.87-.87.5zm64.7-1.53l-.87-.5.5-.87.87.5-.5.87zm-60.46-.91l-.5-.87.87-.5.5.87-.87.5zm56.23-1.53l-.87-.5.5-.87.87.5-.5.87zm-52-.91l-.5-.87.87-.5.5.87-.87.5zm47.76-1.53l-.87-.5.5-.87.87.5-.5.87zm-43.53-.92l-.5-.87.87-.5.5.87-.87.5zm39.3-1.53l-.87-.5.5-.87.87.5-.5.87zm-35.07-.91l-.5-.87.87-.5.5.87-.87.5zm30.84-1.53l-.87-.5.5-.87.87.5-.5.87zm-26.6-.92l-.5-.87.87-.5.5.87-.87.5zm22.36-1.53l-.87-.5.5-.87.87.5-.5.87zm-18.13-.91l-.5-.87.87-.5.5.87-.87.5zm13.9-1.53l-.87-.5.5-.87.87.5-.5.87zm-9.68-.9l-.48-.88c.31-.17.63-.32.95-.45l.38.93c-.28.11-.57.25-.85.4zm5.38-.93c-.31-.05-.62-.08-.94-.1l.05-1c.35.02.7.05 1.05.11l-.16.99z" opacity=".4"/>
        <path fill="#73CFFE" d="M123.7 279.64l-.5-.87.87-.5.5.87-.87.5zm4.23-2.44l-.5-.87.87-.5.5.87-.87.5zm4.23-2.45l-.5-.87.87-.5.5.87-.87.5zm4.24-2.44l-.5-.87.87-.5.5.87-.87.5zm4.23-2.45l-.5-.87.87-.5.5.87-.87.5zm4.23-2.44l-.5-.87.87-.5.5.87-.87.5zm4.24-2.44l-.5-.87.87-.5.5.87-.87.5zm4.23-2.45l-.5-.87.87-.5.5.87-.87.5zm4.23-2.44l-.5-.87.87-.5.5.87-.87.5zm4.23-2.45l-.5-.87.87-.5.5.87-.87.5zm4.24-2.44l-.5-.87.87-.5.5.87-.87.5zm4.05-3.14l-.95-.31c.06-.18.09-.36.09-.55 0-.07 0-.15-.01-.22l.99-.13c.01.12.02.23.02.35 0 .3-.05.59-.14.86zm-3.32-3.27l-.87-.5.5-.87.87.5-.5.87zm-4.23-2.44l-.87-.5.5-.87.87.5-.5.87zm-4.23-2.45l-.87-.5.5-.87.87.5-.5.87zm-4.24-2.44l-.87-.5.5-.87.87.5-.5.87zm-4.23-2.44l-.87-.5.5-.87.87.5-.5.87zm-4.23-2.45l-.87-.5.5-.87.87.5-.5.87zm-4.24-2.44l-.87-.5.5-.87.87.5-.5.87zm192.27-1.69c-.16 0-.33 0-.49-.01l.06-1c.16.01.32.02.48.01.16 0 .31 0 .47-.01l.05 1c-.19.01-.38.01-.57.01zm-196.5-.75l-.87-.5.5-.87.87.5-.5.87zm200.99-.35l-.47-.88.86-.49.5.87-.89.5zm-8.9-.01c-.1-.05-.2-.11-.29-.16l-.59-.34.5-.87.59.34c.09.05.17.1.26.14l-.47.89zm-196.32-2.09l-.87-.5.5-.87.87.5-.5.87zm209.47-.35l-.5-.87.87-.5.5.87-.87.5zm-17.4-.01l-.87-.5.5-.87.87.5-.5.87zm-196.3-2.08l-.87-.5.5-.87.87.5-.5.87zm217.93-.35l-.5-.87.87-.5.5.87-.87.5zm-25.87-.01l-.87-.5.5-.87.87.5-.5.87zm-196.3-2.09l-.87-.5.5-.87.87.5-.5.87zm226.41-.35l-.5-.87.87-.5.5.87-.87.5zm-34.34-.01l-.87-.5.5-.87.87.5-.5.87zm-196.3-2.08l-.87-.5.5-.87.87.5-.5.87zm234.87-.35l-.5-.87.87-.5.5.87-.87.5zm-42.8-.01l-.87-.5.5-.87.87.5-.5.87zm-196.3-2.08l-.87-.5.5-.87.87.5-.5.87zm243.33-.36l-.5-.87.87-.5.5.87-.87.5zm-51.26 0l-.87-.5.5-.87.87.5-.5.87zm-196.31-2.09l-.87-.5.5-.87.87.5-.5.87zm251.8-.35l-.5-.87.87-.5.5.87-.87.5zm-57.87-1.26l-.99-.1c.04-.41.17-.81.38-1.15l.85.52a1.8 1.8 0 0 0-.24.73zm-198.16-.83l-.87-.5.5-.87.87.5-.5.87zm260.27-.35l-.5-.87.87-.5.5.87-.87.5zm-58.84-1.53l-.5-.87.87-.5.5.87-.87.5zm-205.66-.57l-.87-.5.5-.87.87.5-.5.87zm268.73-.35l-.5-.87.87-.5.5.87-.87.5zm-58.84-1.53l-.5-.87.87-.5.5.87-.87.5zm-214.12-.56l-.87-.5.5-.87.87.5-.5.87zm277.19-.35l-.5-.87.87-.5.5.87-.87.5zm-58.84-1.53l-.5-.87.87-.5.5.87-.87.5zm-222.59-.56l-.87-.5.5-.87.87.5-.5.87zm285.67-.36l-.5-.87.87-.5.5.87-.87.5zm-58.84-1.53l-.5-.87.87-.5.5.87-.87.5zm63.07-.91l-.5-.87.87-.5.5.87-.87.5zm-293.97-.32c-.1-.29-.15-.58-.15-.89 0-.11.01-.21.02-.32l.99.11c-.01.07-.01.13-.01.2 0 .19.03.38.09.57l-.94.33zm235.13-1.21l-.5-.87.87-.5.5.87-.87.5zm63.07-.91l-.5-.87.87-.5.5.87-.87.5zm-294.91-1.17l-.5-.87.87-.5.5.87-.87.5zm236.07-.36l-.5-.87.87-.5.5.87-.87.5zm-145.93-.52l-.15-.99c.31-.05.62-.11.93-.19l.25.97c-.34.09-.68.16-1.03.21zm-4.06-.28c-.34-.1-.67-.22-.99-.35l.38-.92c.29.12.59.23.89.32l-.28.95zm213.06-.12l-.5-.87.87-.5.5.87-.87.5zm-294.91-1.17l-.5-.87.87-.5.5.87-.87.5zm90.57-.35l-.5-.87.87-.5.5.87-.87.5zm145.5-.01l-.5-.87.87-.5.5.87-.87.5zm-158.67-.61l-.87-.5.5-.87.87.5-.5.87zm221.75-.3l-.5-.87.87-.5.5.87-.87.5zm-294.91-1.17l-.5-.87.87-.5.5.87-.87.5zm90.56-.35l-.5-.87.87-.5.5.87-.87.5zm145.51-.01l-.5-.87.87-.5.5.87-.87.5zm-167.15-.61l-.87-.5.5-.87.87.5-.5.87zm230.22-.3l-.5-.87.87-.5.5.87-.87.5zm-294.91-1.17l-.5-.87.87-.5.5.87-.87.5zm90.56-.36l-.5-.87.87-.5.5.87-.87.5zm145.51 0l-.5-.87.87-.5.5.87-.87.5zm-175.61-.61l-.87-.5.5-.87.87.5-.5.87zm238.68-.31l-.5-.87.87-.5.5.87-.87.5zm-294.91-1.17l-.5-.87.87-.5.5.87-.87.5zm90.57-.35l-.5-.87.87-.5.5.87-.87.5zm145.5-.01l-.5-.87.87-.5.5.87-.87.5zm-184.07-.61l-.87-.5.5-.87.87.5-.5.87zm247.15-.3l-.5-.87.87-.5.5.87-.87.5zm-294.92-1.17l-.5-.87.87-.5.5.87-.87.5zm90.57-.35l-.5-.87.87-.5.5.87-.87.5zm145.51-.01l-.5-.87.87-.5.5.87-.87.5zm-192.54-.61l-.87-.5.5-.87.87.5-.5.87zm255.61-.31l-.5-.87.87-.5.5.87-.87.5zm-294.91-1.17l-.5-.87.87-.5.5.87-.87.5zm90.56-.35l-.5-.87.87-.5.5.87-.87.5zm145.51-.01l-.5-.87.87-.5.5.87-.87.5zm-201.01-.61l-.87-.5.5-.87.87.5-.5.87zm264.08-.3l-.5-.87.87-.5.5.87-.87.5zm-294.91-1.17l-.5-.87.87-.5.5.87-.87.5zm90.56-.35l-.5-.87.87-.5.5.87-.87.5zm145.51-.01l-.5-.87.15-.09c.19-.11.35-.25.49-.41l.78.63c-.21.26-.47.48-.76.65l-.16.09zm-209.47-.61l-.87-.5.5-.87.87.5-.5.87zm272.54-.3l-.5-.87.87-.5.5.87-.87.5zm-294.91-1.17l-.5-.87.87-.5.5.87-.87.5zm90.57-.35l-.5-.87.87-.5.5.87-.87.5zm-72.43-.62l-.87-.5.5-.87.87.5-.5.87zm281.01-.31l-.5-.87.87-.5.5.87-.87.5zm-67.7-.61l-.87-.5.5-.87.87.5-.5.87zm-227.21-.56l-.5-.87.87-.5.5.87-.87.5zm90.56-.35l-.5-.87.87-.5.5.87-.87.5zm-80.88-.6c-.28-.15-.56-.28-.86-.4l.37-.93c.32.13.64.28.96.45l-.47.88zm289.46-.32l-.5-.87.87-.5.5.87-.87.5zm-294.85-.58l-.16-.99c.35-.06.7-.1 1.05-.11l.05 1c-.32.02-.63.05-.94.1zm218.69-.03l-.87-.5.5-.87.87.5-.5.87zm-128.19-.91l-.5-.87.87-.5.5.87-.87.5zm208.58-.93l-.5-.87.87-.5.5.87-.87.5zm-84.62-.6l-.87-.5.5-.87.87.5-.5.87zm-119.72-.92l-.5-.87.87-.5.5.87-.87.5zm208.58-.92l-.5-.87.87-.5.5.87-.87.5zm-93.09-.61l-.87-.5.5-.87.87.5-.5.87zm-111.26-.91l-.5-.87.87-.5.5.87-.87.5zm208.58-.92l-.5-.87.87-.5.5.87-.87.5zm-101.56-.61l-.87-.5.5-.87.87.5-.5.87zm-102.79-.91l-.5-.87.87-.5.5.87-.87.5zm98.56-1.53l-.87-.5.5-.87.87.5-.5.87zm-94.33-.92l-.5-.87.87-.5.5.87-.87.5zm90.1-1.53l-.87-.5.5-.87.87.5-.5.87zm-85.86-.91l-.5-.87.87-.5.5.87-.87.5zm81.62-1.53l-.87-.5.5-.87.87.5-.5.87zm-77.39-.91l-.5-.87.87-.5.5.87-.87.5zm73.16-1.53l-.87-.5.5-.87.87.5-.5.87zm-68.93-.92l-.5-.87.87-.5.5.87-.87.5zm64.7-1.53l-.87-.5.5-.87.87.5-.5.87zm-60.46-.91l-.5-.87.87-.5.5.87-.87.5zm56.23-1.53l-.87-.5.5-.87.87.5-.5.87zm-52-.92l-.5-.87.87-.5.5.87-.87.5zm47.76-1.53l-.87-.5.5-.87.87.5-.5.87zm-43.53-.91l-.5-.87.87-.5.5.87-.87.5zm39.3-1.53l-.87-.5.5-.87.87.5-.5.87zm-35.07-.91l-.5-.87.87-.5.5.87-.87.5zm30.84-1.53l-.87-.5.5-.87.87.5-.5.87zm-26.6-.92l-.5-.87.87-.5.5.87-.87.5zm22.36-1.53l-.87-.5.5-.87.87.5-.5.87zm-18.13-.91l-.5-.87.87-.5.5.87-.87.5zm13.9-1.53l-.87-.5.5-.87.87.5-.5.87zm-9.68-.91l-.48-.88c.31-.17.63-.32.95-.45l.38.93c-.28.12-.57.25-.85.4zm5.39-.92c-.31-.05-.62-.08-.94-.1l.05-1c.35.02.7.05 1.05.11l-.16.99z"/>
        <path fill="url(#b)" d="M34.73 22.36c.02-.22.03-.44.03-.66.04-1.62-.21-2.99-.7-4.1-.49-1.1-1.21-1.93-2.11-2.46l-6.34-3.68c1.8 1.05 2.89 3.32 2.81 6.55l-.03.66c0 .07-.01.13-.02.2a8.13 8.13 0 0 1-.08.71c-.02.14-.04.29-.07.43l-.03.2-.12.63c-.04.19-.08.37-.13.56-.01.06-.03.11-.04.17-.03.13-.07.26-.1.4-.01.05-.03.1-.04.14-.04.13-.08.26-.12.4l-.06.2c-.03.1-.06.2-.1.3-.09.27-.18.53-.29.8-.02.05-.04.09-.05.14l-.27.66c-.02.06-.05.11-.07.17-.11.25-.22.49-.34.74-.02.05-.05.1-.07.14-.1.21-.21.41-.31.62-.03.06-.06.12-.09.17-.13.24-.26.48-.4.72-.02.04-.05.08-.07.12-.13.22-.26.43-.39.64-.03.05-.06.1-.1.15-.16.25-.32.49-.49.73-.03.05-.06.09-.1.14-.19.27-.38.53-.58.79-.06.08-.12.15-.18.23-.07.08-.13.17-.2.25-.06.08-.13.15-.19.23-.07.08-.13.16-.2.24-.03.04-.06.07-.1.11-.12.14-.25.28-.37.41-.05.06-.11.11-.16.17-.11.11-.22.23-.33.34-.07.07-.13.14-.2.2-.05.04-.09.09-.14.13-.09.09-.19.18-.28.26-.04.04-.08.08-.12.11-.13.12-.27.24-.4.35l-.02.02c-.13.11-.26.21-.39.32l-.13.1c-.1.07-.19.15-.29.22-.05.04-.1.07-.15.11l-.3.21c-.04.03-.09.06-.13.09-.14.1-.29.19-.43.28-.11.06-.21.13-.32.19a6.555 6.555 0 0 1-.56.3c-.13.07-.27.13-.4.19-.02.01-.03.01-.05.02-.14.06-.27.12-.4.17-.14.06-.29.11-.43.16-.03.01-.07.03-.1.04-.18.06-.35.11-.52.16-.1.03-.2.05-.3.07-.05.01-.1.02-.14.03-.15.03-.29.06-.44.08h-.01c-.13.02-.26.04-.39.05-.04 0-.09.01-.13.01-.09.01-.19.01-.28.02h-.5l-.36-.03c-.02 0-.05-.01-.07-.01-.1-.01-.19-.03-.29-.05-.03-.01-.06-.01-.1-.02-.11-.02-.21-.05-.32-.08-.01 0-.01 0-.02-.01-.11-.03-.22-.07-.33-.11l-.09-.03c-.09-.03-.17-.07-.26-.11-.02-.01-.04-.02-.07-.03-.11-.05-.21-.11-.32-.17l6.34 3.68c.02.01.03.02.05.03.09.05.18.09.27.14.02.01.04.02.07.03.05.02.1.05.15.07.03.01.07.03.1.04l.09.03c.11.04.21.08.32.11h.01c.01 0 .01 0 .02.01.1.03.21.06.32.08.03.01.06.01.1.02.03.01.07.01.1.02.06.01.12.02.19.03.02 0 .05.01.07.01l.32.03h.14c.09 0 .19.01.28 0h.21c.06 0 .12-.01.18-.01.04 0 .08-.01.13-.01.13-.01.26-.03.39-.05h.01c.14-.02.29-.05.43-.08.05-.01.1-.02.14-.04.09-.02.18-.04.27-.07.01 0 .02-.01.03-.01.17-.05.35-.1.52-.16.03-.01.07-.03.1-.04.14-.05.29-.1.43-.16.02-.01.04-.01.06-.02.11-.05.23-.1.35-.15.02-.01.03-.01.05-.02.13-.06.26-.13.4-.19l.12-.06c.15-.08.3-.16.44-.24.1-.06.21-.12.32-.19.14-.09.29-.18.43-.28.04-.03.09-.06.13-.09l.3-.21c.05-.04.1-.07.15-.11.1-.07.19-.15.29-.22l.13-.1c.13-.1.26-.21.39-.32l.02-.02c.14-.11.27-.23.4-.35.04-.04.08-.08.12-.11.09-.09.19-.17.28-.26.05-.04.09-.09.14-.13.04-.03.07-.07.11-.1.03-.03.06-.07.1-.1.11-.11.22-.22.33-.34.05-.06.11-.11.16-.17.13-.14.25-.27.37-.41.03-.03.05-.06.08-.09l.02-.02c.07-.08.14-.16.2-.24.06-.08.13-.15.19-.23.07-.08.13-.16.2-.25.06-.07.12-.14.17-.22 0-.01.01-.01.01-.02.2-.26.39-.52.58-.79.02-.03.04-.05.06-.08.01-.02.03-.04.04-.06.17-.24.33-.48.49-.73.01-.02.02-.03.04-.05.02-.03.04-.07.06-.1.13-.21.26-.42.39-.64.02-.03.04-.06.05-.09.01-.01.01-.02.02-.04.14-.24.27-.48.4-.72a.21.21 0 0 1 .04-.06c.02-.04.04-.07.05-.11.11-.2.21-.41.31-.62.02-.03.03-.07.05-.1.01-.01.01-.03.02-.04.12-.24.23-.49.34-.74l.03-.06c.02-.04.03-.07.04-.11.09-.22.19-.44.27-.66.01-.03.03-.07.04-.1.01-.01.01-.03.01-.04.1-.26.2-.53.29-.8.01-.03.02-.05.03-.08.02-.07.05-.14.07-.22l.06-.2c.04-.13.08-.26.12-.4.01-.05.03-.1.04-.14 0-.01.01-.02.01-.03.03-.12.06-.25.1-.37.01-.06.03-.11.04-.17.05-.19.09-.37.13-.56.05-.21.09-.42.12-.64l.03-.2c.02-.15.05-.29.07-.43 0-.03.01-.06.01-.09.01-.04.01-.08.01-.12.02-.16.04-.33.05-.49.02-.02.03-.09.03-.16z" transform="translate(201 95)"/>
        <path fill="url(#c)" d="M31.49 1.35c-.03-.02-.07-.04-.1-.06l-.06-.03c-.1-.06-.21-.11-.31-.17-.03-.02-.07-.03-.1-.05-.13-.06-.27-.13-.41-.18-.01 0-.01-.01-.02-.01-.02-.01-.04-.01-.06-.02-.11-.05-.23-.09-.34-.13-.04-.01-.08-.03-.12-.04-.13-.04-.26-.09-.4-.13-.01 0-.02-.01-.03-.01h-.01c-.15-.04-.29-.08-.44-.11l-.12-.03c-.12-.03-.24-.05-.37-.07-.02 0-.05-.01-.07-.01h-.03c-.16-.03-.31-.05-.47-.07-.04 0-.07-.01-.11-.01-.13-.01-.27-.03-.4-.04-.03 0-.05-.01-.08-.01h-.04c-.17-.01-.34-.02-.51-.02h-.1c-.15 0-.3 0-.46.01H26.22c-.19.01-.38.02-.58.04-.04 0-.08.01-.12.01-.2.02-.4.05-.61.08h-.01c-.24.04-.49.08-.74.14-.02 0-.04.01-.06.01-.24.05-.48.11-.72.17-.02.01-.04.01-.06.01-.02 0-.03.01-.05.01-.13.04-.26.07-.39.11l-.09.03c-.16.05-.32.1-.49.16-.04.02-.09.03-.14.05-.12.04-.24.08-.36.13-.06.02-.12.05-.18.07-.11.04-.22.08-.32.13-.03.01-.07.03-.1.04-.03.01-.05.02-.08.03-.16.07-.31.13-.47.2-.03.01-.06.03-.09.04-.18.08-.37.17-.56.27-.05.02-.1.05-.15.07-.14.07-.29.15-.43.22-.05.03-.11.06-.16.09a24.52 24.52 0 0 0-1.43.84c-.09.06-.18.12-.28.18-.19.13-.39.25-.58.38-.11.07-.21.15-.32.22l-.53.38c-.11.08-.21.16-.32.24l-.53.41-.3.24c-.2.16-.4.33-.59.5-.07.06-.15.12-.22.19-.27.23-.53.47-.79.72-.06.05-.11.11-.16.16-.17.16-.35.33-.52.5l-.11.11-.14.14c-.24.24-.48.49-.71.74l-.02.02c-.24.25-.47.51-.71.78-.05.05-.09.11-.14.16-.04.05-.08.09-.12.14-.11.12-.21.25-.32.38l-.34.4c-.14.17-.27.34-.41.51-.11.14-.22.27-.32.41-.02.03-.04.05-.06.07-.21.27-.41.53-.61.81-.01.01-.02.03-.03.04l-.56.77-.07.1c-.06.08-.11.17-.17.25-.15.22-.3.44-.45.67-.07.1-.13.2-.2.3-.05.08-.1.15-.15.23-.11.17-.21.34-.32.51l-.12.18c-.17.27-.33.55-.49.83-.02.03-.04.07-.06.1-.04.07-.09.15-.13.22l-.42.75c-.05.09-.1.17-.14.26-.03.06-.06.12-.09.17-.14.26-.27.52-.4.78-.01.03-.03.05-.04.08-.11.22-.22.44-.33.67-.04.07-.07.15-.11.23-.04.09-.09.18-.13.28-.13.27-.25.54-.37.82-.03.06-.05.12-.08.18l-.03.06c-.13.31-.26.61-.39.92-.03.08-.07.17-.1.25-.06.15-.12.29-.17.44-.04.11-.08.21-.12.32-.04.11-.08.21-.12.32-.1.28-.2.56-.3.85-.02.06-.04.11-.06.17 0 .01-.01.03-.01.04-.11.33-.21.66-.31.99-.03.09-.05.19-.08.28-.06.19-.11.37-.16.56-.02.06-.03.12-.05.18l-.12.46-.15.62c-.04.16-.07.31-.11.47-.02.11-.05.22-.08.33-.03.15-.06.3-.09.44-.01.04-.02.08-.02.11-.06.33-.12.66-.17.98l-.03.17c-.04.26-.08.52-.11.78-.01.05-.01.1-.02.14-.01.11-.03.22-.04.33-.03.23-.05.46-.07.69l-.03.36c-.02.23-.03.46-.04.69-.01.1-.01.21-.02.31-.01.33-.02.66-.02.99.04 13.68 13.43 22.58 17.11 24.77l6.34 3.68C20.56 59.83 7.18 50.93 7.14 37.25c0-.33.01-.66.02-.99 0-.1.01-.21.02-.31.01-.23.02-.46.04-.69l.03-.36c.02-.23.04-.46.07-.69.01-.11.02-.22.04-.33.04-.31.08-.62.13-.93l.03-.17c.05-.33.11-.65.17-.98.01-.04.02-.07.02-.11.05-.26.11-.51.17-.77.03-.16.07-.31.11-.47l.15-.62.12-.46.21-.74c.03-.09.05-.19.08-.28.1-.34.21-.69.33-1.03.02-.06.04-.11.06-.17.1-.28.2-.57.3-.85.04-.11.08-.21.12-.32.1-.25.19-.51.29-.76.03-.08.07-.17.1-.25.13-.33.27-.66.41-.98.03-.06.05-.12.08-.18.12-.27.24-.54.37-.82.04-.09.09-.18.13-.28.14-.3.29-.6.44-.89.01-.03.03-.05.04-.08.16-.32.33-.64.5-.95.05-.09.09-.17.14-.26l.42-.75c.04-.07.08-.15.13-.22.18-.31.37-.62.55-.93l.12-.18c.15-.25.31-.49.47-.74.07-.1.13-.2.2-.3.15-.22.3-.45.45-.67.06-.08.11-.17.17-.25.21-.29.41-.59.63-.87.01-.01.02-.03.03-.04.22-.3.44-.59.67-.88.11-.14.22-.27.32-.41.14-.17.27-.34.41-.51.11-.14.23-.27.34-.4.15-.17.29-.35.44-.52.05-.05.09-.11.14-.16.23-.26.47-.52.71-.78l.02-.02c.24-.25.47-.5.71-.74.05-.05.09-.1.14-.14.21-.21.42-.41.63-.61.06-.05.11-.11.16-.16.26-.24.53-.48.79-.72l.22-.19c.2-.17.39-.34.59-.5l.3-.24c.18-.14.35-.28.53-.41.11-.08.21-.16.32-.24.18-.13.35-.26.53-.38.11-.07.21-.15.32-.22.19-.13.38-.26.58-.38.09-.06.18-.12.28-.18.29-.18.57-.36.86-.52.19-.11.38-.22.57-.32.05-.03.11-.06.16-.09.15-.08.29-.15.43-.22.05-.02.1-.05.15-.07.19-.09.37-.18.56-.27.03-.01.06-.03.09-.04.16-.07.31-.14.47-.2.06-.02.12-.05.18-.07.11-.04.22-.09.32-.13.06-.02.12-.05.18-.07.12-.04.24-.09.36-.13.05-.02.09-.03.14-.05.16-.06.33-.11.49-.16l.09-.03c.13-.04.26-.08.39-.11l.11-.03c.24-.06.48-.12.72-.17.02 0 .04-.01.06-.01.25-.05.49-.1.73-.14h.01c.2-.03.4-.06.6-.08.04 0 .08-.01.12-.01.19-.02.38-.03.57-.04h.11c.15-.01.31-.01.46-.01h.1c.17 0 .34.01.51.02.04 0 .08.01.12.01.13.01.27.02.4.04.04 0 .07.01.11.01.16.02.32.04.47.07.03.01.07.01.1.02.12.02.24.05.37.07l.12.03c.15.04.3.07.44.12.01 0 .02.01.04.01.13.04.26.08.4.13.04.01.08.03.12.04.12.04.23.09.34.13.03.01.05.02.08.03.14.06.27.12.4.18.03.02.07.03.1.05.11.05.21.11.31.17.05.03.11.06.16.09l-6.31-3.69z" transform="translate(201 95)"/>
        <path fill="url(#d)" d="M25.06 6.28c9.91-5.72 17.97-1.13 18 10.26.04 13.6-13.26 37.97-16.92 44.42-.25.45-.59.79-.93.99-.34.19-.67.24-.93.09-3.69-2.19-17.07-11.09-17.11-24.77-.02-11.39 7.98-25.26 17.89-30.99zm9.71 15.42c.16-6.39-4.24-9.02-9.67-5.88-.1.06-.21.12-.32.19-5.05 3.1-9.15 10.2-9.3 16.1-.16 6.39 4.24 9.02 9.67 5.88.1-.06.21-.12.32-.19 5.05-3.1 9.15-10.2 9.3-16.1z" transform="translate(201 95)"/>
        <path fill="url(#e)" d="M137.15 22.38c1.06-.42 6.31-3.53 4.76-9-1.55-5.47-7.94-3.22-9.78-2.34-1.84.88-1.23 1.13-5.25 2.17s-5.18.38-10.76 1.5c-5.57 1.12-8.97.9-8.97.9 4.91-3.53 7.89-10.08 6.82-13.12-1.07-3.04-6.53-2.49-8.63-.51-2.1 1.98-7.15 6.37-9.57 6.91s-7.65 2.66-7.65 2.66-.41-2.98-3.39-3.52c-2.99-.54-5.51 1.57-6.53 3.18-1.02 1.62-4.96 3-4.96 3-1.92 1.88-2.69 3.26-6.03 4.52-1.67.63-4.24.63-7.42 1.87-9.51 3.72-7.27 6.91-10.25 8.69-2.98 1.78-7.64 4.94-7.64 4.94C30.94 49.58 13.93 65.14.62 76.21 15.37 86.29 27.97 108.38 29.99 129c.12 1.27.19 2.5.23 3.71 11.89-4.32 22.82-3.52 30.81-5.71 11.34-3.11 27.06-18.35 27.06-18.35 7.12-1.76 7.95-2.33 11.68-4.34 3.74-2.01 20.18-6.35 24.63-6.75 4.45-.4 9.31-1.32 10.89-4.12 2.41-4.27-.47-9.29-.47-9.29s1.4.26 3.82-2c2.43-2.25.44-7.24-4.23-14.69-4.67-7.45-6.61-21.27-10.31-23.82-3.7-2.55-14.64-9.46-14.64-9.46 6.26-1.17 16.58-6.02 19.64-7.14 3.04-1.13 6.98-4.24 8.05-4.66zm-25.49 37.87c.92 5.27 5.61 10.83 6.65 12.02 1.04 1.19 2.65 4.54 2.65 4.54-.87-.14-4.36.49-4.36.49-8.41 2.21-12.02 1.62-15.71.82-3.69-.8-10.71-7.52-8.05-10.97 2.66-3.45 3.27-11.64 3.27-11.64.89.81 5.65.02 5.65.02 1.31 2.8 9.9 4.72 9.9 4.72z" transform="translate(92 15)"/>
        <path fill="#4B95FA" d="M152.62 138.07c6.84-2.42 21.64-13.35 27.46-14.42 0 0-15.72 15.24-27.06 18.35-6.06 1.66-13.8 1.6-22.37 3.36l3.5-5.48c.01-.01 11.63.6 18.47-1.81z"/>
        <path fill="#67E2E8" d="M195.14 71.99c-.64-.45-1.13-.94-1.38-1.46 0 0-.28.05-.72.1 4.42-1.33 6.87-6.61 6.87-6.61.29 4-4.76 7.96-4.77 7.97zM188.11 70.51s-.09 1.13-.33 2.73c-1.2-4.37.37-10.3.37-10.3-.32 2.67 1.27 7.9 1.27 7.91-.59-.03-1.08-.13-1.31-.34zM204.06 76.88c-.17-.54-.31-1.09-.4-1.63 0 0-.75-.17-1.82-.47.03 0 7.19-.1 12.27-4.32 0 0-2.98 4.26-10.05 6.42z"/>
        <path fill="#E28C61" d="M211.69 91.85c-.81.17-1.42.25-1.87.25.58-.09 1.27-.19 1.87-.25z" opacity=".52"/>
        <path fill="#67E2E8" d="M211.21 88.55s13.73 4.58 15.61 10.59c-3.23-4.24-8.02-6.94-13.33-7.39l-.56-.05c-.21-.39-.97-1.91-1.72-3.15zM205.33 48.17s-21.46-8.23-23.93-8.98l20.05 9.98 3.88-1zM203.39 26.23c-1.14 1.64-2.57 3.18-4.24 4.38 0 0 1.53.09 4.17-.18v.01l-8.25 1.05c4.98-1.2 7.62-4.33 8.32-5.26zM178.96 27.33c1.24-.6.61-2.17.46-2.51.57.88.7 1.73.7 1.73s1.11-.45 2.54-.99c-1.12.42-3.7 1.77-3.7 1.77z"/>
        <path fill="#67E2E8" d="M226.81 99.14s-7.02-8.98-18.76-6.7c0 0 4.99-1.35 6.83-1.31.98.02 3.97 1.41 6.31 2.84a29.3 29.3 0 0 1 3.55 2.53l2.07 2.64z"/>
        <path fill="#4B95FA" d="M126.71 98.97s18.74 20.95 12.24 41.56l-8.19-.07-4.05-41.49z"/>
        <path fill="#FFF" d="M106.7 79.38c-6.35-2.88-11.9-2.57-16.04.28l-.01-.01-9.14 6.55c1.77.37 3.61.96 5.52 1.83 17.04 7.74 32.69 32.8 34.96 55.98.58 5.97.21 11.22-.94 15.61l9.28-6.65c5.46-4.01 8.37-12.58 7.23-24.17-2-20.47-15.82-42.59-30.86-49.42z"/>
        <path fill="url(#f)" d="M9.25 117.08l.04-.03.11-.08 59.45-43.63.01.01c4.7-3.23 10.98-3.58 18.17-.32 17.04 7.74 32.69 32.8 34.96 55.98 1.28 13.13-2.01 22.83-8.19 27.38l-58.86 43.2c-.05.04-.1.07-.15.1l-.52.37-.01-.01c-4.68 3.15-10.92 3.47-18.05.23-17.04-7.74-32.69-32.8-34.96-55.98-1.27-12.98 1.94-22.62 8-27.22z" transform="translate(0 15)"/>
        <g>
            <g fill="#4B95FA" opacity=".4">
                <path d="M117.41 11.65v10.16l-8.57-5.08zM133.11 21.81V11.65l8.57 5.08z"/>
            </g>
            <path fill="#81DAFE" d="M120.18 24.58h10.16l-5.08 8.56z"/>
            <path fill="#4B95FA" d="M130.34 8.88h-10.16l5.08-8.57z" opacity=".4"/>
        </g>
        <path fill="#1C012D" d="M229.97 166.62c3.49 8.36 18.13 39.89 46.4 56.21 23.66 13.66 54.86 17.79 69.7 9.22 14.84-8.57 7.69-26.58-15.97-40.24-28.42-16.41-82.89-24.79-97.35-26.79-2.02-.28-3.27.44-2.78 1.6zm88.45 32.8c11.82 7.1 15.48 16.33 8.3 20.91-7.92 5.07-25.63 2.72-38.68-5.12-11.82-7.1-15.48-16.33-8.3-20.91 7.92-5.06 25.63-2.72 38.68 5.12z" opacity=".5"/>
        <g fill="#81DAFE">
            <path d="M229.54 161.67c.33.58.13 1.32-.45 1.66a1.215 1.215 0 1 1-1.21-2.11c.58-.34 1.32-.14 1.66.45z"/>
            <path d="M232.93 159.72c.33.58.13 1.32-.45 1.66-.58.33-1.32.13-1.66-.45-.33-.58-.13-1.32.45-1.66a1.22 1.22 0 0 1 1.66.45z" opacity=".8"/>
            <path d="M236.33 157.77c.33.58.13 1.32-.45 1.66-.58.33-1.32.13-1.66-.45-.33-.58-.13-1.32.45-1.66.58-.33 1.33-.13 1.66.45z" opacity=".6"/>
            <path d="M239.73 155.83c.33.58.13 1.32-.45 1.66-.58.33-1.32.13-1.66-.45-.33-.58-.13-1.32.45-1.66.58-.34 1.32-.14 1.66.45z" opacity=".4"/>
            <path d="M243.13 153.88c.33.58.13 1.32-.45 1.66-.58.33-1.32.13-1.66-.45-.33-.58-.13-1.32.45-1.66.58-.33 1.32-.13 1.66.45z" opacity=".2"/>
            <g>
                <path d="M227.43 162.87c.33.58 1.08.78 1.66.45.58-.33.78-1.08.45-1.66a1.215 1.215 0 1 0-2.11 1.21z"/>
                <path d="M224.03 164.82c.33.58 1.08.78 1.66.45.58-.33.78-1.08.45-1.66-.33-.58-1.08-.78-1.66-.45-.58.34-.78 1.08-.45 1.66z" opacity=".8"/>
                <path d="M220.63 166.77c.33.58 1.08.78 1.66.45.58-.33.78-1.08.45-1.66-.33-.58-1.08-.78-1.66-.45-.58.33-.78 1.08-.45 1.66z" opacity=".6"/>
                <path d="M217.23 168.71c.33.58 1.08.78 1.66.45.58-.33.78-1.08.45-1.66-.33-.58-1.08-.78-1.66-.45-.58.34-.78 1.08-.45 1.66z" opacity=".4"/>
                <path d="M213.84 170.66c.33.58 1.08.78 1.66.45.58-.33.78-1.08.45-1.66a1.215 1.215 0 1 0-2.11 1.21z" opacity=".2"/>
            </g>
        </g>
        <g fill="#81DAFE">
            <g transform="translate(227 235)">
                <path d="M3.48 2.37c-.6.35-1.58.35-2.18 0-.6-.35-.6-.91 0-1.26s1.58-.35 2.18 0c.6.34.6.91 0 1.26z"/>
                <ellipse cx="5.91" cy="3.77" opacity=".8" rx="1.54" ry="1"/>
                <path d="M10.52 6.43c-.6.35-1.58.35-2.18 0-.6-.35-.6-.91 0-1.26s1.58-.35 2.18 0c.6.35.6.91 0 1.26z" opacity=".6"/>
                <path d="M14.04 8.46c-.6.35-1.58.35-2.18 0-.6-.35-.6-.91 0-1.26s1.58-.35 2.18 0c.6.35.6.91 0 1.26z" opacity=".4"/>
                <path d="M17.55 10.49c-.6.35-1.58.35-2.18 0-.6-.35-.6-.91 0-1.26s1.58-.35 2.18 0c.61.35.61.91 0 1.26z" opacity=".2"/>
            </g>
            <g transform="translate(236 230)">
                <path d="M3.34 2.25c-.6.35-1.58.35-2.18 0-.6-.35-.6-.91 0-1.26s1.58-.35 2.18 0c.61.35.61.91 0 1.26z"/>
                <path d="M6.86 4.28c-.6.35-1.58.35-2.18 0-.6-.35-.6-.91 0-1.26s1.58-.35 2.18 0c.6.35.6.91 0 1.26z" opacity=".8"/>
                <path d="M10.38 6.31c-.6.35-1.58.35-2.18 0-.6-.35-.6-.91 0-1.26s1.58-.35 2.18 0c.6.35.6.91 0 1.26z" opacity=".6"/>
                <path d="M13.9 8.34c-.6.35-1.58.35-2.18 0-.6-.35-.6-.91 0-1.26s1.58-.35 2.18 0c.6.35.6.91 0 1.26z" opacity=".4"/>
                <ellipse cx="16.32" cy="9.74" opacity=".2" rx="1.54" ry="1"/>
            </g>
        </g>
        <g fill="#81DAFE">
            <path d="M257.75 101.78c-.6.35-1.58.35-2.18 0-.6-.35-.6-.91 0-1.26s1.58-.35 2.18 0c.61.35.61.91 0 1.26z"/>
            <path d="M261.27 103.81c-.6.35-1.58.35-2.18 0-.6-.35-.6-.91 0-1.26s1.58-.35 2.18 0c.6.35.6.91 0 1.26z" opacity=".8"/>
            <path d="M264.79 105.84c-.6.35-1.58.35-2.18 0-.6-.35-.6-.91 0-1.26s1.58-.35 2.18 0c.6.35.6.91 0 1.26z" opacity=".6"/>
            <path d="M268.31 107.87c-.6.35-1.58.35-2.18 0-.6-.35-.6-.91 0-1.26s1.58-.35 2.18 0c.6.35.6.91 0 1.26z" opacity=".4"/>
            <path d="M271.82 109.9c-.6.35-1.58.35-2.18 0-.6-.35-.6-.91 0-1.26s1.58-.35 2.18 0c.61.35.61.91 0 1.26z" opacity=".2"/>
            <g transform="translate(263 95)">
                <path d="M3.61 1.66c-.6.35-1.58.35-2.18 0-.6-.35-.6-.91 0-1.26S3.01.05 3.61.4c.61.35.61.91 0 1.26z"/>
                <path d="M7.13 3.69c-.6.35-1.58.35-2.18 0-.6-.35-.6-.91 0-1.26s1.58-.35 2.18 0c.6.35.6.91 0 1.26z" opacity=".8"/>
                <ellipse cx="9.56" cy="5.09" opacity=".6" rx="1.54" ry="1"/>
                <ellipse cx="13.08" cy="7.12" opacity=".4" rx="1.54" ry="1"/>
                <path d="M17.68 9.78c-.6.35-1.58.35-2.18 0-.6-.35-.6-.91 0-1.26s1.58-.35 2.18 0c.61.35.61.92 0 1.26z" opacity=".2"/>
            </g>
        </g>
        <g transform="translate(343 91)">
            <g fill="#81DAFE">
                <path d="M6.62 15.04c0 1.82-1.47 3.29-3.29 3.29S.04 16.86.04 15.04s1.47-3.29 3.29-3.29 3.29 1.47 3.29 3.29zM21.56 15.04c0 1.82-1.47 3.29-3.29 3.29s-3.29-1.47-3.29-3.29 1.47-3.29 3.29-3.29c1.81 0 3.29 1.47 3.29 3.29z"/>
            </g>
            <circle cx="10.8" cy="3.48" r="3.29" fill="#4B95FA"/>
        </g>
    </g>
</svg>
