<svg xmlns="http://www.w3.org/2000/svg" width="348" height="348" viewBox="0 0 348 348">
    <defs>
        <linearGradient id="a" x1="24.686%" x2="75.318%" y1="41.523%" y2="58.483%">
            <stop offset="0%" stop-color="#C0BFF6"/>
            <stop offset="29.38%" stop-color="#C5C4F7"/>
            <stop offset="63.99%" stop-color="#D3D2F9"/>
            <stop offset="100%" stop-color="#E9E9FD"/>
        </linearGradient>
        <linearGradient id="b" x1="10.18%" x2="61.874%" y1="50.009%" y2="50.009%">
            <stop offset="35.48%" stop-color="#BCBEFF"/>
            <stop offset="44.36%" stop-color="#B5B8FC"/>
            <stop offset="56.95%" stop-color="#A3A7F5"/>
            <stop offset="71.75%" stop-color="#848BE9"/>
            <stop offset="88.14%" stop-color="#5A64D8"/>
            <stop offset="89.25%" stop-color="#5761D7"/>
        </linearGradient>
        <linearGradient id="c" x1="-5.788%" x2="61.114%" y1="50.009%" y2="50.009%">
            <stop offset="0%" stop-color="#2FD3C7"/>
            <stop offset="8.81%" stop-color="#31B6BD"/>
            <stop offset="22.88%" stop-color="#338DB0"/>
            <stop offset="37.34%" stop-color="#356BA5"/>
            <stop offset="52.06%" stop-color="#37519C"/>
            <stop offset="67.15%" stop-color="#383F96"/>
            <stop offset="82.81%" stop-color="#393492"/>
            <stop offset="100%" stop-color="#393091"/>
        </linearGradient>
        <linearGradient id="d" x1="24.581%" x2="75.414%" y1="41.491%" y2="58.513%">
            <stop offset="0%" stop-color="#E9E9FD"/>
            <stop offset="36.01%" stop-color="#D3D2F9"/>
            <stop offset="70.62%" stop-color="#C5C4F7"/>
            <stop offset="100%" stop-color="#C0BFF6"/>
        </linearGradient>
        <linearGradient id="e" x1="24.581%" x2="75.414%" y1="41.491%" y2="58.513%">
            <stop offset="0%" stop-color="#2FD3C7"/>
            <stop offset="8.81%" stop-color="#31B6BD"/>
            <stop offset="22.88%" stop-color="#338DB0"/>
            <stop offset="37.34%" stop-color="#356BA5"/>
            <stop offset="52.06%" stop-color="#37519C"/>
            <stop offset="67.15%" stop-color="#383F96"/>
            <stop offset="82.81%" stop-color="#393492"/>
            <stop offset="100%" stop-color="#393091"/>
        </linearGradient>
        <linearGradient id="f" x1=".005%" y1="50%" y2="50%">
            <stop offset="0%" stop-color="#2FD3C7"/>
            <stop offset="8.81%" stop-color="#31B6BD"/>
            <stop offset="22.88%" stop-color="#338DB0"/>
            <stop offset="37.34%" stop-color="#356BA5"/>
            <stop offset="52.06%" stop-color="#37519C"/>
            <stop offset="67.15%" stop-color="#383F96"/>
            <stop offset="82.81%" stop-color="#393492"/>
            <stop offset="100%" stop-color="#393091"/>
        </linearGradient>
        <linearGradient id="g" x1="-.01%" x2="99.956%" y1="50.008%" y2="50.008%">
            <stop offset="0%" stop-color="#2FD3C7"/>
            <stop offset="8.81%" stop-color="#31B6BD"/>
            <stop offset="22.88%" stop-color="#338DB0"/>
            <stop offset="37.34%" stop-color="#356BA5"/>
            <stop offset="52.06%" stop-color="#37519C"/>
            <stop offset="67.15%" stop-color="#383F96"/>
            <stop offset="82.81%" stop-color="#393492"/>
            <stop offset="100%" stop-color="#393091"/>
        </linearGradient>
        <linearGradient id="h" x1="74.056%" x2="-4.39%" y1="-5.673%" y2="175.906%">
            <stop offset="0%" stop-color="#2FD3C7"/>
            <stop offset="8.81%" stop-color="#31B6BD"/>
            <stop offset="22.88%" stop-color="#338DB0"/>
            <stop offset="37.34%" stop-color="#356BA5"/>
            <stop offset="52.06%" stop-color="#37519C"/>
            <stop offset="67.15%" stop-color="#383F96"/>
            <stop offset="82.81%" stop-color="#393492"/>
            <stop offset="100%" stop-color="#393091"/>
        </linearGradient>
        <linearGradient id="i" x1="-.058%" x2="100.011%" y1="49.99%" y2="49.99%">
            <stop offset="0%" stop-color="#5761D7"/>
            <stop offset="7.26%" stop-color="#5472D8"/>
            <stop offset="27.91%" stop-color="#4E9CDB"/>
            <stop offset="48.01%" stop-color="#49BDDD"/>
            <stop offset="67.15%" stop-color="#45D5DF"/>
            <stop offset="84.93%" stop-color="#43E3E0"/>
            <stop offset="100%" stop-color="#42E8E0"/>
        </linearGradient>
        <linearGradient id="j" x1="-.291%" x2="99.628%" y1="50.051%" y2="50.051%">
            <stop offset="0%" stop-color="#5761D7"/>
            <stop offset="7.26%" stop-color="#5472D8"/>
            <stop offset="27.91%" stop-color="#4E9CDB"/>
            <stop offset="48.01%" stop-color="#49BDDD"/>
            <stop offset="67.15%" stop-color="#45D5DF"/>
            <stop offset="84.93%" stop-color="#43E3E0"/>
            <stop offset="100%" stop-color="#42E8E0"/>
        </linearGradient>
        <linearGradient id="k" x1="-.024%" x2="99.99%" y1="50.034%" y2="50.034%">
            <stop offset="0%" stop-color="#5761D7"/>
            <stop offset="7.26%" stop-color="#5472D8"/>
            <stop offset="27.91%" stop-color="#4E9CDB"/>
            <stop offset="48.01%" stop-color="#49BDDD"/>
            <stop offset="67.15%" stop-color="#45D5DF"/>
            <stop offset="84.93%" stop-color="#43E3E0"/>
            <stop offset="100%" stop-color="#42E8E0"/>
        </linearGradient>
        <linearGradient id="l" x1="-.062%" x2="99.947%" y1="50.046%" y2="50.046%">
            <stop offset="0%" stop-color="#5761D7"/>
            <stop offset="7.26%" stop-color="#5472D8"/>
            <stop offset="27.91%" stop-color="#4E9CDB"/>
            <stop offset="48.01%" stop-color="#49BDDD"/>
            <stop offset="67.15%" stop-color="#45D5DF"/>
            <stop offset="84.93%" stop-color="#43E3E0"/>
            <stop offset="100%" stop-color="#42E8E0"/>
        </linearGradient>
        <linearGradient id="m" x1="-.079%" x2="99.958%" y1="49.975%" y2="49.975%">
            <stop offset="0%" stop-color="#2FD3C7"/>
            <stop offset="8.81%" stop-color="#31B6BD"/>
            <stop offset="22.88%" stop-color="#338DB0"/>
            <stop offset="37.34%" stop-color="#356BA5"/>
            <stop offset="52.06%" stop-color="#37519C"/>
            <stop offset="67.15%" stop-color="#383F96"/>
            <stop offset="82.81%" stop-color="#393492"/>
            <stop offset="100%" stop-color="#393091"/>
        </linearGradient>
        <linearGradient id="n" x1="0%" x2="99.983%" y1="49.984%" y2="49.984%">
            <stop offset="0%" stop-color="#5761D7"/>
            <stop offset="7.26%" stop-color="#5472D8"/>
            <stop offset="27.91%" stop-color="#4E9CDB"/>
            <stop offset="48.01%" stop-color="#49BDDD"/>
            <stop offset="67.15%" stop-color="#45D5DF"/>
            <stop offset="84.93%" stop-color="#43E3E0"/>
            <stop offset="100%" stop-color="#42E8E0"/>
        </linearGradient>
        <linearGradient id="o" x1="-.153%" x2="100.093%" y1="49.429%" y2="49.429%">
            <stop offset="0%" stop-color="#5761D7"/>
            <stop offset="7.26%" stop-color="#5472D8"/>
            <stop offset="27.91%" stop-color="#4E9CDB"/>
            <stop offset="48.01%" stop-color="#49BDDD"/>
            <stop offset="67.15%" stop-color="#45D5DF"/>
            <stop offset="84.93%" stop-color="#43E3E0"/>
            <stop offset="100%" stop-color="#42E8E0"/>
        </linearGradient>
        <linearGradient id="p" x1=".13%" x2="100.125%" y1="50.068%" y2="50.068%">
            <stop offset="0%" stop-color="#5761D7"/>
            <stop offset="7.26%" stop-color="#5472D8"/>
            <stop offset="27.91%" stop-color="#4E9CDB"/>
            <stop offset="48.01%" stop-color="#49BDDD"/>
            <stop offset="67.15%" stop-color="#45D5DF"/>
            <stop offset="84.93%" stop-color="#43E3E0"/>
            <stop offset="100%" stop-color="#42E8E0"/>
        </linearGradient>
        <linearGradient id="q" x1=".018%" x2="99.999%" y1="49.995%" y2="49.995%">
            <stop offset="0%" stop-color="#5761D7"/>
            <stop offset="7.26%" stop-color="#5472D8"/>
            <stop offset="27.91%" stop-color="#4E9CDB"/>
            <stop offset="48.01%" stop-color="#49BDDD"/>
            <stop offset="67.15%" stop-color="#45D5DF"/>
            <stop offset="84.93%" stop-color="#43E3E0"/>
            <stop offset="100%" stop-color="#42E8E0"/>
        </linearGradient>
    </defs>
    <g fill="none" fill-rule="nonzero" transform="translate(-1 -1)">
        <path fill="#42E8E0" d="M191.49 274.726c-1.021 0-1.992-.205-2.72-.627l-72.9-42.391c-.753-.435-1.175-1.061-1.175-1.739 0-.805.588-1.61 1.597-2.199l73.385-42.404c1.827-1.06 4.611-1.163 6.22-.243l72.9 42.392c.754.434 1.176 1.06 1.176 1.751 0 .806-.588 1.61-1.597 2.186l-73.385 42.404c-.996.576-2.287.87-3.5.87zm-2.413-1.138c1.43.83 3.947.716 5.62-.243l73.385-42.404c.83-.473 1.303-1.087 1.303-1.675 0-.46-.307-.895-.869-1.227l-72.9-42.391c-1.43-.831-3.946-.716-5.62.242l-73.385 42.405c-.83.473-1.303 1.086-1.303 1.674 0 .46.307.895.869 1.228l72.9 42.39z"/>
        <path fill="url(#a)" d="M75.02 102.834L4.867 62.027c-1.47-.856-1.29-2.34.409-3.323l71.239-41.165c1.699-.984 4.266-1.086 5.748-.242l70.153 40.806c1.469.856 1.29 2.34-.409 3.324L80.768 102.59c-1.699.997-4.279 1.1-5.748.243z" transform="translate(113.686 154.685)"/>
        <path fill="#42E8E0" d="M269.666 208.978l-25.024-1.636-48.897-28.521c-1.52-.882-4.165-.767-5.915.243l-55.093 31.832-19.735-1.291v13.78h.013c0 .563.319 1.087 1.009 1.483l72.9 42.392c1.52.882 4.164.767 5.914-.243l73.385-42.404c.932-.537 1.405-1.215 1.43-1.867h.013v-13.768z" opacity=".4"/>
        <path fill="url(#b)" d="M155.98 44.986l-25.024-1.636-48.898-28.52c-1.52-.883-4.164-.768-5.914.242L21.051 46.904 1.316 45.613v13.78h.012c0 .563.32 1.088 1.01 1.484l72.9 42.391c1.52.882 4.163.767 5.913-.243l73.385-42.404c.933-.537 1.406-1.214 1.431-1.866h.013V44.986z" transform="translate(113.686 154.685)"/>
        <path fill="url(#c)" d="M155.98 44.986l-25.024-1.636-48.898-28.52c-1.52-.883-4.164-.768-5.914.242L21.051 46.904 1.316 45.613v13.78h.012c0 .563.32 1.088 1.01 1.484l72.9 42.391c1.52.882 4.163.767 5.913-.243l73.385-42.404c.933-.537 1.406-1.214 1.431-1.866h.013V44.986z" transform="translate(113.686 154.685)"/>
        <path fill="url(#d)" d="M75.237 89.385l-72.9-42.391c-1.52-.883-1.328-2.404.422-3.414L76.144 1.176c1.75-1.01 4.394-1.125 5.914-.243l72.9 42.392c1.52.882 1.328 2.403-.422 3.413L81.151 89.142c-1.75 1.01-4.394 1.125-5.914.243z" transform="translate(113.686 154.685)"/>
        <path fill="url(#e)" d="M75.237 89.385l-72.9-42.391c-1.52-.883-1.328-2.404.422-3.414L76.144 1.176c1.75-1.01 4.394-1.125 5.914-.243l72.9 42.392c1.52.882 1.328 2.403-.422 3.413L81.151 89.142c-1.75 1.01-4.394 1.125-5.914.243z" transform="translate(113.686 154.685)"/>
        <path fill="#FFF" d="M268.223 200.183l-73.385 42.404c-1.75 1.01-4.395 1.125-5.915.243l-72.9-42.392c-.434-.255-.715-.562-.868-.882-.358.78-.09 1.586.869 2.135l72.9 42.392c1.52.882 4.164.767 5.914-.243l73.385-42.404c1.251-.729 1.686-1.713 1.29-2.532-.217.448-.652.895-1.29 1.279z"/>
        <ellipse cx="193.088" cy="198.035" fill="#160A5B" opacity=".3" rx="33.161" ry="19.163"/>
        <g>
            <path fill="url(#f)" d="M155.916 103L139.068 2.979l1.354-.576-2.031-1.163v.013c-.396-.269-.959-.243-1.572.102L2.197 79.145c-1.111.64-1.942 2.276-1.75 3.426l16.976 100.814c.09.524.345.87.716 1.023l1.992 1.15.345-1.866-.115.038 133.805-77.317c1.111-.64 1.942-2.275 1.75-3.413z" transform="translate(38.321)"/>
            <path fill="url(#g)" d="M2.95 81.88l-2.21-.984c-.242.563-.37 1.164-.28 1.662l16.976 100.814c.09.524.345.87.715 1.023l1.993 1.15.345-1.866-.115.038 6.77-3.912L2.951 81.881z" transform="translate(38.321)"/>
            <path fill="#24126A" d="M194.595 107.628l-134.622 77.79c-1.035.6-1.93.255-2.108-.819L40.889 83.786c-.192-1.151.638-2.787 1.75-3.427L177.26 2.57c1.035-.6 1.929-.255 2.108.819L196.345 104.2c.191 1.151-.639 2.787-1.75 3.427z"/>
            <path fill="#453C9E" d="M177.708 4.449L42.46 82.559l17.078 101.069 135.172-78.059z" opacity=".51"/>
            <path fill="url(#h)" d="M135.555.614L.307 78.724l17.078 101.069 135.172-78.059z" opacity=".6" transform="translate(42.153 3.835)"/>
            <g fill="#42E8E0">
                <path d="M65.3 87.467c-.205 0-.397-.038-.588-.115-.422-.179-.716-.55-.83-1.048-.243-1.036.383-2.34 1.379-2.915.536-.307 1.111-.37 1.571-.166.422.18.715.563.83 1.048.243 1.036-.383 2.34-1.38 2.915a1.958 1.958 0 0 1-.983.281zm-.972-1.265c.077.358.281.613.563.741.332.14.753.09 1.162-.14.843-.486 1.367-1.573 1.162-2.417-.076-.358-.28-.613-.562-.741-.332-.14-.753-.09-1.162.14-.843.474-1.354 1.56-1.163 2.417zM59.909 90.587c-.205 0-.396-.039-.588-.115-.421-.18-.715-.55-.83-1.049-.243-1.035.383-2.34 1.38-2.914.536-.307 1.11-.371 1.57-.167.422.18.716.563.83 1.049.244 1.035-.382 2.34-1.379 2.914-.319.18-.664.282-.983.282zm-.971-1.279c.077.358.281.614.562.742.332.14.754.09 1.162-.141.843-.486 1.367-1.572 1.163-2.416-.077-.358-.281-.614-.562-.742-.332-.14-.754-.09-1.163.141-.83.486-1.354 1.572-1.162 2.416zM53.33 92.479c.217.946 1.137 1.278 2.057.741.92-.537 1.494-1.726 1.277-2.672-.217-.946-1.137-1.278-2.056-.741-.92.524-1.495 1.726-1.278 2.672z"/>
            </g>
            <path fill="#42E8E0" d="M156.606 32.995l2.887-1.662-.217-1.342-2.887 1.675zM152.429 35.411l2.874-1.662-.217-1.33-2.887 1.663zM160.757 30.592l6.323-3.644-.23-1.33-6.323 3.644z"/>
            <g fill="#42E8E0">
                <path d="M85.405 125.448a5.66 5.66 0 0 1-2.197-.434c-1.827-.755-3.168-2.378-3.781-4.59-1.226-4.436.958-9.882 4.867-12.132l64.941-37.52c1.89-1.1 3.922-1.292 5.697-.563 1.827.754 3.168 2.378 3.782 4.59 1.226 4.436-.959 9.881-4.867 12.131l-64.942 37.521c-1.15.652-2.337.997-3.5.997zm67.33-55.086c-1.06 0-2.146.307-3.193.92L84.6 108.805c-3.678 2.122-5.735 7.274-4.585 11.454.562 2.033 1.775 3.516 3.423 4.193 1.597.665 3.436.473 5.173-.524l64.942-37.52c3.679-2.136 5.735-7.275 4.586-11.455-.562-2.033-1.776-3.516-3.424-4.193a5.07 5.07 0 0 0-1.98-.397z"/>
                <path d="M97.898 112.69c-.243 0-.473-.064-.677-.179-.473-.281-.741-.831-.741-1.56 0-1.406.945-3.055 2.171-3.758.64-.37 1.252-.422 1.725-.14.473.28.74.83.74 1.559 0 1.406-.944 3.055-2.158 3.758-.383.218-.74.32-1.06.32zm1.788-5.203c-.217 0-.472.077-.754.23-1.034.588-1.864 2.045-1.864 3.234 0 .512.153.882.434 1.049.28.166.69.115 1.124-.141 1.022-.588 1.865-2.045 1.865-3.234 0-.512-.153-.882-.434-1.049a.693.693 0 0 0-.37-.09zM106.328 107.82c-.242 0-.472-.065-.677-.18-.472-.281-.74-.83-.74-1.56 0-1.406.945-3.055 2.171-3.758.639-.37 1.252-.422 1.725-.14.472.28.74.83.74 1.56 0 1.405-.945 3.055-2.158 3.758-.37.217-.728.32-1.06.32zm1.802-5.217c-.218 0-.473.077-.754.23-1.035.589-1.865 2.046-1.865 3.235 0 .511.153.882.434 1.048.281.166.69.115 1.124-.14 1.022-.589 1.865-2.046 1.865-3.235 0-.511-.153-.882-.434-1.048a.834.834 0 0 0-.37-.09zM114.76 102.949c-.244 0-.474-.064-.678-.18-.473-.28-.74-.83-.74-1.559 0-1.406.944-3.055 2.17-3.758.64-.371 1.253-.422 1.725-.141.473.281.741.83.741 1.56 0 1.406-.945 3.055-2.159 3.758-.37.217-.728.32-1.06.32zm1.8-5.216c-.217 0-.472.076-.753.23-1.035.588-1.865 2.045-1.865 3.234 0 .512.153.882.434 1.048.28.167.69.116 1.124-.14 1.022-.588 1.865-2.046 1.865-3.234 0-.512-.153-.883-.434-1.049a.834.834 0 0 0-.37-.09zM123.203 98.078c-.243 0-.473-.064-.677-.179-.473-.281-.741-.831-.741-1.56 0-1.406.945-3.055 2.171-3.758.639-.37 1.252-.422 1.725-.14.472.28.74.83.74 1.559 0 1.406-.945 3.055-2.158 3.758-.383.205-.741.32-1.06.32zm1.788-5.216c-.217 0-.473.077-.754.23-1.034.588-1.865 2.046-1.865 3.235 0 .51.154.882.435 1.048.28.166.69.115 1.124-.14 1.022-.589 1.865-2.046 1.865-3.235 0-.511-.154-.882-.435-1.048a.693.693 0 0 0-.37-.09zM131.633 93.195c-.242 0-.472-.064-.677-.18-.472-.28-.74-.83-.74-1.56 0-1.405.945-3.054 2.17-3.758.64-.37 1.253-.421 1.725-.14.473.281.741.83.741 1.56 0 1.406-.945 3.055-2.159 3.758-.37.217-.728.32-1.06.32zm1.801-5.204c-.217 0-.472.077-.753.23-1.035.589-1.865 2.046-1.865 3.235 0 .511.153.882.434 1.048.281.166.69.115 1.124-.14 1.022-.589 1.865-2.046 1.865-3.235 0-.511-.153-.882-.434-1.048a.693.693 0 0 0-.37-.09zM140.064 88.324c-.243 0-.473-.064-.677-.18-.473-.28-.741-.83-.741-1.559 0-1.406.945-3.055 2.159-3.758.638-.371 1.239-.422 1.724-.14.473.28.741.83.741 1.559 0 1.406-.945 3.055-2.171 3.758a1.95 1.95 0 0 1-1.035.32zm1.801-5.216c-.217 0-.473.077-.754.23-1.022.588-1.865 2.046-1.865 3.234 0 .512.154.883.435 1.049.28.166.69.115 1.124-.14 1.034-.589 1.865-2.046 1.865-3.235 0-.512-.154-.882-.435-1.048a.834.834 0 0 0-.37-.09z"/>
            </g>
        </g>
        <g>
            <path fill="#160A5B" d="M192.5 197.345s-3.27.46-6.374.255c-3.104-.204-11.65.627-11.7 3.848-.052 3.248 3.972 8.336 9.439 9.614 5.467 1.278 12.71.422 16.325.908 3.615.485 6.374-3.005 5.237-6.763-1.124-3.707-12.927-7.862-12.927-7.862zM211.801 190.697s1.035 2.058.37 3.196c-.676 1.125-2.452 3.925-7.293.524-4.803-3.375-14.192-8.463-14.192-8.463s-5.314-3.58-4.726-7.095c.575-3.49 5.633-2.429 5.633-2.429l20.208 14.267z"/>
            <path fill="#24126A" d="M183.047 137.273s.307 23.05 4.152 32.203c3.921 9.32 3.921 25.708 4.637 28.917.728 3.234 3.372 8.054 8.034 9.511 4.676 1.47 5.698-1.738 5.62-3.733-.076-1.994-1.149-5.305-1.008-7.44.14-2.122.702-3.068.856-4.027 0 0 5.3 2.2 6.45-1.994 0 0-.345-1.291-.37-1.93-.026-.64 1.686-16.019 1.967-17.872.268-1.841.051-12.004-1.073-17.105-1.111-5.05.179-15.392.179-15.392l-15.188-3.694-14.256 2.556z"/>
            <path fill="url(#i)" d="M38.602 132.07c-1.111-5.05.179-15.392.179-15.392l-1.328-.32c-.167 1.433-1.188 10.535-.18 15.163 1.112 5.088 1.33 15.238 1.048 17.079-.28 1.854-2.018 17.207-1.993 17.846.026.64.37 1.93.37 1.93-1.162 4.18-6.45 1.995-6.45 1.995-.153.971-.715 1.905-.856 4.027-.153 2.135.92 5.446.997 7.427.076 1.994-.958 5.203-5.62 3.733-.141-.051-.269-.128-.41-.179.563.32 1.163.588 1.802.793 4.675 1.47 5.697-1.739 5.62-3.733-.077-1.994-1.15-5.306-1.01-7.44.141-2.123.729-3.26.87-4.22 0 0 5.288 2.391 6.437-1.802 0 0-.344-1.29-.37-1.93-.026-.64 1.686-16.018 1.967-17.872.281-1.854.051-12.004-1.073-17.105z" transform="translate(173.723 21.733)"/>
            <path fill="#160A5B" d="M207.828 139.613s-.344 3.554-2.043 6.417c0 0-.907 12.17-2.632 18.217 0 0 1.035 12.63 1.993 16.67.958 4.079.204 11.774.204 11.774s.6.294 1.482.422 2.12-15.136.97-17.961c-1.149-2.812-1.25-14.765-.459-18.32.78-3.528 1.392-13.78 2.21-15.519.805-1.726-.626-2.838-.626-2.838l-1.099 1.138zM201.327 56.722s-4.663 2.8-4.88 8.36l3.334-.408s-.498-6.226 1.546-7.952z"/>
            <path fill="#160A5B" d="M196.255 143.46c10.156 1.343 16.006-2.671 16.006-2.671.128-1.445.255-2.378.255-2.378l-15.188-3.694-14.28 2.556s.063 4.539.472 10.38c2.465.525 5.403-5.432 5.403-5.432l6.936 1.15c-.012 0-9.733-1.24.396.09z"/>
            <path fill="#453C9E" d="M184.976 137.797s21.383 11.353 33.43-4.921c.344-.46.536-1.049.561-1.662l.166-4.053c.026-.511.128-1.01.332-1.47a6.31 6.31 0 0 0 .46-3.196c-.485-4.576-1.8-17.015-2.07-20.441-.319-4.18 3.105-20.454 7.307-27.23 4.14-6.673-3.921-23.241-3.921-23.241s-1.98-3.86-6.515-3.004c0 0 3.998 3.336 1.444 6.251-2.568 2.94-9.708 4.82-9.708 4.82s-13.336 5.497-18.369 13.218c0 0-1.84 4.091-2.401 9.435-.562 5.407-1.01 18.498-1.38 20.288-.37 1.802-2.044 14.19-2.018 14.778.025.588 2.682 20.428 2.682 20.428z"/>
            <path fill="url(#j)" d="M35.255 3.72c.422-.856.384-1.713.115-2.493a6.294 6.294 0 0 0-2.005.051c-.013 0 1.226 1.023 1.89 2.442z" transform="translate(181.387 47.3)"/>
            <path fill="#24126A" d="M191.504 140.329s15.762-34.172 16.146-47.045c.37-12.515-20.91 23.497-20.91 23.497l-1.764 21.016s4.037 1.982 6.528 2.532z"/>
            <path fill="url(#k)" d="M37.976 74.888a4.33 4.33 0 0 0-.332 1.457l-.166 4.014a3.066 3.066 0 0 1-.55 1.65c-12.006 16.146-33.3 4.883-33.3 4.883s-1.904-14.228-2.491-18.83C.997 69.16.92 69.914.92 70.055c.025.588 2.67 20.441 2.67 20.441s21.383 11.352 33.428-4.922c.345-.46.537-1.048.562-1.662l.166-4.052c.026-.511.128-1.01.332-1.47a6.31 6.31 0 0 0 .46-3.196c-.05-.473-.115-1.061-.179-1.688a5.677 5.677 0 0 1-.383 1.381z" transform="translate(181.387 47.3)"/>
            <path fill="url(#l)" d="M43.673 24.379c-4.19 6.724-7.613 22.883-7.28 27.025.025.384.076.895.127 1.47.434-5.906 3.538-19.342 7.268-25.363 1.163-1.88 1.342-4.551 1.022-7.415-.09 1.65-.421 3.132-1.137 4.283z" transform="translate(181.387 47.3)"/>
            <path fill="#4846A5" d="M187.825 97.848a56.187 56.187 0 0 0 1.456-8.553c.447-4.998 2.504-13.141 11.369-10.866 12.569 3.222 5.722 20.672 4.087 23.676-1.648 3.03-8.354 16.76-8.711 17.54-.333.74-10.564 17.73-14.052 21.706a.773.773 0 0 1-1.162.026c-1.188-1.227-3.845-4.142-4.088-5.83-.306-2.173 2.146-9.715 2.146-9.715s6.49-18.767 6.975-19.624c.383-.639.856-3.77 1.98-8.36z"/>
            <path fill="url(#m)" d="M27.783 35.411s-.83-2.39-3.13-2.838c-2.299-.447-3.576-1.214-3.73-2.096-.166-.882-.09-1.93-.549-3.26-.46-1.33-.69-4.513-.664-4.59.013-.076-1.7-.767-1.725-1.546-.025-.78 1.112-3.478 1.022-3.695-.09-.217-.894-2.007-.664-3.31.23-1.305.55-3.197 1.38-4.757.83-1.546 6.514-10.904 18.905-4.742 12.582 6.264 1.865 16.26 2.606 23.445 0 0 1.034 1.598-1.278 3.938-2.337 2.34-8.52 2.326-12.173 3.451z" transform="translate(173.723 21.733)"/>
            <path fill="#24126A" d="M213.666 53.68c2.312-2.34 1.277-3.938 1.277-3.938-.102-.997.026-2.058.269-3.145l-5.16.512s-6.975-7.338-6.72-3.72c.256 3.643-1.61 4.103-1.61 4.103l1.38 2.097c.358.537.077 1.112-.294 1.636-2.427 3.49-7.523 1.918-7.536 1.918.613.485 1.648.894 3.091 1.176 2.312.447 3.13 2.838 3.13 2.838 3.666-1.138 9.848-1.125 12.173-3.477z"/>
            <g>
                <path fill="#453C9E" d="M175.307 27.268s-1.099 2.544.255 3.771c1.354 1.24 2.593 2.39 2.593 2.39l-.268 3.325c-.038.485.064.958.294 1.393l1.596 2.979a3.45 3.45 0 0 1 .396 1.892l-.102 1.368c-.025.396.243.767.626.843l.473.103c.421.09.83-.192.907-.627l.345-1.879s1.073-1.432 3.04.562l1.826.947c.511.268.894.728 1.048 1.303.421 1.509 1.328 4.5 2.133 5.05 1.099.754 5.723-1.15 6.387-2.11.677-.958 2.695-7.606 3.87-10.738 1.163-3.119 1.24-11.083-8.15-13.934-9.324-2.85-15.737.626-17.27 3.362z"/>
                <path fill="#160A5B" d="M196.856 48.579c.677-.959 2.695-7.607 3.87-10.739 0 0-3.883 2.135-8.737 2.442-4.854.307-13.91-5.944-13.91-5.944l-.205 2.441c-.038.486.064.959.294 1.394l1.597 2.978a3.45 3.45 0 0 1 .396 1.892l-.103 1.368c-.025.397.243.767.626.844l.473.102c.421.09.83-.192.907-.626l.345-1.88s1.073-1.431 3.04.563l2.644 1.368s1.277 5.177 2.363 5.932c1.112.728 5.736-1.176 6.4-2.135z" opacity=".3"/>
            </g>
            <path fill="#F0F6FF" d="M214.905 48.911s3.551 2.634 1.444 5.715c-2.12 3.106-16.057 7.708-16.798 8.5 0 0-.14-4.934 1.763-6.417 0 0 10.474-1.074 12.288-3.566 1.801-2.48 1.303-4.232 1.303-4.232z"/>
            <path fill="#24126A" d="M216.617 59.573s-6.285 2.902-9.338 4.193c-3.053 1.291-6.425 3.08-6.425 3.08l-1.035-1.226-1.584 2.85s-4.828 2.353-7.166 4.475c-2.35 2.122-4.228 5.011-4.509 5.689 0 0 6.349-7.057 11.062-8.885l1.265-.511.881-2.289 1.022 1.291c.013-.012 13.847-6.788 15.827-8.667z"/>
            <g>
                <path fill="url(#n)" d="M37.184 25.81c-.153-.575-.396-1.086-.702-1.406L13.349.767c-.6-.614-1.265-.256-1.482.805l-4.893 24.29c-.23 1.125.09 2.57.716 3.221l19.39 20.544-1.29 7.095 6.502-2.275v-.013c.294-.154.536-.537.639-1.164l4.368-25.657c.09-.562.039-1.214-.115-1.802z" transform="translate(155.84 135.51)"/>
                <path fill="#453C9E" d="M162.265 138.015l6.054-1.982.192-.064c.217-.025.46.064.69.294l23.133 23.638c.32.32.562.83.702 1.406l-.92.345-5.262 1.969-20.234-21.093-4.355-4.513z"/>
                <path fill="#24126A" d="M157.206 166.715l23.58 25.197c.652.69 1.355.294 1.559-.908l4.535-25.76c.204-1.125-.154-2.57-.792-3.221l-23.031-23.74c-.6-.626-1.265-.255-1.495.806l-5.058 24.391c-.23 1.125.076 2.583.702 3.235z"/>
                <path fill="#160A5B" d="M185.628 189.828l4.445-25.709c.192-1.124-.166-2.57-.805-3.221l-23.082-23.689c-.191-.191-.383-.294-.562-.306.243-.077.511.012.78.28l23.081 23.69c.64.651.997 2.096.805 3.22l-4.445 25.71c-.14.817-.498 1.303-.933 1.265.345-.115.6-.563.716-1.24z"/>
                <path fill="#160A5B" d="M179.547 150.748l1.354-.525c.307-.115.588-.14.818-.064l.102.039c.128.038.179.192.14.383l-.038.243-3.806 1.483.038-.243c.038-.204.166-.422.332-.575l.128-.128c.32-.281.626-.498.932-.613z"/>
                <path fill="#160A5B" d="M179.765 153.982l-1.635-1.688 3.806-2.02 1.622 1.65z"/>
                <path fill="url(#o)" d="M3.628 2.85l1.354-.523c.306-.115.587-.141.817-.064l.102.038c.128.038.18.192.154.396l-.039.243L2.21 4.423l.038-.243c.038-.204.166-.422.32-.575l.127-.128c.307-.294.626-.511.933-.626z" transform="translate(177.555 149.571)"/>
                <path fill="#722318" d="M181.91 153.138l.205-1.074-.115.039-.204 1.073z"/>
                <path fill="#722318" d="M182.115 152.064l-1.686-1.662-.102.039 1.673 1.662z"/>
                <g>
                    <path fill="#160A5B" d="M172.215 143.23l1.342-.51c.306-.116.587-.141.817-.065l.102.039c.128.038.18.191.14.383l-.05.23-3.781 1.458.05-.23c.04-.192.167-.41.333-.563l.128-.128c.306-.294.613-.498.92-.613z"/>
                    <path fill="#160A5B" d="M172.394 146.414l-1.597-1.662 3.794-1.982 1.584 1.624z"/>
                    <path fill="url(#p)" d="M3.934 2.979l1.342-.524c.306-.116.587-.141.817-.064l.102.038c.128.038.18.192.14.383l-.038.23-3.793 1.47.05-.23c.04-.191.167-.408.333-.562l.128-.128c.293-.281.613-.498.92-.613z" transform="translate(169.89 141.901)"/>
                    <path fill="#722318" d="M174.54 145.583l.205-1.061-.115.05-.205 1.062z"/>
                    <path fill="#722318" d="M174.745 144.522l-1.661-1.624-.09.039 1.636 1.636z"/>
                </g>
                <g>
                    <path fill="#453C9E" d="M183.214 146.976l-.83 4.539-1.1-1.125.818-4.41c.115-.64-.128-1.51-.55-1.944l-4.7-4.781c-.421-.422-.856-.256-.983.37l-.843 4.36-1.073-1.1.868-4.461c.268-1.394 1.24-1.764 2.159-.831l5.02 5.088c.932.946 1.482 2.876 1.214 4.295z"/>
                    <path fill="#453C9E" d="M175.115 138.769h2.095l5.556 6.29-.025 3.54-.358 2.928-1.405.55.256-3.669.127-2.506-1.098-1.93s-2.108-2.07-2.12-2.122c-.026-.077-3.028-3.081-3.028-3.081zM173.633 144.522l1.405-.537.613-3.209-1.29-.025-.383.025zM174.234 137.67l1.494-.576-.447.755s-.485.115-.498.115l-.55-.294z"/>
                    <path fill="#160A5B" d="M181.821 147.513l-.843 4.551-1.098-1.125.817-4.423c.115-.64-.128-1.508-.55-1.943l-4.7-4.794c-.421-.422-.856-.256-.983.37l-.844 4.36-1.073-1.1.87-4.474c.267-1.393 1.238-1.764 2.158-.83l5.007 5.1c.958.959 1.507 2.89 1.24 4.308z"/>
                </g>
            </g>
            <path fill="#453C9E" d="M177.108 135.394s-1.214 4.385-1.06 5.536c.153 1.15 2.094 3.528 3.333 4.065 1.24.524.843-1.061 1.214-2.007.358-.933.485-3.043.485-3.043l-3.972-4.55z"/>
            <path fill="#24126A" d="M181.068 139.945l-3.96-4.538s-.243.895-.511 1.994c0 .013 1.328 3.49 4.138 5.1.243-1.047.333-2.556.333-2.556z"/>
            <path fill="#4846A5" d="M176.763 135.7s1.137 4.974 4.905 5.818l-.869-5.408s-3.142-1.24-3.244-1.266c-.102-.025-.792.857-.792.857z"/>
            <path fill="url(#q)" d="M50.175 60.033C52.87 71.181 42.69 87.2 41.03 92.006c-1.673 4.857-16.976 26.641-16.989 26.654l.013.013c-.09.128-.14.217-.14.217.268.243.587.524.83.69.345.18.191.154.587.294.281.09.575 0 .805-.255 3.487-3.976 13.719-20.966 14.051-21.707.358-.78 7.051-14.51 8.712-17.54 1.316-2.416 6.003-14.177 1.277-20.339z" transform="translate(155.84 21.733)"/>
        </g>
        <g>
            <g opacity=".15">
                <path fill="#42E8E0" d="M325.934 249.068l-16.171-9.345v6.635l16.171 9.345 16.172-9.345v-6.635z"/>
                <path fill="#42E8E0" d="M325.934 255.703l-16.171-9.345v-6.635l16.171 9.345z"/>
                <path fill="#2FD3C7" d="M342.106 246.358l-16.172 9.345v-6.635l16.172-9.345z"/>
                <path fill="#42E8E0" d="M325.934 249.068l-16.171-9.345 16.171-9.345 16.172 9.345z"/>
                <path fill="#FFF" d="M325.934 249.068l-16.171-9.345v.806l16.171 9.345 16.172-9.345v-.806z"/>
                <g>
                    <path fill="#009986" d="M325.934 247.7l-13.783-7.964 13.783-7.964 13.783 7.964z" opacity=".6"/>
                    <path fill="#42E8E0" d="M325.934 238.892l-16.171-9.345v6.648l16.171 9.345 16.172-9.345v-6.648z"/>
                    <path fill="#42E8E0" d="M325.934 245.54l-16.171-9.345v-6.648l16.171 9.345z"/>
                    <path fill="#2FD3C7" d="M342.106 236.195l-16.172 9.345v-6.648l16.172-9.345z"/>
                    <path fill="#42E8E0" d="M325.934 238.892l-16.171-9.345 16.171-9.332 16.172 9.332z"/>
                    <path fill="#FFF" d="M325.934 238.892l-16.171-9.345v.819l16.171 9.345 16.172-9.345v-.819z"/>
                </g>
                <g>
                    <path fill="#009986" d="M325.934 237.499l-13.783-7.964 13.783-7.965 13.783 7.965z" opacity=".6"/>
                    <path fill="#42E8E0" d="M325.934 228.69l-16.171-9.331v6.634l16.171 9.345 16.172-9.345v-6.634z"/>
                    <path fill="#42E8E0" d="M325.934 235.338l-16.171-9.345v-6.634l16.171 9.332z"/>
                    <path fill="#2FD3C7" d="M342.106 225.993l-16.172 9.345v-6.647l16.172-9.332z"/>
                    <path fill="#42E8E0" d="M325.934 228.69l-16.171-9.331 16.171-9.345 16.172 9.345z"/>
                    <path fill="#FFF" d="M325.934 228.69l-16.171-9.331v.805l16.171 9.345 16.172-9.345v-.805z"/>
                </g>
            </g>
            <path fill="#03002D" d="M325.934 220.535l-16.171-9.345 16.171-9.345 16.172 9.345z" opacity=".2"/>
            <path fill="#42E8E0" d="M325.934 224.549l-.05-.026L302.8 211.19l.14-.09 22.98-13.282.052.025 23.082 13.334-.14.09-22.98 13.282zm-22.737-13.36l22.737 13.143 22.738-13.142-22.738-13.142-22.737 13.142z"/>
            <path fill="#42E8E0" d="M325.934 199.735l-16.171-9.345v6.648l16.171 9.345 16.172-9.345v-6.648z"/>
            <path fill="#42E8E0" d="M325.934 206.383l-16.171-9.345v-6.648l16.171 9.345z"/>
            <path fill="#2FD3C7" d="M342.106 197.038l-16.172 9.345v-6.648l16.172-9.345z"/>
            <path fill="#42E8E0" d="M325.934 199.735l-16.171-9.345 16.171-9.332 16.172 9.345z"/>
            <path fill="#FFF" d="M325.934 199.735l-16.171-9.345v.819l16.171 9.345 16.172-9.345v-.819z"/>
            <g>
                <path fill="#009986" d="M325.934 198.38l-13.783-7.964 13.783-7.964 13.783 7.964z" opacity=".6"/>
                <path fill="#42E8E0" d="M325.934 189.572l-16.171-9.345v6.648l16.171 9.332 16.172-9.332v-6.648z"/>
                <path fill="#42E8E0" d="M325.934 196.207l-16.171-9.332v-6.648l16.171 9.345z"/>
                <path fill="#2FD3C7" d="M342.106 186.875l-16.172 9.332v-6.635l16.172-9.345z"/>
                <path fill="#42E8E0" d="M325.934 189.572l-16.171-9.345 16.171-9.345 16.172 9.345z"/>
                <path fill="#FFF" d="M325.934 189.572l-16.171-9.345v.818l16.171 9.345 16.172-9.345v-.818z"/>
            </g>
            <g>
                <path fill="#009986" d="M325.934 188.179l-13.783-7.965 13.783-7.964 13.783 7.964z" opacity=".6"/>
                <path fill="#42E8E0" d="M325.934 179.37l-16.171-9.344v6.647l16.171 9.332 16.172-9.332v-6.647z"/>
                <path fill="#42E8E0" d="M325.934 186.005l-16.171-9.332v-6.647l16.171 9.345z"/>
                <path fill="#2FD3C7" d="M342.106 176.673l-16.172 9.332v-6.634l16.172-9.345z"/>
                <path fill="#42E8E0" d="M325.934 179.37l-16.171-9.344 16.171-9.345 16.172 9.345z"/>
                <path fill="#FFF" d="M325.934 179.37l-16.171-9.344v.818l16.171 9.345 16.172-9.345v-.818z"/>
            </g>
        </g>
        <g>
            <g opacity=".15">
                <path fill="#42E8E0" d="M24.104 254.617l-16.159-9.345v6.634l16.159 9.345 16.172-9.345v-6.634z"/>
                <path fill="#42E8E0" d="M24.104 261.251l-16.159-9.345v-6.634l16.159 9.345z"/>
                <path fill="#2FD3C7" d="M40.276 251.906l-16.172 9.345v-6.634l16.172-9.345z"/>
                <path fill="#42E8E0" d="M24.104 254.617l-16.159-9.345 16.159-9.345 16.172 9.345z"/>
                <path fill="#FFF" d="M24.104 254.617l-16.159-9.345v.805l16.159 9.345 16.172-9.345v-.805z"/>
                <g>
                    <path fill="#009986" d="M24.104 253.249l-13.783-7.965 13.783-7.964 13.783 7.964z" opacity=".6"/>
                    <path fill="#42E8E0" d="M24.104 244.44l-16.159-9.344v6.647l16.159 9.345 16.172-9.345v-6.647z"/>
                    <path fill="#42E8E0" d="M24.104 251.088l-16.159-9.345v-6.647l16.159 9.345z"/>
                    <path fill="#2FD3C7" d="M40.276 241.743l-16.172 9.345v-6.647l16.172-9.345z"/>
                    <path fill="#42E8E0" d="M24.104 244.44l-16.159-9.344 16.159-9.333 16.172 9.345z"/>
                    <path fill="#FFF" d="M24.104 244.44l-16.159-9.344v.818l16.159 9.345 16.172-9.345v-.818z"/>
                </g>
                <g>
                    <path fill="#009986" d="M24.104 243.047l-13.783-7.964 13.783-7.965 13.783 7.965z" opacity=".6"/>
                    <path fill="#42E8E0" d="M24.104 234.24l-16.159-9.333v6.635l16.159 9.345 16.172-9.345v-6.635z"/>
                    <path fill="#42E8E0" d="M24.104 240.887l-16.159-9.345v-6.635l16.159 9.332z"/>
                    <path fill="#2FD3C7" d="M40.276 231.542l-16.172 9.345v-6.648l16.172-9.332z"/>
                    <path fill="#42E8E0" d="M24.104 234.24l-16.159-9.333 16.159-9.345 16.172 9.345z"/>
                    <path fill="#FFF" d="M24.104 234.24l-16.159-9.333v.805l16.159 9.345 16.172-9.345v-.805z"/>
                </g>
            </g>
            <path fill="#03002D" d="M24.104 226.083l-16.159-9.345 16.159-9.345 16.172 9.345z" opacity=".2"/>
            <path fill="#42E8E0" d="M24.104 230.097l-.051-.025L.97 216.738l.14-.09 22.98-13.282.051.026 23.082 13.333-.14.09-22.98 13.282zm-22.737-13.36l22.737 13.143 22.737-13.142-22.737-13.142-22.737 13.142z"/>
            <path fill="#42E8E0" d="M24.104 205.284L7.945 195.95v6.635l16.159 9.345 16.172-9.345v-6.635z"/>
            <path fill="#42E8E0" d="M24.104 211.931l-16.159-9.345v-6.635l16.159 9.333z"/>
            <path fill="#2FD3C7" d="M40.276 202.586l-16.172 9.345v-6.647l16.172-9.333z"/>
            <path fill="#42E8E0" d="M24.104 205.284L7.945 195.95l16.159-9.345 16.172 9.345z"/>
            <path fill="#FFF" d="M24.104 205.284L7.945 195.95v.806l16.159 9.345 16.172-9.345v-.806z"/>
            <g>
                <path fill="#009986" d="M24.104 203.928l-13.783-7.964L24.104 188l13.783 7.964z" opacity=".6"/>
                <path fill="#42E8E0" d="M24.104 195.12l-16.159-9.345v6.648l16.159 9.332 16.172-9.332v-6.648z"/>
                <path fill="#42E8E0" d="M24.104 201.755l-16.159-9.332v-6.648l16.159 9.345z"/>
                <path fill="#2FD3C7" d="M40.276 192.423l-16.172 9.332v-6.635l16.172-9.345z"/>
                <path fill="#42E8E0" d="M24.104 195.12l-16.159-9.345 16.159-9.345 16.172 9.345z"/>
                <path fill="#FFF" d="M24.104 195.12l-16.159-9.345v.819l16.159 9.345 16.172-9.345v-.819z"/>
            </g>
            <g>
                <path fill="#009986" d="M24.104 193.727l-13.783-7.964 13.783-7.965 13.783 7.965z" opacity=".6"/>
                <path fill="#42E8E0" d="M24.104 184.919l-16.159-9.345v6.647l16.159 9.333 16.172-9.333v-6.647z"/>
                <path fill="#42E8E0" d="M24.104 191.566l-16.159-9.345v-6.647l16.159 9.345z"/>
                <path fill="#2FD3C7" d="M40.276 182.221l-16.172 9.345v-6.647l16.172-9.345z"/>
                <path fill="#42E8E0" d="M24.104 184.919l-16.159-9.345 16.159-9.332 16.172 9.332z"/>
                <path fill="#FFF" d="M24.104 184.919l-16.159-9.345v.818l16.159 9.345 16.172-9.345v-.818z"/>
            </g>
        </g>
        <g>
            <g opacity=".15">
                <path fill="#42E8E0" d="M146.515 341.662l-16.172-9.345v6.635l16.172 9.345 16.171-9.345v-6.635z"/>
                <path fill="#42E8E0" d="M146.515 348.297l-16.172-9.345v-6.635l16.172 9.345z"/>
                <path fill="#2FD3C7" d="M162.686 338.952l-16.171 9.345v-6.635l16.171-9.345z"/>
                <path fill="#42E8E0" d="M146.515 341.662l-16.172-9.345 16.172-9.345 16.158 9.345z"/>
                <path fill="#FFF" d="M146.515 341.662l-16.172-9.345v.805l16.172 9.345 16.158-9.345.013-.805z"/>
                <g>
                    <path fill="#009986" d="M146.515 340.294l-13.783-7.964 13.783-7.965 13.782 7.965z" opacity=".6"/>
                    <path fill="#42E8E0" d="M146.515 331.499l-16.172-9.345v6.635l16.172 9.345 16.171-9.345v-6.635z"/>
                    <path fill="#42E8E0" d="M146.515 338.134l-16.172-9.345v-6.635l16.172 9.345z"/>
                    <path fill="#2FD3C7" d="M162.686 328.789l-16.171 9.345v-6.635l16.171-9.345z"/>
                    <path fill="#42E8E0" d="M146.515 331.499l-16.172-9.345 16.172-9.345 16.158 9.345z"/>
                    <path fill="#FFF" d="M146.515 331.499l-16.172-9.345v.805l16.172 9.345 16.158-9.345.013-.805z"/>
                </g>
                <g>
                    <path fill="#009986" d="M146.515 330.093l-13.783-7.965 13.783-7.964 13.782 7.964z" opacity=".6"/>
                    <path fill="#42E8E0" d="M146.515 321.297l-16.172-9.345v6.635l16.172 9.345 16.171-9.345v-6.635z"/>
                    <path fill="#42E8E0" d="M146.515 327.932l-16.172-9.345v-6.635l16.172 9.345z"/>
                    <path fill="#2FD3C7" d="M162.686 318.587l-16.171 9.345v-6.635l16.171-9.345z"/>
                    <path fill="#42E8E0" d="M146.515 321.297l-16.172-9.345 16.172-9.345 16.158 9.345z"/>
                    <path fill="#FFF" d="M146.515 321.297l-16.172-9.345v.806l16.172 9.345 16.158-9.345.013-.806z"/>
                </g>
            </g>
            <path fill="#03002D" d="M146.515 313.128l-16.172-9.345 16.172-9.345 16.158 9.345z" opacity=".2"/>
            <path fill="#42E8E0" d="M146.515 317.155l-.051-.025-23.083-13.334.14-.09 22.98-13.282.052.026 23.082 13.333-.14.09-22.98 13.282zm-22.75-13.372l22.737 13.142 22.737-13.142-22.737-13.141-22.737 13.141z"/>
            <path fill="#42E8E0" d="M146.515 292.342l-16.172-9.345v6.635l16.172 9.345 16.171-9.345v-6.635z"/>
            <path fill="#42E8E0" d="M146.515 298.977l-16.172-9.345v-6.635l16.172 9.345z"/>
            <path fill="#2FD3C7" d="M162.686 289.632l-16.171 9.345v-6.635l16.171-9.345z"/>
            <path fill="#42E8E0" d="M146.515 292.342l-16.172-9.345 16.172-9.345 16.158 9.345z"/>
            <path fill="#FFF" d="M146.515 292.342l-16.172-9.345v.805l16.172 9.345 16.158-9.345.013-.805z"/>
            <g>
                <path fill="#009986" d="M146.515 290.974l-13.783-7.964 13.783-7.965 13.782 7.965z" opacity=".6"/>
                <path fill="#42E8E0" d="M146.515 282.179l-16.172-9.345v6.634l16.172 9.345 16.171-9.345v-6.634z"/>
                <path fill="#42E8E0" d="M146.515 288.813l-16.172-9.345v-6.634l16.172 9.345z"/>
                <path fill="#2FD3C7" d="M162.686 279.468l-16.171 9.345v-6.634l16.171-9.345z"/>
                <path fill="#42E8E0" d="M146.515 282.179l-16.172-9.345 16.172-9.345 16.158 9.345z"/>
                <path fill="#FFF" d="M146.515 282.179l-16.172-9.345v.805l16.172 9.345 16.158-9.345.013-.805z"/>
            </g>
            <g>
                <path fill="#009986" d="M146.515 280.772l-13.783-7.964 13.783-7.964 13.782 7.964z" opacity=".6"/>
                <path fill="#42E8E0" d="M146.515 271.977l-16.172-9.345v6.635l16.172 9.345 16.171-9.345v-6.635z"/>
                <path fill="#42E8E0" d="M146.515 278.612l-16.172-9.345v-6.635l16.172 9.345z"/>
                <path fill="#2FD3C7" d="M162.686 269.267l-16.171 9.345v-6.635l16.171-9.345z"/>
                <path fill="#42E8E0" d="M146.515 271.977l-16.172-9.345 16.172-9.345 16.158 9.345z"/>
                <path fill="#FFF" d="M146.515 271.977l-16.172-9.345v.805l16.172 9.345 16.158-9.345.013-.805z"/>
            </g>
        </g>
        <g>
            <g opacity=".15">
                <path fill="#42E8E0" d="M246.737 167.303l-16.171-9.345v6.634l16.171 9.346 16.172-9.346v-6.634z"/>
                <path fill="#42E8E0" d="M246.737 173.938l-16.171-9.346v-6.634l16.171 9.345z"/>
                <path fill="#2FD3C7" d="M262.909 164.592l-16.172 9.346v-6.635l16.172-9.345z"/>
                <path fill="#42E8E0" d="M246.737 167.303l-16.171-9.345 16.171-9.345 16.172 9.345z"/>
                <path fill="#FFF" d="M246.737 167.303l-16.171-9.345v.805l16.171 9.345 16.172-9.345v-.805z"/>
                <g>
                    <path fill="#009986" d="M246.737 165.935l-13.783-7.965 13.783-7.964 13.783 7.964z" opacity=".6"/>
                    <path fill="#42E8E0" d="M246.737 157.14l-16.171-9.346v6.635l16.171 9.345 16.172-9.345v-6.635z"/>
                    <path fill="#42E8E0" d="M246.737 163.774l-16.171-9.345v-6.635l16.171 9.345z"/>
                    <path fill="#2FD3C7" d="M262.909 154.43l-16.172 9.344v-6.635l16.172-9.345z"/>
                    <path fill="#42E8E0" d="M246.737 157.14l-16.171-9.346 16.171-9.345 16.172 9.345z"/>
                    <path fill="#FFF" d="M246.737 157.14l-16.171-9.346v.806l16.171 9.345 16.172-9.345v-.806z"/>
                </g>
                <g>
                    <path fill="#009986" d="M246.737 155.733l-13.783-7.964 13.783-7.964 13.783 7.964z" opacity=".6"/>
                    <path fill="#42E8E0" d="M246.737 146.938l-16.171-9.345v6.635l16.171 9.345 16.172-9.345v-6.635z"/>
                    <path fill="#42E8E0" d="M246.737 153.573l-16.171-9.345v-6.635l16.171 9.345z"/>
                    <path fill="#2FD3C7" d="M262.909 144.228l-16.172 9.345v-6.635l16.172-9.345z"/>
                    <path fill="#42E8E0" d="M246.737 146.938l-16.171-9.345 16.171-9.345 16.172 9.345z"/>
                    <path fill="#FFF" d="M246.737 146.938l-16.171-9.345v.805l16.171 9.345 16.172-9.345v-.805z"/>
                </g>
            </g>
            <path fill="#03002D" d="M246.737 138.769l-16.171-9.345 16.171-9.345 16.172 9.345z" opacity=".2"/>
            <path fill="#42E8E0" d="M246.737 142.796l-.05-.026-23.083-13.333.14-.09 22.98-13.282.052.025 23.082 13.334-.14.09-22.98 13.282zM224 129.424l22.737 13.142 22.737-13.142-22.737-13.142L224 129.424z"/>
            <path fill="#42E8E0" d="M246.737 117.982l-16.171-9.345v6.635l16.171 9.345 16.172-9.345v-6.635z"/>
            <path fill="#42E8E0" d="M246.737 124.617l-16.171-9.345v-6.635l16.171 9.345z"/>
            <path fill="#2FD3C7" d="M262.909 115.272l-16.172 9.345v-6.635l16.172-9.345z"/>
            <path fill="#42E8E0" d="M246.737 117.982l-16.171-9.345 16.171-9.345 16.172 9.345z"/>
            <path fill="#FFF" d="M246.737 117.982l-16.171-9.345v.806l16.171 9.345 16.172-9.345v-.806z"/>
            <g>
                <path fill="#009986" d="M246.737 116.615l-13.783-7.965 13.783-7.964 13.783 7.964z" opacity=".6"/>
                <path fill="#42E8E0" d="M246.737 107.806l-16.171-9.332v6.635l16.171 9.345 16.172-9.345v-6.635z"/>
                <path fill="#42E8E0" d="M246.737 114.454l-16.171-9.345v-6.635l16.171 9.332z"/>
                <path fill="#2FD3C7" d="M262.909 105.11l-16.172 9.344v-6.648l16.172-9.332z"/>
                <path fill="#42E8E0" d="M246.737 107.806l-16.171-9.332 16.171-9.345 16.172 9.345z"/>
                <path fill="#FFF" d="M246.737 107.806l-16.171-9.332v.806l16.171 9.345 16.172-9.345v-.806z"/>
            </g>
            <g>
                <path fill="#009986" d="M246.737 106.413l-13.783-7.964 13.783-7.965 13.783 7.965z" opacity=".6"/>
                <path fill="#42E8E0" d="M246.737 97.605l-16.171-9.332v6.635l16.171 9.345 16.172-9.345v-6.635z"/>
                <path fill="#42E8E0" d="M246.737 104.253l-16.171-9.345v-6.635l16.171 9.332z"/>
                <path fill="#2FD3C7" d="M262.909 94.908l-16.172 9.345v-6.648l16.172-9.332z"/>
                <path fill="#42E8E0" d="M246.737 97.605l-16.171-9.332 16.171-9.345 16.172 9.345z"/>
                <path fill="#FFF" d="M246.737 97.605l-16.171-9.332v.805l16.171 9.345 16.172-9.345v-.805z"/>
            </g>
        </g>
    </g>
</svg>
