<?xml version="1.0" encoding="utf-8"?>
<!-- Generator: Adobe Illustrator 23.0.3, SVG Export Plug-In . SVG Version: 6.00 Build 0)  -->
<svg version="1.1" id="Layer_1" xmlns="http://www.w3.org/2000/svg" xmlns:xlink="http://www.w3.org/1999/xlink" x="0px" y="0px"
	 width="586px" height="466px" viewBox="0 0 586 466" style="enable-background:new 0 0 586 466;" xml:space="preserve">
<style type="text/css">
	.st0{fill:#099974;}
	.st1{fill:#CEF8F6;}
	.st2{fill:#ECEEFF;}
	.st3{fill:none;stroke:#099974;stroke-width:3;stroke-linecap:round;stroke-linejoin:round;stroke-dasharray:2,6;}
	.st4{fill:#FFFFFF;}
</style>
<title>mentorship</title>
<desc>Created with Sketch.</desc>
<g id="mentorship">
	<g id="group-16">
		<path id="Shape" class="st0" d="M38.5,13.2c-0.1-0.4-0.5-0.7-1-0.8l-4-0.6l-1.8-3.5c0.3-0.5,0.1-1.1-0.3-1.5s-1.1-0.4-1.6,0
			c-0.5,0.4-0.6,1-0.3,1.5l-1.8,3.5l-4,0.6c-0.5,0.1-0.9,0.4-1,0.8c-0.1,0.4,0,0.9,0.3,1.2l2.9,2.7l-0.7,3.8
			c-0.1,0.4,0.1,0.9,0.5,1.2c0.4,0.3,0.9,0.3,1.3,0.1l3.6-1.8l3.6,1.8c0.4,0.2,0.9,0.2,1.3-0.1c0.4-0.3,0.6-0.7,0.5-1.2l-0.7-3.8
			l2.9-2.7C38.5,14.1,38.6,13.6,38.5,13.2L38.5,13.2z M33.1,15.8c-0.3,0.3-0.4,0.7-0.4,1.1l0.4,2.1l-1.9-1c-0.4-0.2-0.8-0.2-1.2,0
			l-1.9,1l0.4-2.1c0.1-0.4-0.1-0.8-0.4-1.1l-1.6-1.5l2.2-0.3c0.4-0.1,0.8-0.3,0.9-0.7l1-1.9l1,1.9c0.2,0.4,0.5,0.6,0.9,0.7l2.2,0.3
			L33.1,15.8z"/>
		<path class="st0" d="M50.1,35.2l-5.5-14.7c0-0.1,0-0.1-0.1-0.1c2.1-5.1,0.9-11.2-3.4-15.3c-2.3-2.2-5.3-3.6-8.6-4.1
			c-3.2-0.4-6.4,0.1-9.2,1.6c-0.3,0.1-0.5,0.4-0.6,0.7c-0.1,0.3-0.1,0.6,0.1,0.9c0.3,0.6,1.1,0.8,1.7,0.5c4.8-2.5,11-1.6,14.9,2.1
			c4.9,4.7,4.9,12.3,0,17c-4.9,4.7-12.9,4.7-17.8,0c-3.9-3.7-4.8-9.6-2.2-14.2c0.2-0.3,0.2-0.6,0.1-0.9C19.5,8.2,19.2,8,19,7.8
			c-0.6-0.3-1.3-0.1-1.7,0.5c-1.5,2.7-2.1,5.8-1.6,8.8c0.2,1.3,0.5,2.5,1.1,3.7l-6.2,12.6c-0.2,0.4-0.1,0.8,0.1,1.2
			c0.3,0.3,0.7,0.5,1.1,0.5l7.9-0.9l4.3,6.3c0.2,0.4,0.7,0.6,1.1,0.5c0.4,0,0.8-0.3,1-0.7l4.3-8.9l3.5,9.2c0.2,0.5,0.6,0.8,1.2,0.8
			c0.4,0,0.7-0.2,1-0.5l4.9-5.9l7.7,1.6c0.4,0.1,0.9-0.1,1.2-0.4C50.2,36,50.2,35.6,50.1,35.2L50.1,35.2z M24.8,37.5l-3.5-5.2
			c-0.3-0.4-0.7-0.6-1.2-0.5l-6.4,0.7l4.5-9.2c0.5,0.7,1.1,1.3,1.7,1.9c2.4,2.3,5.5,3.7,8.8,4.1L24.8,37.5L24.8,37.5z M40.7,32.7
			c-0.5-0.1-0.9,0.1-1.2,0.4l-4,4.9l-3.3-8.6c3.4-0.4,6.5-1.8,8.9-4.1c0.7-0.7,1.3-1.4,1.9-2.2L47,34L40.7,32.7L40.7,32.7z"/>
		<path class="st0" d="M21.7,5.2L21.7,5.2c-0.5-0.5-1.3-0.5-1.8,0c-0.5,0.5-0.5,1.2,0,1.7l0,0c0.2,0.2,0.6,0.3,0.9,0.3
			c0.3,0,0.6-0.1,0.9-0.3C22.2,6.4,22.2,5.7,21.7,5.2z M49.2,53.5c-0.2-0.2-0.5-0.3-0.9-0.3c-0.3,0-0.6,0.1-0.9,0.3
			c-0.2,0.2-0.4,0.5-0.4,0.8c0,0.3,0.1,0.6,0.4,0.8c0.5,0.5,1.3,0.5,1.7,0c0.2-0.2,0.4-0.5,0.4-0.8C49.6,54,49.4,53.7,49.2,53.5z"/>
		<path class="st0" d="M60.2,44.7c-0.6-1.2-1.6-2.2-2.9-2.7c-1.3-0.5-2.8-0.4-4.1,0.1l-17.4,7.7c-0.2-1.2-0.9-2.2-2-2.9l-8.3-5.2
			c-0.2-0.1-0.4-0.2-0.7-0.2H13.3v-1.2c0-0.6-0.6-1.2-1.2-1.2H1.8c-0.3,0-0.6,0.1-0.9,0.3c-0.2,0.2-0.4,0.5-0.4,0.8
			c0,0.6,0.6,1.2,1.2,1.2h9v16.9h-9c-0.3,0-0.6,0.1-0.9,0.3s-0.4,0.5-0.4,0.8c0,0.6,0.6,1.2,1.2,1.2h10.3c0.7,0,1.2-0.5,1.2-1.2
			v-0.1l4.1,1.2c0.1,0,0.2,0.1,0.4,0.1h13.6c3.3,0,6.6-0.7,9.5-2.1l3.6-1.6c0.3-0.1,0.5-0.4,0.6-0.7c0.1-0.3,0.1-0.6-0.1-0.9
			c-0.3-0.6-1-0.8-1.7-0.5l-3.6,1.6c-2.6,1.2-5.5,1.8-8.5,1.8H18l-4.7-1.4V43.9h11.1l8,5c0.7,0.4,1,1.1,0.9,1.9
			c-0.1,0.8-0.7,1.3-1.5,1.6c-0.6,0.1-1.1,0.1-1.6-0.2l-5.6-3.4c-0.6-0.3-1.3-0.2-1.7,0.4c-0.2,0.3-0.2,0.6-0.2,0.9
			c0.1,0.3,0.3,0.6,0.5,0.7l5.6,3.4c1.1,0.6,2.4,0.8,3.6,0.5c1.3-0.3,2.3-1.2,2.9-2.3h0.3c0.2,0,0.4,0,0.5-0.1l18-8
			c0.7-0.3,1.5-0.3,2.2-0.1c0.7,0.2,1.3,0.8,1.5,1.4c0.6,1.3,0,2.8-1.3,3.4L52,51c-0.3,0.1-0.5,0.4-0.6,0.7
			c-0.1,0.3-0.1,0.6,0.1,0.9c0.3,0.6,1,0.8,1.7,0.5l4.5-2.1C60.1,49.9,61.2,47.1,60.2,44.7z"/>
		<path class="st0" d="M8.8,47.2c-0.5-0.5-1.2-0.5-1.7-0.1l0,0c-0.2,0.2-0.4,0.5-0.4,0.8c0,0.3,0.1,0.6,0.3,0.8
			c0.2,0.3,0.6,0.4,0.9,0.4c0.3,0,0.6-0.1,0.8-0.3l0,0C9,48.6,9.1,48.3,9.1,48C9.2,47.7,9,47.4,8.8,47.2L8.8,47.2z"/>
	</g>
	<g id="group-14" transform="translate(111.000000, 0.000000)">
		<path class="st0" d="M-14.3,16l7.1-5.9h9.3V0.4h-23.2v9.7h6.8V16z M-19.2,8.2V2.4H0.2v5.8h-8.1l-4.5,3.7V8.2L-19.2,8.2L-19.2,8.2z
			"/>
		<path class="st0" d="M-17.2,4.3h1.9v1.9h-1.9V4.3z M-13.4,4.3h7.7v1.9h-7.7V4.3z M-3.7,4.3h1.9v1.9h-1.9V4.3z M4.9,58.5l-0.8-7.8
			c3.2-0.5,5.7-3.3,5.7-6.7V31.4H6V30c0-1.3-0.7-2.5-1.9-3.1C5.3,25.9,6,24.4,6,22.7v-1.9c0-3.2-2.6-5.8-5.8-5.8
			c-3.2,0-5.8,2.6-5.8,5.8v1.9c0,2.5,1.6,4.6,3.8,5.5L-7,33.3h-5.4c-0.1-1.6-1.2-3-2.8-3.5l-4-1.1V27c1.2-1.1,1.9-2.6,1.9-4.3v-1.9
			c0-3.2-2.6-5.8-5.8-5.8c-3.2,0-5.8,2.6-5.8,5.8v1.9c0,1.7,0.8,3.3,1.9,4.3v1.7l-4,1.1c-1.7,0.5-2.8,2-2.8,3.7v3.6h-3.9V43h1.9
			v15.5h-8.7v1.9h60v-1.9H4.9z M-3.7,43v-4.4l6.9-6.9C3.7,31.2,4,30.5,4,29.8c0,0.1,0,0.1,0,0.2v12c0,1.6-1.3,2.9-2.9,2.9h-7.7V43
			H-3.7z M-6.6,50.7h4.9l0.8,7.7h-5.7V50.7L-6.6,50.7z M0.3,50.7h1.9L3,58.5H1.1L0.3,50.7z M6,42v-8.7h1.9V44c0,2.7-2.2,4.8-4.8,4.8
			h-9.7v-1.9h7.7C3.8,46.9,6,44.7,6,42L6,42z M-3.7,22.7v-1.9c0-2.1,1.7-3.9,3.9-3.9c2.1,0,3.9,1.7,3.9,3.9v1.9
			c0,2.1-1.7,3.9-3.9,3.9C-2,26.5-3.7,24.8-3.7,22.7L-3.7,22.7z M-6.2,35.3l6.5-6.5c0.4-0.4,1.1-0.4,1.5,0s0.4,1.1,0,1.5l-6.9,6.9
			h-10.2c-0.5,0-0.9-0.4-0.9-1s0.4-0.9,0.9-1H-6.2z M-26.9,20.7c0-2.1,1.7-3.9,3.9-3.9c2.1,0,3.9,1.7,3.9,3.9v1.9
			c0,2.1-1.7,3.9-3.9,3.9c-2.1,0-3.9-1.7-3.9-3.9V20.7z M-23,28.5c0.7,0,1.3-0.1,1.9-0.3v1c-0.2,0.4-0.9,1.2-1.9,1.2
			c-1,0-1.7-0.9-1.9-1.2v-1C-24.4,28.4-23.7,28.5-23,28.5L-23,28.5z M-31.8,33.6c0-0.9,0.6-1.6,1.4-1.9l4-1.1
			c0.6,0.7,1.7,1.8,3.3,1.8c1.7,0,2.8-1,3.3-1.8l4,1.1c0.7,0.2,1.3,0.9,1.4,1.6h-0.9c-1.6,0-2.9,1.3-2.9,2.9c0,0.3,0.1,0.7,0.2,1
			h-13.7V33.6L-31.8,33.6z M-35.6,39.1h30v1.9h-30V39.1z M-33.7,46.9h2.9v-1.9h-2.9V43h25.2v1.9h-20.3v1.9h20.3v11.6h-2.3l-1.9-3.9
			h-16.7l-1.9,3.9h-2.3V46.9L-33.7,46.9z M-13,58.5h-16.2l1-1.9H-14L-13,58.5L-13,58.5z"/>
	</g>
	<g transform="translate(221.000000, 0.000000)">
		<path class="st0" d="M-27.3,42.6v-2c0-0.5-0.2-1-0.6-1.4c-0.4-0.4-0.9-0.6-1.4-0.6h-1c-0.5-9-7.9-16-17-16c0-2.8-2.2-5-5-5
			c-1.1,0-2.1,0.4-3,1v-3h-2v7h-6.3c-0.8-3.1-3.3-5.4-6.4-5.9c-0.6-0.1-1.1,0.1-1.6,0.4c-0.5,0.4-0.7,1-0.7,1.5v5.4
			c-4.1,1.9-7.3,5.3-8.9,9.5h-3.1c-1.1,0-2,0.9-2,2v8c0,1.1,0.9,2,2,2h3.1c1.6,4.2,4.8,7.6,8.9,9.5v3.5c0,0.5,0.2,1,0.6,1.4
			c0.4,0.4,0.9,0.6,1.4,0.6h6c1.1,0,2-0.9,2-2v-2h12v2c0,1.1,0.9,2,2,2h6c0.5,0,1-0.2,1.4-0.6c0.4-0.4,0.6-0.9,0.6-1.4V55
			c5.8-2.6,9.6-8.2,10-14.5h1v2c0,1.1,0.9,2,2,2h1v-2H-27.3z M-52.3,19.6c1.7,0,3,1.3,3,3s-1.3,3-3,3c-1.7,0-3-1.3-3-3
			S-53.9,19.6-52.3,19.6z M-41.7,53.5c-0.4,0.2-0.6,0.5-0.6,0.9v4.2h-6v-3c0-0.6-0.4-1-1-1h-14c-0.6,0-1,0.4-1,1v3h-6v-4.2
			c0-0.4-0.2-0.8-0.6-0.9c-4.1-1.7-7.2-5-8.6-9.2c-0.1-0.4-0.5-0.7-1-0.7h-3.8v-8h3.8c0.4,0,0.8-0.3,0.9-0.7
			c1.4-4.2,4.5-7.6,8.6-9.2c0.4-0.2,0.6-0.5,0.6-0.9l0-6.1c2.6,0.4,4.6,2.5,5,5.1c0.1,0.5,0.5,0.9,1,0.9h7.5c0.8,1.8,2.6,3,4.6,3
			c2,0,3.8-1.2,4.6-3h0.4c7.2,0,13.3,5.1,14.7,12.1C-31.2,43.7-35,50.8-41.7,53.5z"/>
		<path class="st0" d="M-71.3,32.6c-1.1,0-2-0.9-2-2h-2c0,2.2,1.8,4,4,4c2.2,0,4-1.8,4-4h-2c0,0.5-0.2,1-0.6,1.4
			C-70.3,32.3-70.8,32.6-71.3,32.6z M-39.3,13.6c0,1.6,1.5,2.4,2.6,2.9c0.8,0.4,1.4,0.8,1.4,1.1c0,0.5-0.5,1-1,1c-0.5,0-1-0.4-1-1
			h-2c0,1.3,0.8,2.4,2,2.8v1.2h2v-1.2c1.2-0.4,2-1.5,2-2.8c0-1.6-1.5-2.4-2.6-2.9c-0.8-0.4-1.4-0.8-1.4-1.1c0-0.5,0.5-1,1-1
			c0.5,0,1,0.4,1,1h2c0-1.3-0.8-2.4-2-2.8V9.6h-2v1.2C-38.5,11.2-39.3,12.3-39.3,13.6z M-37.3,3.6h2v4h-2V3.6z M-33.3,4.6h2v2h-2
			V4.6z M-33.3,0.6h2v2h-2V0.6z M-41.3,5.6h2v4h-2V5.6z M-41.3,1.6h2v2h-2V1.6z M-64.3,16.6c2.6,0,4.7-1.9,5-4.5
			c0.3-2.6-1.5-4.9-4-5.4V1.6h-2v5.1c-0.7,0.2-1.4,0.5-2,0.9v-3h-2v7C-69.3,14.3-67.1,16.6-64.3,16.6z M-64.3,8.6c1.7,0,3,1.3,3,3
			s-1.3,3-3,3s-3-1.3-3-3S-65.9,8.6-64.3,8.6z M-69.3,0.6h2v2h-2V0.6z"/>
		<path class="st0" d="M-61.3,4.6h2v2h-2V4.6z M-61.3,0.6h2v2h-2V0.6z M-57.3,11.6h2v2h-2V11.6z M-53.3,9.6h2v6h-2V9.6z M-49.3,7.6
			h2v2h-2V7.6z M-49.3,3.6h2v2h-2V3.6z M-53.3,5.6h2v2h-2V5.6z M-58.3,29.6h12v-2h-12V29.6z M-49.3,11.6h2v4h-2V11.6z"/>
	</g>
	<g id="group-9" transform="translate(332.000000, 0.000000)">
		<path class="st0" d="M99.4,42c-0.5-0.5-1.1-0.7-1.8-0.5l-16.8,3.4c-0.7-0.7-1.7-0.8-2.5-0.2c-0.8,0.5-1.1,1.5-0.7,2.4
			s1.3,1.3,2.2,1.2l2.3,2.3l-8.9,8.9l-6.9-6.9c-0.8-0.8-2-0.8-2.8,0L55,60.9l3.2-11.4c0.8-2.8,0.2-5.7-1.5-8c-1-1.4-2.5-2.4-4.1-3
			l2.5-7.3c0.7,0.1,1.4,0.1,2.1,0.1c5.6,0,11.1-2,15.5-5.6l0.5-0.4c2.3-1.9,2.7-5.2,0.9-7.5c-0.9-1.2-2.2-1.9-3.7-2.1
			c-1.5-0.2-2.9,0.3-4.1,1.2l-0.5,0.4C65,18,64.1,18.6,63.2,19c-3,1.5-6.8,0.8-9.3-1.6c3.6-1.1,6.3-4.5,6.3-8.5c0-4.9-4-8.9-8.9-8.9
			c-4.9,0-8.9,4-8.9,8.9c0,2,0.6,3.8,1.7,5.2c-2,0.4-3.8,1.5-5.2,3c-0.1,0.1-0.2,0.2-0.2,0.2c-3.4,4.2-8.1,7.3-13.3,8.8
			c-1.4,0.4-2.5,1.3-3.2,2.5l-4-4c-1.8-1.7-4.6-1.7-6.4,0l-5.2,5.2l-5.2,5.2c-0.8,0.8-1.3,2-1.3,3.2c0,1.2,0.5,2.3,1.3,3.2
			l14.4,14.4c0.8,0.8,2,1.3,3.2,1.3c1.2,0,2.3-0.5,3.2-1.3l5.4-5.4L25,57.1c-0.2,0.6-0.1,1.3,0.2,1.8c0.4,0.5,1,0.8,1.6,0.8
			c0.8,0,1.5-0.5,1.8-1.3L35,41.8h14.3c1.7,0,3.2,0.8,4.2,2.1c1,1.3,1.3,3,0.9,4.6L50,64.3c-0.2,0.7-0.9,1.2-1.6,1.2
			c-0.7,0-1.1-0.4-1.3-0.6c-0.3-0.4-0.5-0.9-0.4-1.3l2.4-14.8c0.1-0.6-0.1-1.1-0.4-1.6c-0.4-0.4-0.9-0.7-1.5-0.7h-4.6
			c-0.7,0-1.4,0.4-1.7,1.1c-0.1,0.2-11.4,22.6-15.3,30.1c-0.4,0.8-1.2,1.2-2.1,1.1l-0.1,0c-0.6-0.1-1.1-0.4-1.4-0.9
			c-0.3-0.5-0.4-1.1-0.1-1.7l1.2-3.1c0.2-0.5,0.2-1,0-1.5c-0.2-0.5-0.6-0.8-1.1-1c-1-0.4-2.1,0.1-2.5,1.1l-1.2,3.1
			c-0.6,1.7-0.5,3.5,0.4,5c0.9,1.5,2.5,2.6,4.2,2.8l0.1,0c2.5,0.3,4.9-0.9,6.1-3.2c3.3-6.6,12.4-24.5,14.7-29.1h1.1l-2,12.6
			c-0.3,1.6,0.2,3.2,1.3,4.5c0.7,0.8,1.6,1.4,2.5,1.7L24.9,90.9c-0.4,0.4-0.6,0.9-0.6,1.4s0.2,1,0.6,1.4l5.6,5.6
			c0.4,0.4,0.9,0.6,1.4,0.6c0.5,0,1-0.2,1.4-0.6l10.8-10.7c0.4-0.4,0.6-0.9,0.6-1.4s-0.2-1-0.6-1.4c-0.8-0.8-2-0.8-2.8,0l-9.4,9.4
			l-2.8-2.8l35.8-35.7l6.9,6.9c0.8,0.8,2,0.8,2.8,0l11.7-11.7c0.4-0.4,0.6-0.9,0.6-1.4c0-0.5-0.2-1-0.6-1.4l-1.1-1.1l10.4-2.1
			l-2.1,10.4l-1.6-1.6c-0.8-0.8-2-0.8-2.8,0L73.2,70.5l-6.9-6.9c-0.8-0.8-2-0.8-2.8,0L52.3,74.7c-0.4,0.4-0.6,0.9-0.6,1.4
			s0.2,1,0.6,1.4c0.8,0.8,2,0.8,2.8,0l9.8-9.7l6.9,6.9c0.8,0.8,2,0.8,2.8,0l15.9-15.9l2.8,2.8c0.5,0.5,1.3,0.7,1.9,0.5
			c0.7-0.2,1.2-0.8,1.4-1.5l3.4-16.8C100.1,43.1,99.9,42.4,99.4,42L99.4,42z M51.3,3.9c2.8,0,5,2.2,5,5c0,2.8-2.2,5-5,5
			c-2.8,0-5-2.2-5-5C46.3,6.1,48.6,3.9,51.3,3.9L51.3,3.9z M32,38.5l-2.4-2.4c1.1-0.4,2.2-0.8,3.3-1.3L32,38.5z M25.4,31.7
			c-0.2-0.8,0.2-1.6,1-1.9c3.2-0.9,6.2-2.3,8.9-4.2l-1.1,4.2c-2.2,1.2-4.5,2.2-7,2.9c-0.4,0.1-0.8,0.1-1.2-0.1L25.5,32
			C25.5,31.9,25.4,31.8,25.4,31.7z M14.6,27.4c0.1-0.1,0.3-0.2,0.4-0.2c0.2,0,0.3,0.1,0.4,0.2l7.1,7.1c0.3,0.5,0.7,0.8,1.2,1.2
			l6.1,6.1c0.1,0.1,0.2,0.3,0.2,0.4c0,0.2-0.1,0.3-0.2,0.4L26,46.5l-4.3-4.3l0.8-0.8c0.4-0.4,0.6-0.9,0.6-1.4c0-0.5-0.2-1-0.6-1.4
			l-4.4-4.4c-0.8-0.8-2-0.8-2.8,0L14.5,35l-3.8-3.8L14.6,27.4L14.6,27.4z M17.2,41.1c-0.1,0.1-0.3,0.2-0.5,0.2
			c-0.2,0-0.4-0.1-0.5-0.2l-0.6-0.6c-0.1-0.1-0.2-0.3-0.2-0.5c0-0.2,0.1-0.4,0.2-0.5l1.1-1.1l1.6,1.6L17.2,41.1z M19.3,53.1
			c-0.1,0.1-0.3,0.2-0.4,0.2c-0.2,0-0.3-0.1-0.4-0.2L4.1,38.7c-0.1-0.1-0.2-0.3-0.2-0.4c0-0.1,0-0.3,0.2-0.4L7.9,34l4,4
			c-0.3,0.6-0.5,1.3-0.5,2c0,1.2,0.5,2.4,1.4,3.3l0.6,0.6c0.9,0.9,2,1.4,3.3,1.4c0.7,0,1.4-0.2,2-0.5l4.5,4.5L19.3,53.1L19.3,53.1z
			 M47.2,37.9h-11l4-15.4c0.7-2.8,3.2-4.7,6.1-4.7c1.8,0,3.4,0.7,4.6,2c3.7,3.9,9.5,5.1,14.1,2.7c1.2-0.6,2.3-1.3,3.3-2.1l0.5-0.4
			c0.3-0.3,0.7-0.4,1.1-0.3c0.4,0,0.8,0.3,1,0.6c0.5,0.6,0.4,1.6-0.3,2.1l-0.5,0.4c-3.7,3-8.2,4.7-13,4.7c-1,0-2.1-0.1-3.1-0.2
			c-0.9-0.1-1.8,0.4-2.1,1.3l-3.3,9.5H47.2z"/>
		<path class="st0" d="M48.2,79.7c-0.5,0-1,0.2-1.4,0.6c-0.4,0.4-0.6,0.9-0.6,1.4c0,0.5,0.2,1,0.6,1.4c0.4,0.4,0.9,0.6,1.4,0.6
			c0.5,0,1-0.2,1.4-0.6c0.4-0.4,0.6-0.9,0.6-1.4c0-0.5-0.2-1-0.6-1.4C49.2,79.9,48.8,79.7,48.2,79.7L48.2,79.7z M24,67.1
			c0.5,0,1-0.2,1.4-0.6c0.4-0.4,0.6-0.9,0.6-1.4c0-0.5-0.2-1-0.6-1.4c-0.4-0.4-0.9-0.6-1.4-0.6c-0.5,0-1,0.2-1.4,0.6
			c-0.4,0.4-0.6,0.9-0.6,1.4c0,0.5,0.2,1,0.6,1.4C23,66.9,23.5,67.1,24,67.1z"/>
	</g>
	<g id="group-17" transform="translate(443.000000, 0.000000)">
		<path class="st0" d="M91.3,28.4l-3,1.2l2.5,5.8H80v3.2h12.1l4.1,9.7l-4.1,9.7H67.2c-4.4-4-10.2-6.5-16.6-6.5
			c-6.4,0-12.2,2.5-16.6,6.5H6.5v3.2h24.5c-3.1,4-4.9,9.1-4.9,14.5c0,13.3,11,24.2,24.5,24.2c13.5,0,24.5-10.9,24.5-24.2
			c0-5.5-1.9-10.5-4.9-14.5h20.6l-2.5,5.8l3,1.2l8.4-20L91.3,28.4L91.3,28.4z M71.8,75.8c0,11.6-9.5,21-21.2,21s-21.2-9.4-21.2-21
			s9.5-21,21.2-21S71.8,64.2,71.8,75.8z"/>
		<path class="st0" d="M13.1,51l28.8-15.4l3.6,3.6L38.8,40c-2.5,0.3-4.5,2.5-4.5,5c0,2.8,2.3,5,5.1,5c1,0,2-0.1,3-0.2l14.4-1.6
			l2.1-8.3L52,30.5l8.8-1.2l3.2,11.1h9.4c2.7,0,4.9-2.2,4.9-4.8c0-2.7-2.2-4.8-4.9-4.8h-1.9l-1.5-7.2l-6.4-7.6c-1.6-1.9-4-3-6.5-3
			c-0.4,0-0.8,0-1.2,0.1l-6.9-3.4l-14,2.8C32.8,12.8,31,15,31,17.4c0,2.8,2.3,5.2,5.2,5.2h0.9l-0.5,0.2L7.5,41
			c-1.6,1-2.6,2.7-2.6,4.6v0.5c0,3,2.5,5.5,5.5,5.5C11.4,51.6,12.3,51.4,13.1,51L13.1,51z M55.4,40.7l-1.2,4.6l-12.1,1.3
			c-0.9,0.1-1.8,0.1-2.7,0.1c-1,0-1.8-0.8-1.8-1.8c0-0.9,0.7-1.7,1.6-1.8l13.3-1.6L44.8,34l4.1-2.2L55.4,40.7L55.4,40.7z M36.2,19.4
			c-1.1,0-2-0.9-2-1.9c0-0.9,0.7-1.7,1.6-1.9L48.7,13l3.2,1.6l-6.6,3.6l-7.8,1.2c-0.1,0-0.2,0-0.3,0H36.2z M8.2,46.1v-0.5
			c0-0.8,0.4-1.5,1.1-1.9l29.1-18.2l16.4-8.9c0.8-0.4,1.6-0.6,2.5-0.6c1.5,0,3,0.7,3.9,1.8l5.9,7l1.8,9h4.6c0.9,0,1.6,0.7,1.6,1.6
			s-0.7,1.6-1.6,1.6h-6.9l-3.3-11.5l-13.1,1.9L11.5,48.1c-0.7,0.4-1.6,0.4-2.2,0C8.6,47.7,8.2,46.9,8.2,46.1L8.2,46.1z"/>
		<path class="st0" d="M71.8,19.4c5.4,0,9.8-4.3,9.8-9.7c0-5.3-4.4-9.7-9.8-9.7C66.4,0,62,4.3,62,9.7S66.4,19.4,71.8,19.4z
			 M71.8,3.2c3.6,0,6.5,2.9,6.5,6.5c0,3.6-2.9,6.5-6.5,6.5c-3.6,0-6.5-2.9-6.5-6.5C65.3,6.1,68.2,3.2,71.8,3.2z M0,58.1h3.3v3.2H0
			V58.1z M0,24.2h3.3v3.2H0V24.2z M6.5,24.2h16.3v3.2H6.5V24.2z M3.3,17.7h3.3V21H3.3V17.7z M9.8,17.7h18V21h-18V17.7z M6.5,11.3
			h3.3v3.2H6.5V11.3z M13.1,11.3h16.3v3.2H13.1V11.3z M50.6,58.1c-9.9,0-18,8-18,17.7v1.6h4.9v-3.2H36c0.2-1.5,0.6-2.9,1.1-4.2
			l1.3,0.8l1.6-2.8l-1.3-0.8c0.9-1.2,1.9-2.2,3.1-3.1l0.8,1.3l2.8-1.6l-0.8-1.3c1.4-0.6,2.8-1,4.3-1.1v1.5h3.3v-1.5
			c1.5,0.2,2.9,0.6,4.3,1.1l-0.8,1.3l2.8,1.6l0.8-1.3c1.2,0.9,2.2,1.9,3.1,3.1L61.1,68l1.6,2.8l1.3-0.8c0.6,1.3,1,2.8,1.1,4.2h-1.5
			v3.2h4.9v-1.6C68.6,66,60.5,58.1,50.6,58.1L50.6,58.1z"/>
		<path class="st0" d="M51.9,84.8l-2.7-1.9l8.2-11.3l2.7,1.9L51.9,84.8z M49,88.7h3.3v3.2H49V88.7z M55.5,88.7h3.3v3.2h-3.3V88.7z
			 M42.4,88.7h3.3v3.2h-3.3V88.7z"/>
	</g>
	<g id="group-13" transform="translate(0.000000, 126.000000)">
		<path class="st0" d="M98.3,0H1.7C0.7,0,0,0.7,0,1.7v6.7C0,9.3,0.7,10,1.7,10h1.7v51.7h3.3V10h86.7v53.3h-10v3.3H95
			c0.9,0,1.7-0.7,1.7-1.7V10h1.7c0.9,0,1.7-0.7,1.7-1.7V1.7C100,0.7,99.3,0,98.3,0z M96.7,6.7H3.3V3.3h93.3V6.7z"/>
		<path class="st0" d="M51.7,63.3H65v3.3H51.7V63.3z M51.7,25h-3.3c-2.8,0-5,2.2-5,5v11.7h3.3V35h6.7v6.7h3.3V30
			C56.7,27.2,54.4,25,51.7,25z M46.7,31.7V30c0-0.9,0.7-1.7,1.7-1.7h3.3c0.9,0,1.7,0.7,1.7,1.7v1.7H46.7z M68.3,25h-6.7
			c-0.9,0-1.7,0.7-1.7,1.7V40c0,0.9,0.7,1.7,1.7,1.7h6.7c2,0,3.8-1.2,4.6-3s0.5-3.9-0.9-5.4c1.3-1.5,1.7-3.6,0.9-5.4
			C72.1,26.2,70.3,25,68.3,25z M63.3,28.3h5c0.9,0,1.7,0.7,1.7,1.7s-0.7,1.7-1.7,1.7h-5V28.3z M68.3,38.3h-5V35h5
			c0.9,0,1.6,0.8,1.6,1.7S69.2,38.3,68.3,38.3z M81.7,28.3H85c0.9,0,1.7,0.7,1.7,1.7H90c0-2.8-2.2-5-5-5h-3.3c-2.8,0-5,2.2-5,5v6.7
			c0,2.8,2.2,5,5,5H85c2.8,0,5-2.2,5-5h-3.3c0,0.9-0.7,1.7-1.7,1.7h-3.3c-0.9,0-1.7-0.7-1.7-1.7V30C80,29.1,80.7,28.3,81.7,28.3z"/>
		<path class="st0" d="M98.3,90h-23c0.8-0.9,1.3-2.1,1.3-3.3h1.7c0.9,0,1.7-0.4,2.4-1s1-1.5,1-2.4v-1.7c0-0.9-0.4-1.7-1-2.4
			s-1.5-1-2.4-1H65c-0.9,0-1.7,0.7-1.7,1.7v6.7c0,1.2,0.5,2.4,1.3,3.3h-13V74.3c0-5.3-3.5-9.9-8.6-11.3l-9.7-2.6v-2.5
			c3.1-2.2,5-5.7,5-9.6v-1.7c0.9,0,1.7-0.7,1.7-1.7v-5c0-7.4-6-13.3-13.3-13.3c-7.4,0-13.3,6-13.3,13.3v5c0,0.9,0.7,1.7,1.7,1.7v1.7
			c0,3.8,1.9,7.4,5,9.6v2.5L10.3,63c-5.1,1.4-8.6,6-8.6,11.3V90C0.7,90,0,90.7,0,91.7v6.7c0,0.9,0.7,1.7,1.7,1.7h96.7
			c0.9,0,1.7-0.7,1.7-1.7v-6.7C100,90.7,99.3,90,98.3,90z M78.3,83.3h-1.7v-1.7h1.7V83.3z M66.7,81.7h6.7v5c0,0.9-0.7,1.7-1.7,1.7
			h-3.3c-0.9,0-1.7-0.7-1.7-1.7V81.7z M48.3,74.3V90h-5V75H40v15h-9.3l0.9-2.8c0.1-0.2,0.1-0.5,0.1-0.7L30,72l1.1-2.3l4.3-1.4
			c0.5-0.2,0.9-0.5,1-1c0.2-0.5,0.1-1-0.2-1.5l-0.9-1.3l6.7,1.8C45.8,67.3,48.3,70.5,48.3,74.3z M20.9,65.8l0.5-0.7l1.4,0.7
			l-0.3,0.5L20.9,65.8z M32,65.1l0.5,0.7l-1.6,0.5l-0.3-0.5L32,65.1z M27.3,66.7l0.8,1.7L27.3,70H26l-0.8-1.7l0.8-1.7H27.3z
			 M26.2,90L25,86.5l1.5-13.2h0.4l1.5,13.2L27.2,90H26.2z M16.7,40c0-5.5,4.5-10,10-10c5.5,0,10,4.5,10,10v3.3h-1.1
			c-1.5,0-2.9-1-3.2-2.5l-0.7-2.9c-0.2-0.6-0.7-1.1-1.3-1.2c-0.6-0.1-1.3,0.1-1.7,0.6l-1,1.3c-2.2,2.9-5.7,4.7-9.3,4.7h-1.7V40z
			 M18.3,48.3v-1.7c4.1,0,8-1.7,10.9-4.7c0.8,2.6,3.1,4.4,5.8,4.6v1.7c-0.1,4.6-3.8,8.2-8.3,8.2S18.4,52.9,18.3,48.3z M26.7,60
			c1.1,0,2.3-0.2,3.3-0.5v2.2c0,0.2,0,0.4,0.1,0.6L28,63.3h-2.6l-2.2-1.1c0.1-0.2,0.1-0.4,0.1-0.6v-2.2C24.4,59.8,25.5,60,26.7,60z
			 M5,74.3c0-3.8,2.5-7,6.1-8l6.7-1.8l-0.9,1.3c-0.3,0.4-0.4,1-0.2,1.5s0.6,0.9,1,1l4.3,1.4l1.1,2.3l-1.6,14.5c0,0.2,0,0.5,0.1,0.7
			l0.9,2.8h-9.4V75H10v15H5V74.3z M96.7,96.7H3.3v-3.3h93.3V96.7z"/>
		<path class="st0" d="M71.7,73.3V75H75v-1.7h3.3c0.9,0,1.7-0.4,2.4-1c0.6-0.6,1-1.5,1-2.4v-1.7h-3.3V70H75
			C73.2,70,71.7,71.5,71.7,73.3z M65,71.7h3.3V70h3.3c1.8,0,3.3-1.5,3.3-3.3V65h-3.3v1.7h-3.3c-1.8,0-3.3,1.5-3.3,3.3V71.7z
			 M65,46.7h3.3V50H65V46.7z M71.7,46.7H75V50h-3.3V46.7z M58.3,46.7h3.3V50h-3.3V46.7z M13.3,16.7h3.3V20h-3.3V16.7z M20,16.7h3.3
			V20H20V16.7z M26.7,16.7H30V20h-3.3V16.7z M33.3,16.7h3.3V20h-3.3V16.7z"/>
	</g>
	<g id="telescope-1" transform="translate(114.000000, 126.000000)">
		<g id="Group" transform="translate(35.000000, 1.000000)">
			<path class="st1" d="M5.8,30.1l-5.3-9.2l6.8-3.9l5.3,9.2L5.8,30.1z M51,33.4L36.9,9c-0.7-1.3-0.3-2.9,1-3.7l6.8-4
				c0.6-0.4,1.4-0.5,2-0.3s1.3,0.6,1.6,1.3l14.1,24.4c0.7,1.3,0.3,2.9-1,3.7l-6.8,4c-0.6,0.4-1.4,0.5-2,0.3S51.3,34,51,33.4z"/>
		</g>
		<polygon class="st1" points="13.7,65 9.4,57.5 18.7,52.1 23,59.6 		"/>
		<polygon class="st1" points="25.5,63.9 16.2,47.8 72.6,11.2 85.3,33.2 		"/>
		<path class="st2" d="M7.8,69.7l-5.3-9.3c-0.6-1-0.2-2.3,0.8-2.9l4.6-2.6l7.5,13l-4.6,2.6c-0.5,0.3-1.1,0.4-1.6,0.2
			C8.5,70.5,8.1,70.1,7.8,69.7z"/>
		<ellipse id="Oval" class="st1" cx="50" cy="50" rx="4.7" ry="4.7"/>
		<path class="st0" d="M99.2,26.8L85.1,2.3c-0.6-1.1-1.6-1.8-2.8-2.2S79.9,0,78.8,0.6l-6.8,4c-1.1,0.6-1.8,1.6-2.2,2.8
			c-0.3,1-0.2,2.2,0.3,3.1l-21.6,14l-3.4-6l0.2-0.1c0.9-0.5,1.2-1.7,0.7-2.7c-0.3-0.4-0.7-0.8-1.2-0.9c-0.5-0.1-1-0.1-1.5,0.2
			l-5.3,3.1l-3.4,2l-1.9,1.1c-0.9,0.5-1.2,1.7-0.7,2.7c0.3,0.4,0.7,0.8,1.2,0.9c0.5,0.1,1,0.1,1.5-0.2l0.2-0.1l3.7,6.5L15.2,46.2
			c-0.9,0.6-1.1,1.7-0.6,2.6l1.5,2.6l-6,3.5l-0.6-1.1c-0.3-0.4-0.7-0.8-1.2-0.9s-1-0.1-1.5,0.2l-4.6,2.6c-0.9,0.5-1.6,1.4-1.9,2.5
			c-0.3,1.1-0.1,2.2,0.4,3.1l5.3,9.3c0.7,1.3,2.1,2.1,3.5,2.1c0.7,0,1.4-0.2,2-0.5l4.6-2.6c0.9-0.5,1.2-1.7,0.7-2.7l-0.6-1.1l6-3.5
			l1.5,2.6c0.5,0.9,1.6,1.2,2.6,0.8l19.8-10.2c1.2,0.9,2.8,1.3,4.3,1.2L66,96.1H61c-1.1,0-1.9,0.9-1.9,2c0,1.1,0.9,2,1.9,2h15.3
			c1.1,0,1.9-0.9,1.9-2c0-1.1-0.9-2-1.9-2h-6.1L54.1,55.2c1.6-1.2,2.5-3.1,2.5-5.1l27.9-14.4c0.9,1.2,2.3,2,3.8,2
			c0.8,0,1.6-0.2,2.3-0.6l6.8-4c1.1-0.6,1.8-1.6,2.2-2.8C100,29.1,99.8,27.8,99.2,26.8z M9.7,68.8c0,0-0.1,0-0.2,0
			c-0.1,0-0.1,0-0.1-0.1l-5.3-9.3c0,0,0-0.1,0-0.2c0-0.1,0-0.1,0.1-0.1l2.9-1.7l5.5,9.6L9.7,68.8z M38.2,22.6l1.7-1l1.7-1l3.5,6.1
			l-3.3,2.2L38.2,22.6L38.2,22.6z M14.4,62.4L12,58.2l6-3.5l2.4,4.1L14.4,62.4z M47.3,50c0-1.5,1.2-2.7,2.7-2.7
			c1.5,0,2.7,1.2,2.7,2.7c0,1.5-1.2,2.7-2.7,2.7C48.5,52.8,47.3,51.5,47.3,50z M55.5,46.3c-1.2-1.8-3.3-2.9-5.5-2.9
			c-3.6,0-6.6,3-6.6,6.6c0,0.8,0.1,1.6,0.4,2.3l-4,2.1l-3.9-6.8c-0.3-0.4-0.7-0.8-1.2-0.9s-1-0.1-1.5,0.2c-0.9,0.5-1.2,1.7-0.7,2.7
			l3.8,6.6l-10.1,5.2l-7.4-12.9L52,26.9l3,5.1c0.3,0.4,0.7,0.8,1.2,0.9c0.5,0.1,1,0.1,1.5-0.2c0.9-0.5,1.2-1.7,0.7-2.7l-3.1-5.3
			L72,14l10.6,18.4L55.5,46.3L55.5,46.3z M95.9,29.3c-0.1,0.2-0.2,0.4-0.3,0.5l-6.8,4c-0.2,0.1-0.4,0.1-0.6,0.1
			c-0.2-0.1-0.4-0.2-0.5-0.4L73.6,9c-0.1-0.2-0.1-0.4-0.1-0.6c0.1-0.2,0.2-0.4,0.4-0.5l6.8-4c0.2-0.1,0.4-0.1,0.6-0.1
			s0.4,0.2,0.5,0.4l14.1,24.4C95.9,29,95.9,29.2,95.9,29.3z"/>
		<path class="st0" d="M60.4,35.7c-0.5,0-1,0.2-1.4,0.6c-0.8,0.8-0.8,2,0,2.8c0.4,0.4,0.9,0.6,1.4,0.6c0.5,0,1-0.2,1.4-0.6
			c0.4-0.4,0.6-0.9,0.6-1.4c0-0.5-0.2-1-0.6-1.4C61.4,35.9,60.9,35.7,60.4,35.7z M45.4,60.1c-1.1,0-2,0.9-2,2c0,1.1,0.9,2,2,2
			c0.5,0,1-0.2,1.4-0.6c0.4-0.4,0.6-0.9,0.6-1.4c0-0.5-0.2-1-0.6-1.4C46.4,60.3,45.9,60.1,45.4,60.1z M43.3,67.1
			c-1-0.4-2.1,0.1-2.5,1.1l-11,27.9h-4.1c-1.1,0-1.9,0.9-1.9,2c0,1.1,0.9,2,1.9,2H41c1.1,0,1.9-0.9,1.9-2c0-1.1-0.9-2-1.9-2h-7
			l10.4-26.4C44.8,68.6,44.3,67.5,43.3,67.1z"/>
	</g>
	<g id="group-21" transform="translate(229.000000, 126.000000)">
		<path class="st1" d="M87.2,41.8l10.6-10.7L87.2,20.5v6H68.6v21.9h9.3V35.9h9.3v0.4V41.8z M12.6,41.8L1.9,31.2l10.6-10.7v6h18.6
			v21.9h-9.3V35.9h-9.3v0.4V41.8z M54.6,35.7V12.6h6L49.9,2L39.2,12.6h6v23.1H54.6z M49.9,45.6c-5.8,0-10.5,4.7-10.5,10.6v7
			c0,5.8,4.7,10.6,10.5,10.6c5.8,0,10.5-4.7,10.5-10.6v-7C60.5,50.3,55.7,45.6,49.9,45.6z M58.3,73.7H41.5c-8.6,0-15.6,7-15.6,15.6
			V98h48v-8.7C73.9,80.7,66.9,73.7,58.3,73.7L58.3,73.7z"/>
		<path class="st0" d="M49.9,96.1c-0.5,0-1,0.2-1.4,0.6C48.2,97,48,97.5,48,98c0,0.5,0.2,1,0.6,1.4c0.4,0.4,0.9,0.6,1.4,0.6
			c0.5,0,1-0.2,1.4-0.6c0.4-0.4,0.6-0.9,0.6-1.4c0-0.5-0.2-1-0.6-1.4C50.9,96.3,50.4,96.1,49.9,96.1z"/>
		<path class="st0" d="M58.9,71.8c2.2-2.3,3.5-5.4,3.5-8.6v-7c0-6.9-5.6-12.5-12.5-12.5s-12.5,5.6-12.5,12.5v7
			c0,3.2,1.2,6.3,3.5,8.6C31.5,72.1,24,79.9,24,89.3V98c0,1.1,0.9,2,2,2h16.2c1.1,0,2-0.9,2-2c0-0.5-0.2-1-0.6-1.4
			c-0.4-0.4-0.9-0.6-1.4-0.6H27.9v-6.7c0-7.5,6.1-13.7,13.6-13.7h16.8c7.5,0,13.6,6.1,13.6,13.7v6.7H57.7c-1.1,0-2,0.9-2,2
			c0,1.1,0.9,2,2,2h16.2c1.1,0,2-0.9,2-2v-8.7C75.8,79.9,68.3,72.1,58.9,71.8L58.9,71.8z M41.3,56.1c0-4.8,3.9-8.6,8.6-8.6
			c4.7,0,8.6,3.9,8.6,8.6v7c0,4.8-3.9,8.6-8.6,8.6c-4.7,0-8.6-3.9-8.6-8.6V56.1z M99.2,29.8L88.6,19.2c-0.6-0.6-1.4-0.7-2.1-0.4
			c-0.7,0.3-1.2,1-1.2,1.8v4.1H68.6c-1.1,0-1.9,0.9-1.9,2v21.9c0,1.1,0.9,2,1.9,2h9.3c1.1,0,1.9-0.9,1.9-2V37.9h5.4v4
			c-0.6,0.6-0.7,1.6-0.3,2.3s1.3,1.1,2.2,0.9s1.4-1,1.4-1.9l10.6-10.7C100,31.8,100,30.6,99.2,29.8z M89.2,37.1v-1.2
			c0-0.5-0.2-1-0.6-1.4c-0.4-0.4-0.9-0.6-1.4-0.6h-9.3c-1.1,0-1.9,0.9-1.9,2v10.6h-5.4v-18h16.7c1.1,0,1.9-0.9,1.9-2v-1.3l5.9,5.9
			L89.2,37.1L89.2,37.1z M33.2,48.5V26.6c0-0.5-0.2-1-0.6-1.4c-0.4-0.4-0.9-0.6-1.4-0.6H14.5v-4.1c0.6-0.6,0.7-1.6,0.3-2.3
			c-0.4-0.8-1.3-1.1-2.2-0.9c-0.8,0.2-1.4,1-1.4,1.9L0.6,29.8c-0.8,0.8-0.8,2,0,2.8l10.6,10.7c0.6,0.6,1.4,0.7,2.1,0.4
			c0.7-0.3,1.2-1,1.2-1.8v-4h5.4v10.6c0,1.1,0.9,2,2,2h9.3C32.3,50.5,33.2,49.6,33.2,48.5L33.2,48.5z M29.3,46.5h-5.4V35.9
			c0-0.5-0.2-1-0.6-1.4c-0.4-0.4-0.9-0.6-1.4-0.6h-9.3c-1.1,0-1.9,0.9-1.9,2v1.2l-5.9-5.9l5.9-5.9v1.3c0,1.1,0.9,2,1.9,2h16.7V46.5
			L29.3,46.5z M54.6,23c-0.5,0-1,0.2-1.4,0.6c-0.4,0.4-0.6,0.9-0.6,1.4c0,0.5,0.2,1,0.6,1.4c0.4,0.4,0.9,0.6,1.4,0.6
			c0.5,0,1-0.2,1.4-0.6c0.4-0.4,0.6-0.9,0.6-1.4C56.5,23.9,55.6,23.1,54.6,23z"/>
		<path class="st0" d="M39.2,14.6h4.1v21.2c0,1.1,0.9,2,2,2h9.3c1.1,0,2-0.9,2-2v-2.9c0-0.5-0.2-1-0.6-1.4c-0.4-0.4-0.9-0.6-1.4-0.6
			c-1.1,0-2,0.9-2,2v1h-5.4V12.6c0-0.5-0.2-1-0.6-1.4c-0.4-0.4-0.9-0.6-1.4-0.6h-1.3l6-6l6,6h-1.3c-1.1,0-2,0.9-2,2v4.6
			c0,1.1,0.9,2,2,2c1.1,0,1.9-0.9,1.9-2v-2.6h4.1c0.8,0,1.5-0.5,1.8-1.2c0.3-0.7,0.1-1.6-0.4-2.1L51.3,0.6C50.9,0.2,50.4,0,49.9,0
			s-1,0.2-1.4,0.6L37.9,11.3c-0.6,0.6-0.7,1.4-0.4,2.1C37.7,14.1,38.5,14.6,39.2,14.6L39.2,14.6z"/>
	</g>
	<g id="group-20" transform="translate(342.000000, 150.000000)">
		<path class="st1" d="M80.6,44.3L56.4,4.5c-4.9-2.2-10.4-2.9-15.7-1.8l-16,3.1h-9.4v33c2,0,4,0.7,5.6,1.9l1.2,0.9L54,56.3
			c0.9,0.8,2,1.3,3.2,1.3c1.2,0,2.3-0.5,3.2-1.4c1.7-1.8,1.7-4.7-0.1-6.4l-10.1-9.9l4.9,4.8l10.1,9.9c0.9,0.8,2,1.3,3.2,1.3
			c1.2,0,2.3-0.5,3.2-1.4c1.7-1.8,1.7-4.7-0.1-6.4l-10.1-9.9l6.4,6.2l6.5,6.3c0.9,0.8,2,1.3,3.2,1.3c1.2,0,2.3-0.5,3.2-1.4
			C82.4,48.9,82.4,46,80.6,44.3z"/>
		<path class="st1" d="M86.5,36.1l-8.7,4.6l-18.5-17l-7.1-0.6l-15.9,9c-2,1.1-4.4,0.8-6-0.9c-1.9-2-1.9-5.1,0.1-7L45.1,9.6
			c3.1-3.1,7.4-4.9,11.8-4.9h29.6V36.1L86.5,36.1z"/>
		<path class="st1" d="M86.5,41V3.9c0-1.1,0.9-2,2-2H99v41H88.5C87.4,43,86.5,42.1,86.5,41z M15.5,41V3.9c0-0.5-0.2-1-0.6-1.4
			S14,2,13.5,2H3v41h10.5C14.6,43,15.5,42.1,15.5,41z"/>
		<g transform="translate(22.000000, 36.000000)">
			<path class="st1" d="M2.3,9.6c-1.8-1.5-2.1-4.2-0.6-6l1.6-1.9C4,0.8,5,0.2,6.2,0.1s2.2,0.2,3.1,1c1.8,1.5,2.1,4.2,0.6,6L8.3,9
				c-0.7,0.9-1.8,1.4-2.9,1.5C4.3,10.6,3.1,10.3,2.3,9.6z"/>
			<path class="st1" d="M8.8,15C7,13.5,6.8,10.8,8.3,9l1.6-1.9c0.7-0.9,1.8-1.4,2.9-1.5s2.2,0.2,3.1,1c1.8,1.5,2.1,4.2,0.6,6
				l-1.6,1.9c-0.7,0.9-1.8,1.4-2.9,1.5C10.8,16.1,9.7,15.7,8.8,15L8.8,15z"/>
			<path class="st1" d="M15.4,20.4c-1.8-1.5-2.1-4.2-0.6-6l1.6-1.9c0.7-0.9,1.8-1.4,2.9-1.5c1.1-0.1,2.2,0.2,3.1,1
				c1.8,1.5,2.1,4.2,0.6,6l-1.6,1.9c-0.7,0.9-1.8,1.4-2.9,1.5C17.4,21.5,16.3,21.2,15.4,20.4z"/>
			<path class="st1" d="M22,25.9c-1.8-1.5-2.1-4.2-0.6-6l1.6-1.9c0.7-0.9,1.8-1.4,2.9-1.5s2.2,0.2,3.1,1c1.8,1.5,2.1,4.2,0.6,6
				L28,25.3c-0.7,0.9-1.8,1.4-2.9,1.5C24,26.9,22.9,26.6,22,25.9z"/>
		</g>
		<path class="st0" d="M99,0H88.5c-1.7,0-3.2,1.1-3.7,2.7H57.3c0,0,0,0-0.1,0c-5.3-2.4-11.2-3.1-16.8-2L24.6,3.8h-7.2
			C17.3,1.7,15.6,0,13.5,0H3C1.9,0,1,0.9,1,2v12.6c0,1.1,0.9,2,2,2c1.1,0,2-0.9,2-2V3.9h8.6V41H4.9V30.6c0-1.1-0.9-2-2-2
			c-1.1,0-2,0.9-2,2V43c0,1.1,0.9,2,2,2h10.5c2.2,0,3.9-1.8,3.9-3.9v0c0.9,0.3,1.7,0.7,2.5,1.2l0.9,0.7c0.2,1.6,1,3.1,2.2,4.1
			c1.2,1,2.8,1.5,4.4,1.4c0.2,1.6,1,3,2.2,4c1.2,1,2.8,1.5,4.4,1.4c0.2,1.6,1,3,2.2,4c1.2,1,2.8,1.5,4.4,1.4c0.2,1.6,1,3,2.2,4
			c1.3,1.1,2.9,1.6,4.5,1.4c1.6-0.2,3.2-1,4.2-2.2l1.6-1.9c0.5-0.6,0.8-1.2,1-1.9c0.9,0.5,2,0.8,3,0.8h0.1c1.7,0,3.4-0.7,4.5-2
			c0.6-0.6,1.1-1.4,1.4-2.2l0.7,0.7c1.2,1.2,2.8,1.8,4.5,1.8c1.7,0,3.4-0.7,4.6-2c0.7-0.7,1.2-1.6,1.5-2.5c0.9,0.5,1.9,0.7,2.9,0.7
			c1.7,0,3.4-0.7,4.6-2c1.2-1.2,1.9-2.9,1.8-4.6c0-1.7-0.7-3.4-2-4.6l-1.4-1.3l4-2.2V41c0,2.2,1.7,3.9,3.9,3.9H99c1.1,0,2-0.9,2-2
			V30c0-0.5-0.2-1-0.6-1.4s-0.9-0.6-1.4-0.6c-1.1,0-2,0.9-2,2v11h-8.6v-4.9V3.9h8.6v10.9c0,1.1,0.9,2,2,2c1.1,0,2-0.9,2-2V2
			C101,0.9,100.1,0,99,0z M25.5,44.1c-1-0.8-1.1-2.3-0.3-3.3l1.6-1.9c0.4-0.5,1.1-0.8,1.8-0.8c0.5,0,1,0.2,1.5,0.5
			c1,0.8,1.1,2.3,0.3,3.3l-1.6,1.9c-0.4,0.5-0.9,0.8-1.6,0.8C26.6,44.6,26,44.5,25.5,44.1z M32.1,49.5c-0.5-0.4-0.8-1-0.8-1.6
			c-0.1-0.6,0.1-1.2,0.5-1.7l1.6-1.9c0.4-0.5,1.1-0.8,1.8-0.8c0.5,0,1,0.2,1.5,0.5c0.5,0.4,0.8,0.9,0.8,1.6c0.1,0.6-0.1,1.2-0.5,1.7
			l-1.6,1.9c-0.4,0.5-0.9,0.8-1.6,0.8C33.2,50.1,32.6,49.9,32.1,49.5z M38.7,54.9c-0.5-0.4-0.8-1-0.8-1.6c-0.1-0.6,0.1-1.2,0.5-1.7
			l1.6-1.9c0.4-0.5,0.9-0.8,1.6-0.8s1.2,0.1,1.7,0.5c1,0.8,1.1,2.3,0.3,3.3l-1.6,1.9c-0.4,0.5-0.9,0.8-1.6,0.8
			C39.7,55.5,39.1,55.3,38.7,54.9L38.7,54.9z M50.1,58.1L48.5,60c-0.4,0.5-0.9,0.8-1.6,0.8c-0.6,0.1-1.2-0.1-1.7-0.5
			c-1-0.8-1.1-2.3-0.3-3.3l1.6-1.9c0.4-0.5,1.1-0.8,1.8-0.8c0.5,0,1,0.2,1.5,0.5c0.5,0.4,0.8,0.9,0.8,1.6
			C50.6,57,50.5,57.6,50.1,58.1z M79.3,49.3c-0.5,0.5-1.1,0.8-1.8,0.8c-0.7,0-1.3-0.3-1.8-0.7L69.2,43l0,0l-6.4-6.2
			c-0.4-0.4-0.9-0.6-1.4-0.6c-0.5,0-1,0.2-1.4,0.6c-0.8,0.8-0.7,2,0,2.8l10.1,9.9c1,1,1,2.6,0.1,3.6c-0.5,0.5-1.1,0.8-1.8,0.8
			c-0.7,0-1.3-0.3-1.8-0.7l-10.1-9.9c0,0,0,0-0.1-0.1l-4.9-4.7c-0.4-0.4-0.9-0.6-1.4-0.6c-0.5,0-1,0.2-1.4,0.6c-0.8,0.8-0.7,2,0,2.8
			L59,51.2c1,1,1,2.6,0.1,3.6c-0.5,0.5-1.1,0.8-1.8,0.8c-0.7,0-1.3-0.2-1.8-0.7l-2.8-2.8c-0.1-0.1-0.1-0.1-0.2-0.2
			c0,0-0.1-0.1-0.1-0.1c-1.2-1-2.8-1.5-4.4-1.4c-0.2-1.6-1-3-2.2-4c-1.2-1-2.8-1.5-4.4-1.4c-0.2-1.6-1-3-2.2-4
			c-1.2-1-2.8-1.5-4.4-1.4c-0.2-1.6-1-3-2.2-4c-1.3-1.1-2.9-1.6-4.5-1.4c-1.6,0.2-3.2,1-4.2,2.2l-1.6,1.9c-0.1,0.2-0.3,0.3-0.4,0.5
			c-1.3-0.9-2.8-1.5-4.4-1.8V7.7h7.4c0.1,0,0.2,0,0.4,0l16-3.1C43.8,4,46.6,4,49.3,4.4c-2,0.9-3.9,2.2-5.5,3.8L29,22.8
			c-2.7,2.7-2.7,7-0.1,9.8c2.2,2.3,5.6,2.8,8.4,1.2L52.7,25h5.4l21.1,20.6c0.5,0.5,0.8,1.1,0.8,1.8C80,48.1,79.7,48.8,79.3,49.3z
			 M77.7,38.7L63.7,25h1.4c1.1,0,2-0.9,2-2c0-1.1-0.9-2-2-2H52.2c-0.3,0-0.7,0.1-1,0.3l-15.9,9c-1.2,0.7-2.7,0.5-3.6-0.5
			c-1.1-1.2-1.1-3.1,0-4.2l14.8-14.7C49.3,8.2,53,6.6,57,6.6l27.6,0v28.3L77.7,38.7z"/>
		<path class="st0" d="M99,20.5c-1.1,0-2,0.9-2,2s0.9,2,2,2c0.5,0,1-0.2,1.4-0.6c0.4-0.4,0.6-0.9,0.6-1.4
			C101,21.4,100.1,20.5,99,20.5z M3,24.4c0.5,0,1-0.2,1.4-0.6c0.4-0.4,0.6-0.9,0.6-1.4c0-1.1-0.9-2-2-2c-1.1,0-2,0.9-2,2
			S1.9,24.4,3,24.4z"/>
	</g>
	<g id="group-22" transform="translate(480.000000, 126.000000)">
		<polygon class="st1" points="97.3,78.1 0.7,78.1 0.7,1.5 97.3,1.5 		"/>
		<path class="st0" d="M95.2,0H4.8C2.2,0,0,2.2,0,4.9v71.3C0,78.8,2.2,81,4.8,81h90.3c2.7,0,4.8-2.2,4.8-4.9V4.9
			C100,2.2,97.8,0,95.2,0z M96.8,76.1c0,0.9-0.7,1.6-1.6,1.6H4.8c-0.9,0-1.6-0.7-1.6-1.6V4.9C3.2,4,4,3.2,4.8,3.2h90.3
			c0.9,0,1.6,0.7,1.6,1.6L96.8,76.1L96.8,76.1z"/>
		<path class="st0" d="M66.1,38.5c0-3.6-2.4-6.8-5.8-7.8l-5.4-1.6v-0.4c2-1.5,3.2-3.9,3.2-6.4v-2.9c0-4.4-3.2-8-7.3-8.4
			c-2.3-0.2-4.5,0.6-6.2,2.1c-1.7,1.5-2.6,3.7-2.6,6v3.2c0,2.5,1.2,4.9,3.2,6.4v0.4l-5.4,1.6c-3.4,1-5.8,4.2-5.8,7.8v8.1h32.3
			L66.1,38.5L66.1,38.5z M62.9,43.4H37.1v-4.8c0-2.2,1.4-4.1,3.5-4.7l7.8-2.2V27l-0.8-0.5c-1.5-0.9-2.4-2.5-2.4-4.2v-3.2
			c0-1.4,0.6-2.7,1.6-3.6c1-0.9,2.3-1.4,3.7-1.3c2.5,0.2,4.4,2.5,4.4,5.2v2.9c0,1.7-0.9,3.3-2.4,4.2L51.6,27v4.7l7.8,2.2
			c2.1,0.6,3.5,2.5,3.5,4.7V43.4z M6.5,73.9l14.9-7.5L6.5,58.9V73.9L6.5,73.9z M9.7,64.2l4.5,2.2l-4.5,2.2V64.2L9.7,64.2z
			 M30.6,58.3h3.2v16.2h-3.2V58.3z M24.2,58.3h3.2v16.2h-3.2V58.3z M67.7,58.3h-9.7v6.5h-21V68h21v6.5h9.7V68h25.8v-3.2H67.7V58.3z
			 M64.5,71.3h-3.2v-9.7h3.2V71.3z"/>
	</g>
	<g id="group-23" transform="translate(0.000000, 240.000000)">
		<path class="st3" d="M0,13.1h52 M39,0.6l20,12.3L37.2,27.2"/>
	</g>
	<g id="group-49" transform="translate(79.000000, 241.000000)">
		<path class="st0" d="M44.2,38.1v6.3c0,1.3-2,2.4-4.9,2.9c-1.4,0.3-2.9,0.4-4.3,0.4c-5.1,0-9.2-1.5-9.2-3.3v-6.3
			c0,1.8,4.1,3.3,9.2,3.3C40.1,41.5,44.2,40,44.2,38.1L44.2,38.1z"/>
		<path class="st0" d="M44.2,38v0.1c0,1.8-4.1,3.3-9.2,3.3c-5.1,0-9.2-1.5-9.2-3.3v-6.3c0,1.8,4.1,3.3,9.2,3.3
			c5.1,0,9.2-1.5,9.2-3.3V38L44.2,38z"/>
		<path class="st0" d="M44.2,25.5v6.3c0,1.8-4.1,3.3-9.2,3.3c-5.1,0-9.2-1.5-9.2-3.3v-6.3c0,1.8,4.1,3.3,9.2,3.3
			C40.1,28.9,44.2,27.4,44.2,25.5L44.2,25.5z"/>
		<path class="st0" d="M35,22.2c5.1,0,9.2,1.5,9.2,3.3c0,1.8-4.1,3.3-9.2,3.3c-5.1,0-9.2-1.5-9.2-3.3C25.8,23.7,29.9,22.2,35,22.2z
			 M2.9,15.5c-0.1-1.7,0-3.4,0.3-5c0.5-2.1,1.4-3.8,2.7-5.1c1.8-1.8,4.4-2.8,7.7-3c1.6-0.1,3.2,0,4.7,0.3l0.4-2.3
			C16.9,0.1,15.2,0,13.4,0c-3.9,0.2-7,1.4-9.3,3.7C2.5,5.4,1.4,7.5,0.8,10l0,0c-0.4,1.9-0.5,3.8-0.3,5.7L2.9,15.5L2.9,15.5z
			 M1.2,20.1c0.3,1.3,0.7,2.5,1.1,3.8l2.3-0.8c-0.4-1.2-0.7-2.4-1-3.6L1.2,20.1z M8.1,31.1c-0.7-1.3-1.4-2.6-2-3.9l-2.2,1
			c0.6,1.4,1.3,2.7,2,4.1L8.1,31.1z M17.4,44.2c-0.1-0.1-0.2-0.2-0.3-0.4l-1.8,1.6c1,1.1,2,2.3,3.1,3.3l1.7-1.7
			C19.2,46.2,18.3,45.2,17.4,44.2z M12.4,41.9l1.9-1.5c-0.9-1.2-1.8-2.3-2.6-3.6l-2,1.4C10.6,39.5,11.5,40.7,12.4,41.9z M20.4,50.8
			c2.3,2.2,4.6,4.3,7.1,6.2c3.4,2.6,6.9,5,10.7,7c2.2,1.2,4.5,2.2,6.8,3l-2.2,0.6l0.7,2.3l6.1-1.7l0,0c0.3-0.1,0.6-0.3,0.7-0.6
			c0.2-0.3,0.2-0.6,0.1-0.9l-1.6-5.6l-2.3,0.7l1,3.5c-2.8-0.9-5.6-2.1-8.2-3.5c-3.6-1.9-7.1-4.2-10.4-6.8c-2.4-1.9-4.7-3.9-6.9-6
			L20.4,50.8z M69.3,51.2c-0.5-3-1.5-6.3-3-9.7l-2.2,1c1.4,3.2,2.4,6.3,2.8,9.1c0.9,5.3-0.1,9.5-2.7,12.2c-1.3,1.3-3,2.2-5,2.7
			c-1.6,0.4-3.5,0.5-5.5,0.3c-0.5,0-1-0.1-1.5-0.2l-0.4,2.4c0.6,0.1,1.1,0.2,1.7,0.2c0.8,0.1,1.5,0.1,2.3,0.1c1.4,0,2.7-0.1,4-0.4
			c2.5-0.6,4.6-1.7,6.2-3.3C69.1,62.3,70.2,57.3,69.3,51.2L69.3,51.2z M63.5,36l-2.1,1.2c0.6,1,1.1,2,1.6,3l2.1-1.1
			C64.6,38,64.1,37,63.5,36z M57.9,27.7L56,29.1c0.9,1.2,1.8,2.4,2.6,3.6l2-1.3C59.7,30.1,58.9,28.9,57.9,27.7z M52,20.8l-1.7,1.6
			c1,1.1,2,2.2,3,3.3l1.8-1.5C54.1,23,53.1,21.9,52,20.8z M21.3,2.8l1.2,5.6l2.3-0.5l-0.8-3.6c2.2,0.8,4.3,1.7,6.4,2.8
			c3.6,1.9,7,4.1,10.2,6.6c2.5,1.9,4.8,3.9,7,6.1c0.3,0.3,0.7,0.7,1.1,1.1l1.7-1.7c-1.2-1.2-2.4-2.3-3.7-3.5
			c-1.5-1.3-3.1-2.6-4.7-3.9c-1.5-1.2-3.1-2.3-4.7-3.4c0.9-0.5,1.8-1,2.7-1.5l-1.1-2.1C38,5.4,36.9,6,35.9,6.6l0.8,1.3
			c-1.7-1.1-3.3-2-5.1-3c-1.5-0.8-3.1-1.5-4.7-2.2l2.1-0.5L28.4,0l-6.2,1.3C21.6,1.5,21.1,2.1,21.3,2.8L21.3,2.8z M0.4,51.4
			C0.1,53.1,0,54.9,0,56.6c0.2,3.9,1.4,7,3.7,9.3c1.6,1.6,3.7,2.8,6.3,3.3c1.9,0.4,3.8,0.5,5.7,0.3l-0.2-2.4c-1.7,0.1-3.4,0.1-5-0.3
			c-2.1-0.5-3.8-1.3-5.1-2.7c-1.8-1.8-2.8-4.4-3-7.7c-0.1-1.6,0-3.1,0.3-4.7L0.4,51.4L0.4,51.4z M20.1,68.8c1.3-0.3,2.5-0.7,3.8-1.1
			l-0.8-2.3c-1.2,0.4-2.4,0.7-3.5,1L20.1,68.8L20.1,68.8z M28.2,66c1.4-0.6,2.7-1.3,4.1-2l-1.1-2.1c-1.3,0.7-2.6,1.4-3.9,2L28.2,66
			L28.2,66z"/>
		<path class="st0" d="M36.9,58.3l1.4,2c1.2-0.9,2.5-1.8,3.7-2.7l-1.5-1.9C39.3,56.6,38.1,57.5,36.9,58.3z M43.9,52.9l1.6,1.8
			c0.1-0.1,0.2-0.2,0.4-0.3c0.7-0.6,1.4-1.2,2.1-1.9c0.3-0.3,0.6-0.6,0.9-0.9l-1.7-1.7c-0.3,0.3-0.6,0.6-0.9,0.8
			c-0.7,0.6-1.3,1.2-2,1.8L43.9,52.9z M51.6,3.1c5.3-0.9,9.5,0.1,12.2,2.7c1.3,1.3,2.2,3,2.7,5c0.4,1.6,0.5,3.5,0.3,5.5
			c0,0.5-0.1,1-0.2,1.5l2.4,0.4c0.1-0.6,0.2-1.1,0.2-1.7c0.2-2.3,0.1-4.4-0.3-6.3c-0.6-2.5-1.7-4.6-3.3-6.2
			C62.3,1,57.3-0.2,51.2,0.8c-3,0.5-6.3,1.5-9.7,3l1,2.2C45.7,4.5,48.8,3.6,51.6,3.1z M25.7,16.7l-1.6-1.8c-1.1,1-2.3,2-3.4,3
			l1.6,1.7C23.5,18.7,24.6,17.7,25.7,16.7z M32.7,11.4l-1.3-2c-1.2,0.9-2.5,1.7-3.7,2.7l1.4,1.9C30.3,13.1,31.5,12.2,32.7,11.4z
			 M68.3,20.4L68.3,20.4c-0.1-0.3-0.3-0.6-0.6-0.8c-0.3-0.2-0.6-0.2-0.9-0.1l-5.6,1.6l0.7,2.3l3.5-1c-0.9,2.8-2.1,5.6-3.5,8.2
			c-1.9,3.6-4.2,7.1-6.8,10.4c-1.9,2.4-3.9,4.7-6,6.9l1.7,1.7c2.2-2.3,4.3-4.6,6.2-7.1c2.6-3.4,5-6.9,7-10.7c1.2-2.2,2.2-4.5,3-6.8
			l0.6,2.2l2.3-0.7L68.3,20.4L68.3,20.4z M2.5,48.8c0.1,0,0.2,0,0.3,0l5.6-1.2l-0.5-2.3L4.3,46c0.8-2.2,1.7-4.3,2.8-6.4
			c1.9-3.6,4.1-7,6.6-10.2c2.2-2.8,4.6-5.6,7.1-8.1l-1.7-1.7c-1.2,1.2-2.3,2.4-3.5,3.7c-1.3,1.5-2.6,3.1-3.9,4.7
			C9.2,31.2,6.9,34.8,5,38.5c-0.8,1.5-1.5,3.1-2.2,4.7l-0.5-2.1L0,41.6l1.3,6.2C1.4,48.4,1.9,48.8,2.5,48.8z M24.7,25.5v18.9
			c0,1,0.6,2.4,3.4,3.5c1.9,0.7,4.3,1,6.9,1h0.1c1.5,0,3-0.1,4.4-0.4c3.7-0.7,5.9-2.2,5.9-4.1V25.5c0-1-0.6-2.4-3.5-3.5
			c-1.9-0.7-4.3-1-6.9-1c-2.6,0-5,0.4-6.9,1C25.3,23.1,24.7,24.5,24.7,25.5z"/>
		<path class="st1" d="M43,44.5c0,0.2-1,1.2-3.9,1.8c-1.4,0.2-2.7,0.4-4.1,0.4c-2.3,0-4.4-0.3-6.1-0.9c-1.6-0.6-1.9-1.1-1.9-1.2
			v-3.3c0.3,0.2,0.7,0.3,1.1,0.5c1.9,0.7,4.3,1,6.9,1c2.6,0,5.1-0.4,6.9-1c0.4-0.1,0.7-0.3,1.1-0.5V44.5L43,44.5z M43,38v0.1
			c0,0.1-0.4,0.7-1.9,1.2c-1.6,0.6-3.8,0.9-6.1,0.9c-2.3,0-4.4-0.3-6.1-0.9c-1.6-0.6-1.9-1.1-1.9-1.2v-3.3c0.3,0.2,0.7,0.3,1.1,0.5
			c1.9,0.7,4.3,1,6.9,1c2.6,0,5.1-0.4,6.9-1c0.4-0.1,0.7-0.3,1.1-0.5V38L43,38z M43,31.8c0,0.1-0.4,0.7-1.9,1.2
			C39.5,33.6,37.3,34,35,34c-2.3,0-4.4-0.3-6.1-0.9c-1.6-0.6-1.9-1.1-1.9-1.2v-3.3c0.3,0.2,0.7,0.3,1.1,0.5c1.9,0.7,4.3,1,6.9,1
			c2.6,0,5.1-0.4,6.9-1c0.4-0.1,0.7-0.3,1.1-0.5V31.8z M28.9,24.3c1.6-0.6,3.8-0.9,6.1-0.9c2.3,0,4.5,0.3,6.1,0.9
			c1.6,0.6,1.9,1.1,1.9,1.2c0,0.1-0.3,0.7-1.9,1.2c-1.6,0.6-3.8,0.9-6.1,0.9c-2.3,0-4.5-0.3-6.1-0.9c-1.6-0.6-1.9-1.1-1.9-1.2
			C27,25.5,27.4,24.9,28.9,24.3z"/>
	</g>
	<g id="group-47" transform="translate(286.000000, 241.000000)">
		<path class="st1" d="M5.8,41.2h16.5v9.5H5.8V41.2z M6.6,23.8v5.5h5.2c1.5,0,2.8,1.2,2.8,2.8c0,1.5-1.3,2.8-2.8,2.8H5
			c-2,0-3.6-1.6-3.6-3.5v-7.7c0-5.5,4.5-10,10-10h4.8c5.5,0,10,4.5,10,10v13.6c0,1.7-1.4,3.1-3.2,3.1L6.6,23.8z M13.9,13.6
			c-3,0-5.5-2.4-5.5-5.4V6.8c0-3,2.5-5.5,5.5-5.5c3,0,5.5,2.4,5.5,5.5v1.4C19.4,11.2,16.9,13.6,13.9,13.6z"/>
		<path class="st1" d="M19.5,50.7v16c0,1.5-1.2,2.8-2.8,2.8s-2.8-1.2-2.8-2.8v-16v16c0,1.5-1.2,2.8-2.8,2.8c-1.5,0-2.8-1.2-2.8-2.8
			v-16H19.5z M21.1,25v9.9l2.4,6.3H4.6L7,34.9L6.8,23.8L21.1,25z"/>
		<polygon class="st4" points="6.6,23.5 14.5,23.5 14.5,34.9 6.6,34.9 		"/>
		<path class="st1" d="M5,34.9h6.8c1.5,0,2.8-1.2,2.8-2.8c0-1.5-1.3-2.8-2.8-2.8H5"/>
		<path class="st0" d="M19.1,12.6c1.1-1.2,1.6-2.8,1.6-4.4V6.8c0-3.8-3.1-6.8-6.9-6.8C10,0,6.9,3.1,6.9,6.8v1.4
			c0,1.7,0.6,3.2,1.6,4.4C3.7,13.9,0,18.3,0,23.6v7.7c0,2.7,2.2,4.9,5,4.9h0.2l-1.9,4.4c-0.2,0.4-0.1,0.9,0.1,1.3
			c0.2,0.3,0.5,0.5,0.9,0.6v8.1c0,0.4,0.1,0.7,0.4,1c0.3,0.3,0.6,0.4,1,0.4h1.1v14.6c0,2.3,1.9,4.2,4.2,4.2c1,0,2-0.4,2.8-1.1
			c0.8,0.7,1.8,1.1,2.8,1.1c2.3,0,4.2-1.9,4.2-4.2V52.1h1.4c0.4,0,0.7-0.1,1-0.4c0.3-0.3,0.4-0.6,0.4-1v-8.1c0.4,0,0.7-0.3,1-0.6
			c0.1-0.2,0.2-0.4,0.2-0.6c1.7-0.7,2.8-2.3,2.8-4.2V23.6C27.7,18.3,24.1,13.9,19.1,12.6L19.1,12.6z M9.7,6.8c0-2.2,1.8-4.1,4.1-4.1
			c2.3,0,4.1,1.8,4.1,4.1v1.4c0,2.2-1.8,4.1-4.1,4.1c-2.3,0-4.1-1.8-4.1-4.1V6.8z M11.1,68.1c-0.8,0-1.4-0.6-1.4-1.4V52.1h2.8v14.6
			C12.5,67.5,11.8,68.1,11.1,68.1z M18.1,66.7c0,0.8-0.6,1.4-1.4,1.4c-0.8,0-1.4-0.6-1.4-1.4V52.1h2.8V66.7z M20.9,49.3H7.2v-6.7
			h13.7V49.3z M24.9,37.2c0,0.6-0.4,1.2-0.9,1.5l-1.6-4.1V25c0-0.4-0.1-0.7-0.4-1c-0.3-0.3-0.6-0.4-1-0.4c-0.4,0-0.7,0.1-1,0.4
			c-0.3,0.3-0.4,0.6-0.4,1v9.9l0,0c0,0,0,0.1,0,0.1l0,0.1c0,0.1,0,0.2,0.1,0.3c0,0,0,0,0,0l1.7,4.5H6.7l1.5-3.6h6.3
			c0.4,0,0.7-0.1,1-0.4c0.3-0.3,0.4-0.6,0.4-1V23.5c0-0.4-0.1-0.7-0.4-1c-0.3-0.3-0.6-0.4-1-0.4h-8c-0.4,0-0.7,0.1-1,0.4
			c-0.3,0.3-0.4,0.6-0.4,1v5.8c0,0.4,0.1,0.7,0.4,1c0.3,0.3,0.6,0.4,1,0.4h5.2c0.8,0,1.4,0.6,1.4,1.4s-0.6,1.4-1.4,1.4H5
			c-1.2,0-2.2-1-2.2-2.1v-7.7c0-4.7,3.9-8.6,8.7-8.6h4.8c4.8,0,8.7,3.8,8.7,8.6V37.2L24.9,37.2z M8,27.1v-2.2h5.2v3.3
			C12.7,28,12.2,28,11.7,28H8V27.1z"/>
		<g transform="translate(34.000000, 0.000000)">
			<path class="st1" d="M21.1,35.4v5.5h5.6V21.2c0-4.2-3.4-7.6-7.6-7.6H9.4c-4.2,0-7.6,3.4-7.6,7.6v19.7h5.6v-5.5H21.1z"/>
			<path class="st1" d="M21.1,35.4v30.6c0,1.9-1.5,3.4-3.4,3.4s-3.4-1.5-3.4-3.4V44.5v21.6c0,1.9-1.5,3.4-3.4,3.4S7.4,68,7.4,66.1
				V35.4H21.1z M14.2,13.6c-3,0-5.5-2.4-5.5-5.4V6.8c0-3,2.5-5.5,5.5-5.5s5.5,2.4,5.5,5.5v1.4C19.7,11.2,17.3,13.6,14.2,13.6z"/>
			<polygon class="st1" points="14.2,40.9 34.6,40.9 34.6,55.3 14.2,55.3 			"/>
			<path class="st0" d="M26.7,28.5c-0.4,0-0.7,0.1-1,0.4c-0.3,0.3-0.4,0.6-0.4,1c0,0.4,0.1,0.7,0.4,1c0.3,0.3,0.6,0.4,1,0.4
				c0.4,0,0.7-0.1,1-0.4c0.3-0.3,0.4-0.6,0.4-1s-0.1-0.7-0.4-1C27.4,28.7,27.1,28.5,26.7,28.5L26.7,28.5z"/>
			<path class="st0" d="M34.5,39.5h-6.7c0.2-0.4,0.2-0.9,0.2-1.4v-2.7c0-0.4-0.1-0.7-0.4-1c-0.3-0.3-0.6-0.4-1-0.4
				c-0.4,0-0.7,0.1-1,0.4c-0.3,0.3-0.4,0.6-0.4,1v2.7c0,0.8-0.6,1.4-1.4,1.4c-0.8,0-1.4-0.6-1.4-1.4v-6.9c0,0,0-0.1,0-0.1v-5.9
				c0-0.4-0.1-0.7-0.4-1c-0.3-0.3-0.6-0.4-1-0.4c-0.4,0-0.7,0.1-1,0.4c-0.3,0.3-0.4,0.6-0.4,1V34h-11v-2.8c0,0,0-0.1,0-0.1v-5.9
				c0-0.4-0.1-0.7-0.4-1c-0.3-0.3-0.6-0.4-1-0.4c-0.4,0-0.7,0.1-1,0.4c-0.3,0.3-0.4,0.6-0.4,1v13c-0.1,0.7-0.7,1.3-1.4,1.3
				c-0.8,0-1.4-0.6-1.4-1.4V21.2C3.2,17.8,6,15,9.4,15h9.7c3.4,0,6.2,2.8,6.2,6.2v3.1c0,0.4,0.1,0.7,0.4,1c0.3,0.3,0.6,0.4,1,0.4
				c0.4,0,0.7-0.1,1-0.4c0.3-0.3,0.4-0.6,0.4-1v-3.1c0-4.7-3.7-8.6-8.4-8.9c0.9-1.2,1.4-2.6,1.4-4.1V6.8C21.1,3.1,18,0,14.2,0
				c-3.8,0-6.9,3.1-6.9,6.8v1.4c0,1.5,0.5,3,1.4,4.1c-4.7,0.4-8.3,4.2-8.3,8.9v16.9c0,2.3,1.9,4.2,4.2,4.2c0.5,0,0.9-0.1,1.4-0.2v24
				c0,2.6,2.2,4.8,4.8,4.8c1.3,0,2.5-0.5,3.4-1.4c0.9,0.9,2.1,1.4,3.4,1.4c2.7,0,4.8-2.2,4.8-4.8v-9.4h12c0.4,0,0.7-0.1,1-0.4
				c0.3-0.3,0.4-0.6,0.4-1V40.9c0-0.4-0.1-0.7-0.4-1C35.3,39.7,34.9,39.5,34.5,39.5z M10.1,6.8c0-2.2,1.8-4.1,4.1-4.1
				s4.1,1.8,4.1,4.1v1.4c0,2.2-1.8,4.1-4.1,4.1s-4.1-1.8-4.1-4.1V6.8z M33.1,45.4h-7.4c-0.2-0.6-0.7-1.1-1.4-1.1
				c-0.7,0-1.2,0.5-1.4,1.1h-7.4v-3.1h17.5V45.4L33.1,45.4z M10.8,68.1c-1.1,0-2-0.9-2-2V38.4c0-0.1,0-0.1,0-0.2v-1.3h11v2.7h-5.5
				c-0.4,0-0.7,0.1-1,0.4s-0.4,0.6-0.4,1l0,25.2C12.8,67.2,11.9,68.1,10.8,68.1L10.8,68.1z M19.7,66.1c0,1.1-0.9,2-2,2
				c-1.1,0-2-0.9-2-2v-9.4h4.1V66.1z M15.6,53.9v-5.8H23c0.1,0.6,0.7,1.1,1.4,1.1c0.7,0,1.2-0.5,1.4-1.1h7.4v5.8H15.6L15.6,53.9z"/>
		</g>
	</g>
	<g id="group-10" transform="translate(402.000000, 246.000000)">
		<path class="st0" d="M6.4,12.9c1.8,0,3.2-1.4,3.2-3.2c0-1.8-1.4-3.2-3.2-3.2c-1.8,0-3.2,1.4-3.2,3.2C3.2,11.4,4.7,12.9,6.4,12.9z
			 M6.4,7.5c1.2,0,2.1,1,2.1,2.1c0,1.2-1,2.1-2.1,2.1c-1.2,0-2.1-1-2.1-2.1C4.3,8.5,5.2,7.5,6.4,7.5z M23.6,12.9
			c1.8,0,3.2-1.4,3.2-3.2c0-1.8-1.4-3.2-3.2-3.2c-1.8,0-3.2,1.4-3.2,3.2C20.4,11.4,21.8,12.9,23.6,12.9z M23.6,7.5
			c1.2,0,2.1,1,2.1,2.1c0,1.2-1,2.1-2.1,2.1c-1.2,0-2.1-1-2.1-2.1C21.4,8.5,22.4,7.5,23.6,7.5z M28.9,13.9v7c0,0.9-0.7,1.6-1.6,1.6
			v-5.9c0-1.5-1.2-2.7-2.7-2.7H22c-0.3,0-0.5,0.2-0.5,0.5v3.2h-4.3c-0.3,0-0.5,0.2-0.5,0.5v1.6h-3.2v-1.6c0-0.3-0.2-0.5-0.5-0.5H8.6
			v-3.2c0-0.3-0.2-0.5-0.5-0.5H5.4c-1.5,0-2.7,1.2-2.7,2.7v5.9c-0.9,0-1.6-0.7-1.6-1.6v-7H0v7c0,1.1,0.6,2,1.6,2.5V30h1.1v-6.4H8
			v5.9C8,29.8,8.3,30,8.6,30h2.7v-9.1h7.5V30h2.7c0.3,0,0.5-0.2,0.5-0.5v-5.9h5.4V30h1.1v-6.7c1-0.4,1.6-1.4,1.6-2.5v-7H28.9z
			 M10.7,19.8H6.4v-3.2H5.4v3.8c0,0.3,0.2,0.5,0.5,0.5h3.7c0.3,0,0.5,0.2,0.5,0.5v7.5H9.1V23c0-0.3-0.2-0.5-0.5-0.5H3.8v-5.9
			c0-0.9,0.7-1.6,1.6-1.6h2.1v3.2c0,0.3,0.2,0.5,0.5,0.5h4.3v1.1L10.7,19.8L10.7,19.8z M21.4,22.5c-0.1,0-0.3,0.1-0.4,0.2
			c-0.1,0.1-0.2,0.2-0.2,0.4v5.9h-1.1v-7.5c0-0.3,0.2-0.5,0.5-0.5h3.8c0.3,0,0.5-0.2,0.5-0.5v-3.8h-1.1v3.2h-5.9v-1.1H22
			c0.3,0,0.5-0.2,0.5-0.5V15h2.1c0.9,0,1.6,0.7,1.6,1.6v5.9H21.4z M10.2,5.4V7c0,0.2,0.1,0.4,0.4,0.5s0.5,0,0.6-0.2l1.4-1.9h4
			c0.9,0,1.6-0.7,1.6-1.6V1.6c0-0.9-0.7-1.6-1.6-1.6h-6.4C9.3,0,8.6,0.7,8.6,1.6v2.1C8.6,4.6,9.3,5.4,10.2,5.4L10.2,5.4z M9.6,1.6
			c0-0.3,0.2-0.5,0.5-0.5h6.4c0.3,0,0.5,0.2,0.5,0.5v2.1c0,0.3-0.2,0.5-0.5,0.5h-4.3c-0.2,0-0.3,0.1-0.4,0.2l-0.6,0.9V4.8
			c0-0.3-0.2-0.5-0.5-0.5h-0.5C9.9,4.3,9.6,4,9.6,3.8V1.6z"/>
		<path class="st0" d="M10.7,2.1h5.4v1.1h-5.4V2.1z M14.5,13.4h3.2v1.1h-3.2V13.4z"/>
		<path class="st0" d="M13.9,11.2c-0.9,0-1.6,0.7-1.6,1.6V15c0,0.9,0.7,1.6,1.6,1.6h4.3c0.9,0,1.6-0.7,1.6-1.6v-0.4l1-1.5
			c0.1-0.2,0.1-0.4,0-0.6c-0.1-0.2-0.3-0.3-0.5-0.3h-0.6c-0.2-0.6-0.8-1.1-1.5-1.1H13.9L13.9,11.2z M18.8,12.9
			c0,0.3,0.2,0.5,0.5,0.5h0.1l-0.5,0.8c-0.1,0.1-0.1,0.2-0.1,0.3V15c0,0.3-0.2,0.5-0.5,0.5h-4.3c-0.3,0-0.5-0.2-0.5-0.5v-2.1
			c0-0.3,0.2-0.5,0.5-0.5h4.3C18.5,12.3,18.8,12.6,18.8,12.9L18.8,12.9z M12.3,8.6h1.1v1.1h-1.1V8.6z M14.5,8.6h1.1v1.1h-1.1V8.6z
			 M16.6,8.6h1.1v1.1h-1.1V8.6z"/>
	</g>
	<g id="group-19" transform="translate(369.000000, 283.000000)">
		<path class="st0" d="M16.7,22.3l1-1l0.7,0.7l-1,1L16.7,22.3z M13.4,25.6c-0.1,0.1-0.2,0.1-0.3,0.1c-0.1,0-0.2-0.1-0.3-0.1
			l-1.4-1.4l-0.7,0.7l1.4,1.4c0.3,0.3,0.6,0.4,1,0.4c0.4,0,0.7-0.1,1-0.4l2.7-2.7l-0.7-0.7L13.4,25.6z"/>
		<path class="st0" d="M16.9,0l-6.7,6.7L4.4,0.8C4,0.4,3.4,0.2,2.8,0.2c-0.6,0-1.1,0.2-1.6,0.6L0.8,1.3c-0.4,0.4-0.6,1-0.6,1.6
			c0,0.6,0.2,1.1,0.6,1.6l5.8,5.8L0,16.9L13.1,30L30,13.1L16.9,0L16.9,0z M13.5,13.5l-1.8-0.3l1.5-1.5L13.5,13.5z M4,4.7l7.4,7.4
			l-0.8,0.8L3.3,5.4L4,4.7z M12.1,11.5L4.7,4l0.8-0.8l7.4,7.4L12.1,11.5z M1.2,2.8c0-0.3,0.1-0.6,0.4-0.9l0.4-0.4
			c0.5-0.5,1.3-0.5,1.8,0l1.1,1.1L2.6,4.8L1.5,3.7C1.3,3.5,1.2,3.2,1.2,2.8L1.2,2.8z M1.3,16.9l6-6l3.1,3.1l4.1,0.6L14,10.5
			l-3.1-3.1l6-6l11.7,11.7L13.1,28.6L1.3,16.9L1.3,16.9z"/>
		<path class="st0" d="M20.4,9.3c-1.1,0-2.1,0.4-2.9,1.2l-1,1l2,2l1-1c0.5-0.4,1.3-0.4,1.7,0.1c0.5,0.5,0.5,1.2,0.1,1.7
			c-0.4,0.4-1.1,0.7-1.7,0.7h-2.8l-0.4,0.4l-3.4,3.9l1.6,1.6l3.5-3h1.7c1.4,0,2.7-0.5,3.7-1.5c0.8-0.8,1.2-1.8,1.2-2.9
			C24.5,11.1,22.7,9.3,20.4,9.3L20.4,9.3z M22.6,15.6c-0.8,0.8-1.9,1.3-3,1.3h-2l-3.1,2.7l-0.3-0.3l2.8-3.2l0.1-0.1h2.4
			c0.9,0,1.7-0.4,2.4-1c0.8-0.9,0.8-2.2-0.1-3.1c-0.8-0.8-2.2-0.9-3.1-0.1l-0.3,0.3l-0.7-0.7l0.3-0.3c0.6-0.6,1.4-0.9,2.2-0.9
			c1.8,0,3.2,1.4,3.2,3.2C23.6,14.2,23.2,15,22.6,15.6z M10.7,21.7c0,0.8,0.6,1.4,1.4,1.4c0.8,0,1.4-0.6,1.4-1.4
			c0-0.8-0.6-1.4-1.4-1.4C11.3,20.2,10.7,20.9,10.7,21.7z M12.1,21.2c0.2,0,0.3,0.1,0.4,0.2c0.1,0.2,0.1,0.3,0,0.5
			c-0.1,0.2-0.3,0.2-0.4,0.2c-0.3,0-0.5-0.2-0.5-0.5S11.9,21.2,12.1,21.2z M16.1,3.9l0.7-0.7l3.3,3.3l-0.7,0.7L16.1,3.9z M14.7,5.3
			l0.7-0.7L18.7,8L18,8.6L14.7,5.3z M13.2,6.7l0.7-0.7l3.3,3.3l-0.7,0.7L13.2,6.7z M6.5,13.9l0.7-0.7L12,18l-0.7,0.7L6.5,13.9z
			 M5.1,15.3l0.7-0.7l4.8,4.8l-0.7,0.7L5.1,15.3z M3.7,16.8l0.7-0.7l4.8,4.8l-0.7,0.7L3.7,16.8z"/>
	</g>
	<g transform="translate(368.000000, 246.000000)">
		<path class="st0" d="M18.7,16.6c0-0.2-0.2-0.5-0.4-0.5h-2.7c-0.1,0-0.2,0-0.3,0.1c-0.1,0.1-0.1,0.2-0.1,0.3c0,0.2,0.2,0.4,0.4,0.4
			h2.7c0.1,0,0.2,0,0.3-0.1C18.7,16.9,18.7,16.7,18.7,16.6L18.7,16.6z M17,4.9V2.7c0-0.2-0.2-0.5-0.4-0.5c-0.1,0-0.2,0-0.3,0.1
			s-0.1,0.2-0.1,0.3v2.2c0,1.2,1,2.2,2.2,2.2h4v8.5c0,0.2,0.2,0.5,0.4,0.5c0.1,0,0.2,0,0.3-0.1c0.1-0.1,0.1-0.2,0.1-0.3v-9
			c0-0.2-0.2-0.4-0.4-0.4h-4.5C17.6,6.3,17,5.7,17,4.9z M18.3,10.8h-3.6c-0.1,0-0.2,0-0.3,0.1c-0.1,0.1-0.1,0.2-0.1,0.3
			c0,0.2,0.2,0.4,0.4,0.4h3.6c0.1,0,0.2,0,0.3-0.1c0.1-0.1,0.1-0.2,0.1-0.3C18.7,11,18.5,10.8,18.3,10.8L18.3,10.8z M13.4,11.2
			c0-0.2-0.2-0.4-0.4-0.4h-2.7c-0.1,0-0.2,0-0.3,0.1c-0.1,0.1-0.1,0.2-0.1,0.3c0,0.2,0.2,0.5,0.4,0.5h2.7c0.1,0,0.2,0,0.3-0.1
			C13.3,11.5,13.4,11.3,13.4,11.2L13.4,11.2z M10.3,13.5c-0.2,0-0.4,0.2-0.4,0.4c0,0.2,0.2,0.4,0.4,0.4h0.9c0.1,0,0.2,0,0.3-0.1
			s0.1-0.2,0.1-0.3c0-0.2-0.2-0.4-0.4-0.4H10.3z M10.3,9h4.5c0.2,0,0.4-0.2,0.4-0.4c0-0.2-0.2-0.4-0.4-0.4h-4.5
			c-0.1,0-0.2,0-0.3,0.1C9.9,8.3,9.8,8.4,9.8,8.5C9.8,8.8,10,9,10.3,9z M12.9,14.4h4.5c0.1,0,0.2,0,0.3-0.1c0.1-0.1,0.1-0.2,0.1-0.3
			c0-0.2-0.2-0.4-0.4-0.4h-4.5c-0.1,0-0.2,0-0.3,0.1s-0.1,0.2-0.1,0.3C12.5,14.2,12.7,14.4,12.9,14.4z M15.6,18.9
			c-0.1,0-0.2,0-0.3,0.1c-0.1,0.1-0.1,0.2-0.1,0.3c0,0.2,0.2,0.4,0.4,0.4h0.9c0.1,0,0.2,0,0.3-0.1c0.1-0.1,0.1-0.2,0.1-0.3
			c0-0.2-0.2-0.4-0.4-0.4H15.6L15.6,18.9z M13.8,16.2h-3.6c-0.1,0-0.2,0-0.3,0.1c-0.1,0.1-0.1,0.2-0.1,0.3c0,0.2,0.2,0.4,0.4,0.4
			h3.6c0.1,0,0.2,0,0.3-0.1c0.1-0.1,0.1-0.2,0.1-0.3C14.3,16.4,14.1,16.2,13.8,16.2z M13.8,18.9h-3.6c-0.1,0-0.2,0-0.3,0.1
			c-0.1,0.1-0.1,0.2-0.1,0.3c0,0.2,0.2,0.4,0.4,0.4h3.6c0.1,0,0.2,0,0.3-0.1c0.1-0.1,0.1-0.2,0.1-0.3C14.3,19.1,14.1,18.9,13.8,18.9
			z M24.5,18.5l-0.9-0.9c-0.7-0.7-1.7-0.7-2.4,0l-5.8,5.9c-0.1,0.1-0.1,0.2-0.1,0.3v2.7c0,0.2,0.2,0.5,0.4,0.5h2.7
			c0.1,0,0.2,0,0.3-0.1l5.8-5.9C25.2,20.2,25.2,19.2,24.5,18.5z M20.6,19.5l0.7,0.7l-3.9,3.9l-0.7-0.7L20.6,19.5z M16.1,26V24l2,2.1
			H16.1z M18.7,25.4L18,24.7l3.9-3.9l0.7,0.7L18.7,25.4z M23.8,20.3l-0.6,0.6l-2-2.1l0.6-0.6c0.4-0.4,0.8-0.4,1.2,0l0.9,0.9
			C24.2,19.5,24.2,19.9,23.8,20.3z"/>
		<path class="st0" d="M13.8,26H2.2c-0.7,0-1.3-0.6-1.3-1.3V2.2c0-0.7,0.6-1.3,1.3-1.3h14.1l4.3,4.4c0.1,0.1,0.2,0.1,0.3,0.1
			s0.2,0,0.3-0.1c0.2-0.2,0.2-0.5,0-0.6l-4.5-4.5C16.7,0,16.6,0,16.5,0H2.2C1,0,0,1,0,2.2v22.5c0,1.2,1,2.2,2.2,2.2h11.6
			c0.1,0,0.2,0,0.3-0.1s0.1-0.2,0.1-0.3C14.3,26.2,14.1,26,13.8,26L13.8,26z"/>
		<path class="st0" d="M13.8,21.6h-3.6c-0.2,0-0.4,0.2-0.4,0.4c0,0.2,0.2,0.5,0.4,0.5h3.6c0.1,0,0.2,0,0.3-0.1
			c0.1-0.1,0.1-0.2,0.1-0.3C14.3,21.8,14.1,21.6,13.8,21.6L13.8,21.6z M8,8.5c0-0.2-0.2-0.4-0.4-0.4H4.9c-0.1,0-0.2,0-0.3,0.1
			S4.5,8.4,4.5,8.5v2.7c0,0.2,0.2,0.5,0.4,0.5h2.7c0.1,0,0.2,0,0.3-0.1C8,11.5,8,11.3,8,11.2L8,8.5L8,8.5z M7.1,10.8H5.4V9h1.8
			L7.1,10.8L7.1,10.8z M4.9,22.5h2.7C7.8,22.5,8,22.3,8,22v-2.7c0-0.2-0.2-0.4-0.4-0.4H4.9c-0.1,0-0.2,0-0.3,0.1
			c-0.1,0.1-0.1,0.2-0.1,0.3V22C4.5,22.3,4.7,22.5,4.9,22.5L4.9,22.5z M5.4,19.8h1.8v1.8H5.4V19.8L5.4,19.8z M5.5,16.9
			c0.1,0.1,0.2,0.1,0.4,0.1s0.3-0.1,0.3-0.2L8,14.2C8.1,14,8,13.7,7.8,13.5c-0.1-0.1-0.2-0.1-0.3-0.1c-0.1,0-0.2,0.1-0.3,0.2
			l-1.5,2.2l-0.5-0.5c-0.1-0.1-0.2-0.1-0.3-0.1s-0.2,0-0.3,0.1c-0.2,0.2-0.2,0.5,0,0.6L5.5,16.9z"/>
	</g>
	<g id="presentation" transform="translate(176.000000, 241.000000)">
		<path class="st1" d="M23.3,21V3.5c0-1.3,1-2.3,2.3-2.3h40.9c1.3,0,2.3,1.1,2.3,2.3V35c0,1.3-1,2.3-2.3,2.3l-40.8-0.1
			c-1.3,0-2.3-1-2.3-2.3V21z"/>
		<path class="st1" d="M68.7,5.8H23.3l0-2.3c0-0.6,0.2-1.2,0.7-1.6c0.4-0.4,1-0.7,1.6-0.7h40.7c0.6,0,1.2,0.2,1.6,0.7
			c0.4,0.4,0.7,1,0.7,1.6V5.8z M23.3,26.9l-4,4c-0.4,0.4-1,0.7-1.6,0.7H5.8c-1.2,0-2.4,0.5-3.3,1.4s-1.4,2.1-1.4,3.3V42h4.7v15.2h14
			V38.2c0-0.6,0.2-1.2,0.6-1.6l6.1-6.6L23.3,26.9z"/>
		<path class="st1" d="M1.2,42l0,10.5c0,0.6,0.2,1.2,0.7,1.6s1,0.7,1.6,0.7c0.6,0,1.2-0.2,1.6-0.7c0.4-0.4,0.7-1,0.7-1.6l0-10.5H1.2
			z M58.3,56L58.3,56c-3.1,0.1-5.5-2.2-5.7-5.2l-0.1-3.1c0-1.5,0.5-3,1.6-4c1.1-1.1,2.5-1.7,4-1.6h0.4c1.5,0,3,0.6,4,1.6
			s1.6,2.5,1.6,4l-0.1,3.1C63.7,53.8,61.2,56.1,58.3,56z M32.6,56c-3,0.1-5.5-2.2-5.6-5.2l-0.1-3.1c0-1.5,0.5-3,1.6-4
			c1.1-1.1,2.5-1.7,4-1.6h0.4c1.5,0,3,0.6,4,1.6s1.6,2.5,1.6,4l-0.1,3.1C38.1,53.8,35.6,56.1,32.6,56L32.6,56z M43.1,68.8l0-4.9
			c0-1.2-0.5-2.3-1.3-3.2c-0.8-0.8-2-1.3-3.2-1.3h-12c-1.2,0-2.3,0.5-3.2,1.3s-1.3,2-1.3,3.2l0,4.9H43.1z M68.7,68.8V64
			c0-1.2-0.5-2.3-1.3-3.2c-0.8-0.8-2-1.3-3.2-1.3h-12c-1.2,0-2.3,0.5-3.2,1.3c-0.8,0.8-1.3,2-1.3,3.2l0,4.9H68.7z"/>
		<path class="st0" d="M58.2,57.2L58.2,57.2c3.7,0.1,6.7-2.7,6.9-6.3l0.1-3.1c0.1-1.8-0.6-3.5-1.8-4.8c-1.3-1.4-3.1-2.1-5-2.1H58
			c-1.9,0-3.7,0.8-5,2.1c-1.2,1.3-1.9,3-1.8,4.8l0.1,3.1C51.6,54.4,54.6,57.2,58.2,57.2L58.2,57.2z M54.7,44.6
			c0.9-0.9,2.1-1.4,3.3-1.4h0.4c1.2,0,2.4,0.5,3.3,1.4c0.8,0.8,1.2,1.9,1.2,3l-0.1,3.1c-0.2,2.3-2.1,4.1-4.5,4.1h-0.1
			c-2.3,0.1-4.3-1.7-4.5-4.1l-0.1-3.1C53.5,46.5,53.9,45.4,54.7,44.6L54.7,44.6z M3.5,56c0.4,0,0.8-0.1,1.2-0.2v1.4
			c0,0.6,0.5,1.2,1.2,1.2h14c0.6,0,1.2-0.5,1.2-1.2V38.2c0-0.3,0.1-0.6,0.3-0.8L36,21.5c1.2-1.3,1.2-3.3-0.1-4.6
			c-1.2-1.2-3.2-1.2-4.5,0l-13,13c-0.2,0.2-0.5,0.3-0.8,0.3H5.8c-3.2,0-5.8,2.6-5.8,5.8v16.3C0,54.4,1.6,56,3.5,56z M2.3,36.2
			c0-1.9,1.6-3.5,3.5-3.5h11.8c0.9,0,1.8-0.4,2.5-1l13-13c0.4-0.3,0.9-0.3,1.3,0c0.3,0.4,0.3,0.9,0,1.3l0,0l-14.8,16
			c-0.6,0.6-0.9,1.5-0.9,2.4V56H7V38.5c0-0.6-0.5-1.2-1.2-1.2c-0.6,0-1.2,0.5-1.2,1.2v14c0,0.6-0.5,1.2-1.2,1.2
			c-0.3,0-0.6-0.1-0.8-0.3s-0.3-0.5-0.3-0.8V36.2z"/>
		<path class="st0" d="M12.8,50.2c0.6,0,1.2-0.5,1.2-1.2V35c0-0.6-0.5-1.2-1.2-1.2c-0.6,0-1.2,0.5-1.2,1.2v14
			C11.6,49.6,12.2,50.2,12.8,50.2z M32.6,57.2L32.6,57.2c3.7,0.1,6.7-2.7,6.9-6.3l0.1-3.1c0.1-1.8-0.6-3.5-1.8-4.8
			c-1.3-1.4-3.1-2.1-5-2.1h-0.4c-1.9,0-3.7,0.8-5,2.1c-1.2,1.3-1.9,3-1.8,4.8l0.1,3.1C26,54.4,29,57.2,32.6,57.2L32.6,57.2z
			 M29.1,44.6c0.9-0.9,2.1-1.4,3.3-1.4h0.4c1.2,0,2.4,0.5,3.3,1.4c0.8,0.8,1.2,1.9,1.2,3l-0.1,3.1c-0.2,2.3-2.1,4.1-4.5,4.1h-0.1
			c-2.3,0.1-4.3-1.7-4.5-4.1l-0.1-3.1C27.9,46.5,28.3,45.4,29.1,44.6L29.1,44.6z"/>
		<path class="st1" d="M12,27.9c-3,0.1-5.5-2.2-5.6-5.2l-0.1-3.1c0-1.5,0.5-3,1.6-4c1.1-1.1,2.5-1.7,4-1.6h0.4c1.5,0,3,0.6,4,1.6
			s1.6,2.5,1.6,4l-0.1,3.1C17.6,25.6,15.1,27.9,12,27.9L12,27.9z"/>
		<path class="st0" d="M12,29L12,29c3.7,0.1,6.7-2.7,6.9-6.3l0.1-3.1c0.1-1.8-0.6-3.5-1.8-4.8c-1.3-1.4-3.1-2.1-5-2.1h-0.4
			c-1.9,0-3.7,0.8-5,2.1c-1.2,1.3-1.9,3-1.8,4.8l0.1,3.1C5.4,26.3,8.4,29.1,12,29L12,29z M8.6,16.4c0.9-0.9,2.1-1.4,3.3-1.4h0.4
			c1.2,0,2.4,0.5,3.3,1.4c0.8,0.8,1.2,1.9,1.2,3l-0.1,3.1c-0.2,2.3-2.1,4.1-4.5,4.1H12c-2.3,0.1-4.3-1.7-4.5-4.1l-0.1-3.1
			C7.4,18.3,7.8,17.2,8.6,16.4z M21,64v4.9c0,0.6,0.5,1.1,1.2,1.1s1.1-0.5,1.2-1.1V64c0-1.8,1.5-3.3,3.3-3.3h12
			c1.8,0,3.3,1.5,3.3,3.3v4.9c0,0.6,0.5,1.2,1.2,1.2s1.2-0.5,1.2-1.2V64c0-3.1-2.5-5.6-5.6-5.6h-12C23.5,58.3,21,60.9,21,64z
			 M64.2,58.3h-12c-3.1,0-5.6,2.5-5.6,5.6v4.9c0,0.6,0.5,1.2,1.2,1.2c0.6,0,1.2-0.5,1.2-1.2V64c0-1.8,1.5-3.3,3.3-3.3h12
			c1.8,0,3.3,1.5,3.3,3.3v4.9c0,0.6,0.5,1.2,1.2,1.2c0.6,0,1.2-0.5,1.2-1.2V64C69.9,60.9,67.3,58.3,64.2,58.3z M66.4,0H25.6
			c-1.9,0-3.4,1.6-3.4,3.5V21c0,0.6,0.5,1.2,1.2,1.2c0.6,0,1.2-0.5,1.2-1.2V7h43.1v28c0,0.6-0.5,1.2-1.1,1.2H26.7
			c-0.4,0-0.8,0.2-1,0.6c-0.2,0.4-0.2,0.8,0,1.2c0.2,0.4,0.6,0.6,1,0.6h39.7c1.9,0,3.4-1.6,3.4-3.5V3.5C69.9,1.6,68.3,0,66.4,0z
			 M24.4,4.7l0-1.2c0-0.6,0.5-1.1,1.1-1.2h40.9c0.6,0,1.1,0.5,1.1,1.2l0,1.2H24.4L24.4,4.7z"/>
		<path class="st0" d="M64,14.9c-0.6,0-1.2,0.5-1.2,1.2v16.6c0,0.6,0.5,1.2,1.2,1.2c0.6,0,1.2-0.5,1.2-1.2V16
			C65.2,15.4,64.7,14.9,64,14.9z M59.4,22.2c-0.6,0-1.2,0.5-1.2,1.2v9.3c0,0.6,0.5,1.2,1.2,1.2c0.6,0,1.2-0.5,1.2-1.2v-9.3
			C60.5,22.7,60,22.2,59.4,22.2z M53.6,21v11.7c0,0.6,0.5,1.2,1.2,1.2c0.6,0,1.2-0.5,1.2-1.2V21c0-0.6-0.5-1.1-1.2-1.1
			C54.1,19.9,53.6,20.4,53.6,21L53.6,21z M50.1,26.8c-0.6,0-1.2,0.5-1.2,1.2v4.7c0,0.6,0.5,1.2,1.2,1.2s1.2-0.5,1.2-1.2V28
			C51.2,27.4,50.7,26.8,50.1,26.8z"/>
		<path class="st0" d="M44.5,27.5c0.4,0.5,1.1,0.6,1.6,0.2l4.7-3.5c0.1-0.1,0.3-0.2,0.3-0.4l4-8.1l3.5,2.7c0.3,0.2,0.6,0.3,0.9,0.2
			c0.3-0.1,0.6-0.2,0.8-0.5l4.7-7c0.4-0.5,0.2-1.3-0.3-1.6c-0.3-0.2-0.6-0.2-0.9-0.2c-0.3,0.1-0.6,0.2-0.7,0.5l-4,6l-3.7-2.8
			c-0.3-0.2-0.6-0.3-1-0.2c-0.3,0.1-0.6,0.3-0.8,0.6l-4.5,9.1l-4.4,3.3C44.2,26.3,44.1,27,44.5,27.5z M41.9,11.7
			c0.6,0,1.2-0.5,1.2-1.2s-0.5-1.2-1.2-1.2h-14c-0.6,0-1.2,0.5-1.2,1.2s0.5,1.2,1.2,1.2H41.9L41.9,11.7z M48.9,11.7
			c0.6,0,1.2-0.5,1.2-1.2s-0.5-1.2-1.2-1.2h-2.3c-0.6,0-1.2,0.5-1.2,1.2s0.5,1.2,1.2,1.2H48.9z"/>
	</g>
</g>
</svg>
